AWSTATS DATA FILE 7.7 (build 20180105)
# If you remove this file, all statistics for date 201809 will be lost/reset.
# Last config file used to build this data file was /home2/fyfxamvcmvss/tmp/awstats/ssl/awstats.firs.freudenbergleisure.com.conf.

# Position (offset in bytes) in this file for beginning of each section for
# direct I/O access. If you made changes somewhere in this file, you should
# also remove completely the MAP section (AWStats will rewrite it at next
# update).
BEGIN_MAP 28
POS_GENERAL 2033                
POS_TIME 2705                
POS_VISITOR 5854                
POS_DAY 6017                
POS_DOMAIN 3199                
POS_LOGIN 3424                
POS_ROBOT 3579                
POS_WORMS 3711                
POS_EMAILSENDER 3842                
POS_EMAILRECEIVER 3985                
POS_SESSION 6116                
POS_SIDER 6262                
POS_FILETYPES 4120                
POS_DOWNLOADS 4233                
POS_OS 4281                
POS_BROWSER 4369                
POS_SCREENSIZE 4451                
POS_UNKNOWNREFERER 4525                
POS_UNKNOWNREFERERBROWSER 4742                
POS_ORIGIN 4824                
POS_SEREFERRALS 4954                
POS_PAGEREFS 5098                
POS_SEARCHWORDS 5246                
POS_KEYWORDS 5398                
POS_MISC 2369                
POS_ERRORS 5457                
POS_CLUSTER 3280                
POS_SIDER_404 5545                
END_MAP

# LastLine    = Date of last record processed - Last record line number in last log - Last record offset in last log - Last record signature value
# FirstTime   = Date of first visit for history file
# LastTime    = Date of last visit for history file
# LastUpdate  = Date of last update - Nb of parsed records - Nb of parsed old records - Nb of parsed new records - Nb of parsed corrupted - Nb of parsed dropped
# TotalVisits = Number of visits
# TotalUnique = Number of unique visitors
# MonthHostsKnown   = Number of hosts known
# MonthHostsUnKnown = Number of hosts unknown
BEGIN_GENERAL 8
LastLine 20181007112933 1 0 15708670273972
FirstTime 20180912142150
LastTime 20180912142150
LastUpdate 20181007173333 1 0 0 0 0
TotalVisits 1                   
TotalUnique 1                   
MonthHostsKnown 0                   
MonthHostsUnknown 3                   
END_GENERAL

# Misc ID - Pages - Hits - Bandwidth
BEGIN_MISC 10
AddToFavourites 0 0 0
QuickTimeSupport 0 0 0
WindowsMediaPlayerSupport 0 0 0
TotalMisc 0 0 0
FlashSupport 0 0 0
JavaEnabled 0 0 0
RealPlayerSupport 0 0 0
JavascriptDisabled 0 0 0
DirectorSupport 0 0 0
PDFSupport 0 0 0
END_MISC

# Hour - Pages - Hits - Bandwidth - Not viewed Pages - Not viewed Hits - Not viewed Bandwidth
BEGIN_TIME 24
0 0 0 0 0 0 0
1 0 0 0 0 1 19264
2 0 0 0 0 0 0
3 0 0 0 0 0 0
4 0 0 0 0 0 0
5 0 2 118631 0 0 0
6 0 0 0 0 0 0
7 0 0 0 0 0 0
8 0 0 0 0 0 0
9 0 0 0 0 0 0
10 0 0 0 0 0 0
11 0 0 0 0 0 0
12 0 0 0 0 0 0
13 0 0 0 0 0 0
14 1 1 28370 0 1 19264
15 0 0 0 0 0 0
16 0 0 0 0 0 0
17 0 0 0 0 0 0
18 0 0 0 0 0 0
19 0 0 0 0 0 0
20 0 0 0 0 0 0
21 0 0 0 0 0 0
22 0 0 0 0 0 0
23 0 0 0 0 0 0
END_TIME

# Domain - Pages - Hits - Bandwidth
# The 25 first Pages must be first (order not required for others)
BEGIN_DOMAIN 1
us 1 3 147001
END_DOMAIN

# Cluster ID - Pages - Hits - Bandwidth
BEGIN_CLUSTER 0
END_CLUSTER

# Login - Pages - Hits - Bandwidth - Last visit
# The 10 first Pages must be first (order not required for others)
BEGIN_LOGIN 0
END_LOGIN

# Robot ID - Hits - Bandwidth - Last visit - Hits on robots.txt
# The 25 first Hits must be first (order not required for others)
BEGIN_ROBOT 0
END_ROBOT

# Worm ID - Hits - Bandwidth - Last visit
# The 5 first Hits must be first (order not required for others)
BEGIN_WORMS 0
END_WORMS

# EMail - Hits - Bandwidth - Last visit
# The 20 first Hits must be first (order not required for others)
BEGIN_EMAILSENDER 0
END_EMAILSENDER

# EMail - Hits - Bandwidth - Last visit
# The 20 first hits must be first (order not required for others)
BEGIN_EMAILRECEIVER 0
END_EMAILRECEIVER

# Files type - Hits - Bandwidth - Bandwidth without compression - Bandwidth after compression
BEGIN_FILETYPES 3
css 1 92091 0 0
png 1 26540 0 0
html 1 28370 0 0
END_FILETYPES

# Downloads - Hits - Bandwidth
BEGIN_DOWNLOADS 0
END_DOWNLOADS

# OS ID - Hits
BEGIN_OS ID - Hits - Pages 2
macosx 1 1
Unknown 2 0
END_OS

# Browser ID - Hits - Pages
BEGIN_BROWSER 2
cloudflare 2 0
safari11.1.2 1 1
END_BROWSER

# Screen size - Hits
BEGIN_SCREENSIZE 0
END_SCREENSIZE

# Unknown referer OS - Last visit date
BEGIN_UNKNOWNREFERER 1
Mozilla/5.0_(compatible;_CloudFlare-AlwaysOnline/1.0;__http://www.cloudflare.com/always-online)_AppleWebKit/534.34 20180918054423
END_UNKNOWNREFERER

# Unknown referer Browser - Last visit date
BEGIN_UNKNOWNREFERERBROWSER 0
END_UNKNOWNREFERERBROWSER

# Origin - Pages - Hits 
BEGIN_ORIGIN 6
From0 0 0
From1 0 0
From2 0 0
From3 0 0
From4 1 3
From5 0 0
END_ORIGIN

# Search engine referers ID - Pages - Hits
BEGIN_SEREFERRALS 0
END_SEREFERRALS

# External page referers - Pages - Hits
# The 25 first Pages must be first (order not required for others)
BEGIN_PAGEREFS 0
END_PAGEREFS

# Search keyphrases - Number of search
# The 10 first number of search must be first (order not required for others)
BEGIN_SEARCHWORDS 0
END_SEARCHWORDS

# Search keywords - Number of search
# The 25 first number of search must be first (order not required for others)
BEGIN_KEYWORDS 0
END_KEYWORDS

# Errors - Hits - Bandwidth
BEGIN_ERRORS 1
302 2 38528
END_ERRORS

# URL with 404 errors - Hits - Last URL referrer
BEGIN_SIDER_404 0
END_SIDER_404

# Host - Pages - Hits - Bandwidth - Last visit date - [Start date of last visit] - [Last page of last visit]
# [Start date of last visit] and [Last page of last visit] are saved only if session is not finished
# The 25 first Hits must be first (order not required for others)
BEGIN_VISITOR 3
172.68.255.109 1 1 28370 20180912142150
172.68.132.64 0 1 92091 
162.158.255.45 0 1 26540 
END_VISITOR

# Date - Pages - Hits - Bandwidth - Visits
BEGIN_DAY 2
20180912 1 1 28370 1
20180918 0 2 118631 0
END_DAY

# Session range - Number of visits
BEGIN_SESSION 1
0s-30s 1
END_SESSION

# URL - Pages - Bandwidth - Entry - Exit
# The 25 first Pages must be first (order not required for others)
BEGIN_SIDER 1
/ 1 28370 1 1
END_SIDER
