AWSTATS DATA FILE 7.6 (build 20161204)
# If you remove this file, all statistics for date 201802 will be lost/reset.
# Last config file used to build this data file was /home2/fyfxamvcmvss/tmp/awstats/awstats.ellensplace.freudenbergleisure.com.conf.

# Position (offset in bytes) in this file for beginning of each section for
# direct I/O access. If you made changes somewhere in this file, you should
# also remove completely the MAP section (AWStats will rewrite it at next
# update).
BEGIN_MAP 28
POS_GENERAL 2036                
POS_TIME 2714                
POS_VISITOR 3385                
POS_DAY 3498                
POS_DOMAIN 3646                
POS_LOGIN 3873                
POS_ROBOT 4028                
POS_WORMS 4233                
POS_EMAILSENDER 4364                
POS_EMAILRECEIVER 4507                
POS_SESSION 4583                
POS_SIDER 4730                
POS_FILETYPES 4955                
POS_DOWNLOADS 5119                
POS_OS 5167                
POS_BROWSER 5248                
POS_SCREENSIZE 5314                
POS_UNKNOWNREFERER 5388                
POS_UNKNOWNREFERERBROWSER 5475                
POS_ORIGIN 5557                
POS_SEREFERRALS 5688                
POS_PAGEREFS 5832                
POS_SEARCHWORDS 5980                
POS_KEYWORDS 6132                
POS_MISC 2378                
POS_ERRORS 6191                
POS_CLUSTER 3729                
POS_SIDER_404 6281                
END_MAP

# LastLine    = Date of last record processed - Last record line number in last log - Last record offset in last log - Last record signature value
# FirstTime   = Date of first visit for history file
# LastTime    = Date of last visit for history file
# LastUpdate  = Date of last update - Nb of parsed records - Nb of parsed old records - Nb of parsed new records - Nb of parsed corrupted - Nb of parsed dropped
# TotalVisits = Number of visits
# TotalUnique = Number of unique visitors
# MonthHostsKnown   = Number of hosts known
# MonthHostsUnKnown = Number of hosts unknown
BEGIN_GENERAL 8
LastLine 20180301025355 37 9861 10875321673858
FirstTime 20180228214734
LastTime 20180228215113
LastUpdate 20180301145915 37 0 36 0 0
TotalVisits 1                   
TotalUnique 1                   
MonthHostsKnown 0                   
MonthHostsUnknown 1                   
END_GENERAL

# Misc ID - Pages - Hits - Bandwidth
BEGIN_MISC 10
FlashSupport 0 0 0
QuickTimeSupport 0 0 0
JavascriptDisabled 0 0 0
JavaEnabled 0 0 0
AddToFavourites 0 0 0
PDFSupport 0 0 0
DirectorSupport 0 0 0
RealPlayerSupport 0 0 0
TotalMisc 0 0 0
WindowsMediaPlayerSupport 0 0 0
END_MISC

# Hour - Pages - Hits - Bandwidth - Not viewed Pages - Not viewed Hits - Not viewed Bandwidth
BEGIN_TIME 24
0 0 0 0 0 0 0
1 0 0 0 0 0 0
2 0 0 0 0 0 0
3 0 0 0 0 0 0
4 0 0 0 0 0 0
5 0 0 0 0 0 0
6 0 0 0 0 0 0
7 0 0 0 0 0 0
8 0 0 0 0 0 0
9 0 0 0 0 0 0
10 0 0 0 0 0 0
11 0 0 0 0 0 0
12 0 0 0 0 0 0
13 0 0 0 0 0 0
14 0 0 0 0 0 0
15 0 0 0 0 0 0
16 0 0 0 0 0 0
17 0 0 0 0 0 0
18 0 0 0 0 0 0
19 0 0 0 0 0 0
20 0 0 0 1 1 29669
21 5 22 1703322 1 9 175977
22 0 0 0 1 4 303872
23 0 0 0 0 0 0
END_TIME

# Host - Pages - Hits - Bandwidth - Last visit date - [Start date of last visit] - [Last page of last visit]
# [Start date of last visit] and [Last page of last visit] are saved only if session is not finished
# The 25 first Hits must be first (order not required for others)
BEGIN_VISITOR 1
172.31.6.149 5 22 1703322 20180228215113
END_VISITOR

# Date - Pages - Hits - Bandwidth - Visits
BEGIN_DAY 1
20180228 5 22 1703322 1
END_DAY

# Domain - Pages - Hits - Bandwidth
# The 25 first Pages must be first (order not required for others)
BEGIN_DOMAIN 1
zz 5 22 1703322
END_DOMAIN

# Cluster ID - Pages - Hits - Bandwidth
BEGIN_CLUSTER 0
END_CLUSTER

# Login - Pages - Hits - Bandwidth - Last visit
# The 10 first Pages must be first (order not required for others)
BEGIN_LOGIN 0
END_LOGIN

# Robot ID - Hits - Bandwidth - Last visit - Hits on robots.txt
# The 25 first Hits must be first (order not required for others)
BEGIN_ROBOT 2
Googlebot/ 3 284319 20180228223104 0
YandexBot/ 1 29669 20180228203719 0
END_ROBOT

# Worm ID - Hits - Bandwidth - Last visit
# The 5 first Hits must be first (order not required for others)
BEGIN_WORMS 0
END_WORMS

# EMail - Hits - Bandwidth - Last visit
# The 20 first Hits must be first (order not required for others)
BEGIN_EMAILSENDER 0
END_EMAILSENDER

# EMail - Hits - Bandwidth - Last visit
# The 20 first hits must be first (order not required for others)
BEGIN_EMAILRECEIVER 0
END_EMAILRECEIVER

# Session range - Number of visits
BEGIN_SESSION 1
2mn-5mn 1
END_SESSION

# URL - Pages - Bandwidth - Entry - Exit
# The 25 first Pages must be first (order not required for others)
BEGIN_SIDER 4
/accommodation/suites 2 46106 0 0
/suites.php 1 25704 1 0
/contact-us 1 38959 0 0
/promotions 1 22943 0 1
END_SIDER

# Files type - Hits - Bandwidth - Bandwidth without compression - Bandwidth after compression
BEGIN_FILETYPES 6
css 1 856 0 0
php 1 25704 0 0
gif 1 1737 0 0
Unknown 4 108008 0 0
png 1 2471 0 0
jpg 14 1564546 0 0
END_FILETYPES

# Downloads - Hits - Bandwidth
BEGIN_DOWNLOADS 0
END_DOWNLOADS

# OS ID - Hits
BEGIN_OS ID - Hits - Pages 1
ios_iphone 22 5
END_OS

# Browser ID - Hits - Pages
BEGIN_BROWSER 1
safari10.0 22 5
END_BROWSER

# Screen size - Hits
BEGIN_SCREENSIZE 0
END_SCREENSIZE

# Unknown referer OS - Last visit date
BEGIN_UNKNOWNREFERER 0
END_UNKNOWNREFERER

# Unknown referer Browser - Last visit date
BEGIN_UNKNOWNREFERERBROWSER 0
END_UNKNOWNREFERERBROWSER

# Origin - Pages - Hits 
BEGIN_ORIGIN 6
From0 0 0
From1 0 0
From2 0 0
From3 0 0
From4 5 22
From5 0 0
END_ORIGIN

# Search engine referers ID - Pages - Hits
BEGIN_SEREFERRALS 0
END_SEREFERRALS

# External page referers - Pages - Hits
# The 25 first Pages must be first (order not required for others)
BEGIN_PAGEREFS 0
END_PAGEREFS

# Search keyphrases - Number of search
# The 10 first number of search must be first (order not required for others)
BEGIN_SEARCHWORDS 0
END_SEARCHWORDS

# Search keywords - Number of search
# The 25 first number of search must be first (order not required for others)
BEGIN_KEYWORDS 0
END_KEYWORDS

# Errors - Hits - Bandwidth
BEGIN_ERRORS 1
302 10 195530
END_ERRORS

# URL with 404 errors - Hits - Last URL referrer
BEGIN_SIDER_404 0
END_SIDER_404
