AWSTATS DATA FILE 7.7 (build 20180105)
# If you remove this file, all statistics for date 201906 will be lost/reset.
# Last config file used to build this data file was /home2/fyfxamvcmvss/tmp/awstats/awstats.firs.freudenbergleisure.lk.conf.

# Position (offset in bytes) in this file for beginning of each section for
# direct I/O access. If you made changes somewhere in this file, you should
# also remove completely the MAP section (AWStats will rewrite it at next
# update).
BEGIN_MAP 28
POS_GENERAL 2028                
POS_TIME 2701                
POS_VISITOR 8629                
POS_DAY 12662               
POS_DOMAIN 3456                
POS_LOGIN 3928                
POS_ROBOT 4083                
POS_WORMS 4863                
POS_EMAILSENDER 4994                
POS_EMAILRECEIVER 5137                
POS_SESSION 13345               
POS_SIDER 13512               
POS_FILETYPES 5272                
POS_DOWNLOADS 5426                
POS_OS 5474                
POS_BROWSER 5685                
POS_SCREENSIZE 6501                
POS_UNKNOWNREFERER 6575                
POS_UNKNOWNREFERERBROWSER 7322                
POS_ORIGIN 7576                
POS_SEREFERRALS 7711                
POS_PAGEREFS 7868                
POS_SEARCHWORDS 8016                
POS_KEYWORDS 8168                
POS_MISC 2365                
POS_ERRORS 8227                
POS_CLUSTER 3784                
POS_SIDER_404 8320                
END_MAP

# LastLine    = Date of last record processed - Last record line number in last log - Last record offset in last log - Last record signature value
# FirstTime   = Date of first visit for history file
# LastTime    = Date of last visit for history file
# LastUpdate  = Date of last update - Nb of parsed records - Nb of parsed old records - Nb of parsed new records - Nb of parsed corrupted - Nb of parsed dropped
# TotalVisits = Number of visits
# TotalUnique = Number of unique visitors
# MonthHostsKnown   = Number of hosts known
# MonthHostsUnKnown = Number of hosts unknown
BEGIN_GENERAL 8
LastLine 20190701022953 3 372 9444230111007
FirstTime 20190601061527
LastTime 20190630183026
LastUpdate 20190701173952 3 0 2 0 0
TotalVisits 102                 
TotalUnique 88                  
MonthHostsKnown 0                   
MonthHostsUnknown 99                  
END_GENERAL

# Misc ID - Pages - Hits - Bandwidth
BEGIN_MISC 10
FlashSupport 0 0 0
TotalMisc 0 0 0
QuickTimeSupport 0 0 0
JavaEnabled 0 0 0
WindowsMediaPlayerSupport 0 0 0
PDFSupport 0 0 0
RealPlayerSupport 0 0 0
JavascriptDisabled 0 0 0
AddToFavourites 0 2 0
DirectorSupport 0 0 0
END_MISC

# Hour - Pages - Hits - Bandwidth - Not viewed Pages - Not viewed Hits - Not viewed Bandwidth
BEGIN_TIME 24
0 3 3 93204 19 29 728040
1 5 5 155345 15 30 757506
2 0 0 0 14 25 621321
3 4 4 124272 33 58 1326962
4 9 12 257691 23 34 852886
5 3 4 95340 16 30 744542
6 12 12 372822 17 29 656999
7 0 0 0 18 30 791935
8 11 11 328909 13 21 532287
9 9 11 283894 15 45 1046967
10 6 7 188550 24 34 846932
11 5 5 155352 27 43 999084
12 1 1 31068 6 9 224984
13 4 4 124278 21 52 1743961
14 3 3 93204 13 22 561205
15 9 9 279628 30 42 995322
16 7 9 221763 20 27 647662
17 7 7 217506 55 61 1376242
18 3 3 93212 13 26 650236
19 4 6 128554 22 46 1040478
20 4 7 130690 25 30 704480
21 5 6 158833 16 53 1566297
22 0 0 0 13 17 417641
23 1 2 34555 44 81 2052342
END_TIME

# Domain - Pages - Hits - Bandwidth
# The 25 first Pages must be first (order not required for others)
BEGIN_DOMAIN 19
us 42 53 1318243
ip 19 20 592480
cn 9 9 279632
de 7 7 217476
gb 6 7 188544
nl 6 6 186664
ca 5 6 128891
fr 5 5 155340
ru 2 3 64284
in 2 2 62136
cz 2 2 62136
lk 2 3 64284
ua 2 2 62136
gr 1 1 31072
do 1 1 31068
cl 1 1 31068
hu 1 1 31074
sg 1 1 31068
id 1 1 31074
END_DOMAIN

# Cluster ID - Pages - Hits - Bandwidth
BEGIN_CLUSTER 0
END_CLUSTER

# Login - Pages - Hits - Bandwidth - Last visit
# The 10 first Pages must be first (order not required for others)
BEGIN_LOGIN 0
END_LOGIN

# Robot ID - Hits - Bandwidth - Last visit - Hits on robots.txt
# The 25 first Hits must be first (order not required for others)
BEGIN_ROBOT 16
Googlebot/ 104 3123499 20190630044310 0
spider 46 1801670 20190625212444 0
bot[\s_+:,\.\;\/\\-] 31 963164 20190628220235 0
Uptimebot/ 27 838836 20190626142813 0
Sogou[\x20]web[\x20]spider/ 24 745728 20190626235501 0
bingbot/ 21 623530 20190630013528 0
YandexBot/ 13 403950 20190628035849 0
Mail\.RU_Bot/ 7 109394 20190629220500 0
Baiduspider/ 7 217518 20190620155634 0
no_user_agent 5 98164 20190621010253 0
baidu 4 66412 20190621035010 0
DotBot/ 3 86049 20190625020854 0
crawl 3 93216 20190627020422 0
(firefox/)([0-9]\.|[0-1][0]\.) 2 62142 20190627032956 0
archive\.org_bot 1 31068 20190601121824 0
[\s_+:,\.\;\/\\-]bot 1 31074 20190621102643 0
END_ROBOT

# Worm ID - Hits - Bandwidth - Last visit
# The 5 first Hits must be first (order not required for others)
BEGIN_WORMS 0
END_WORMS

# EMail - Hits - Bandwidth - Last visit
# The 20 first Hits must be first (order not required for others)
BEGIN_EMAILSENDER 0
END_EMAILSENDER

# EMail - Hits - Bandwidth - Last visit
# The 20 first hits must be first (order not required for others)
BEGIN_EMAILRECEIVER 0
END_EMAILRECEIVER

# Files type - Hits - Bandwidth - Bandwidth without compression - Bandwidth after compression
BEGIN_FILETYPES 5
html 106 3293360 0 0
png 16 36866 0 0
php 3 93216 0 0
Unknown 5 142753 0 0
xml 1 2475 0 0
END_FILETYPES

# Downloads - Hits - Bandwidth
BEGIN_DOWNLOADS 0
END_DOWNLOADS

# OS ID - Hits
BEGIN_OS ID - Hits - Pages 12
win8 3 3
macosx10 2 2
win8.1 1 1
macosx12 1 1
Unknown 59 49
macosx11 2 2
win7 21 20
win10 17 15
linux 10 8
macosx 5 5
linuxandroid 7 6
winxp 3 3
END_OS

# Browser ID - Hits - Pages
BEGIN_BROWSER 39
chrome73.0.3683.103 2 2
chrome70.0.3538.77 1 1
chrome71.0.3578.80 3 3
firefox66.0 6 6
firefox42.0 1 1
chrome65.0.3325.109 1 1
chrome34.0.1847.137 1 1
chrome65.0.3325.181 1 1
chrome73.0.3679.0 1 0
wap 1 1
Unknown 24 23
chrome70.0.3538.102 2 1
chrome74.0.3729.131 3 2
android 2 2
mozilla 15 14
chrome40.0.2214.85 10 10
chrome63.0.3239.132 4 4
cloudflare 19 11
chrome56.0.2924.87 1 1
chrome74.0.3729.169 1 1
chrome58.0.3029.110 1 1
chrome74.0.3729.157 1 1
chrome75.0.3770.89 1 1
opera54.0.2952.60 2 2
firefox47.0 2 2
chrome4.0.222.3 1 1
chrome41.0.2228.0 2 2
firefox67.0 3 2
chrome66.0.3359.117 1 1
chrome61.0.3163.100 2 2
firefox58.0 1 1
netscape5.7 1 1
chrome60.0.3112.50 3 2
firefox65.0 1 1
chrome43.0.2357.93 2 1
edge17 1 1
msie9.0 5 5
firefox59.0 1 1
msie8.0 1 1
END_BROWSER

# Screen size - Hits
BEGIN_SCREENSIZE 0
END_SCREENSIZE

# Unknown referer OS - Last visit date
BEGIN_UNKNOWNREFERER 12
Mozilla/5.0_(compatible;_CloudFlare-AlwaysOnline/1.0;__http://www.cloudflare.com/always-online)_AppleWebKit/534.34 20190624094729
axios/0.18.0 20190617164151
Mozilla/5.0_(compatible;_Dataprovider.com) 20190610044127
Mozilla/5.0_(compatible;_CloudFlare-AlwaysOnline/1.0;_http://www.cloudflare.com/always-online) 20190624094652
Mozilla/5.0_(compatible;_ips-agent) 20190601082329
Wappalyzer 20190614195905
python-requests/2.21.0 20190628140932
Mozilla/5.0_(compatible;_NetcraftSurveyAgent/1.0;__info@netcraft.com) 20190606171838
Go-http-client/2.0 20190630100253
Go-http-client/1.1 20190629085617
Mozilla/5.7 20190619030225
python-requests/2.10.0 20190614213941
END_UNKNOWNREFERER

# Unknown referer Browser - Last visit date
BEGIN_UNKNOWNREFERERBROWSER 5
python-requests/2.21.0 20190628140932
axios/0.18.0 20190617164151
python-requests/2.10.0 20190614213941
Go-http-client/1.1 20190629085617
Go-http-client/2.0 20190630100253
END_UNKNOWNREFERERBROWSER

# Origin - Pages - Hits 
BEGIN_ORIGIN 6
From0 104 108
From1 2 2
From2 1 1
From3 0 0
From4 8 20
From5 0 0
END_ORIGIN

# Search engine referers ID - Pages - Hits
BEGIN_SEREFERRALS 1
yandexru 1 1
END_SEREFERRALS

# External page referers - Pages - Hits
# The 25 first Pages must be first (order not required for others)
BEGIN_PAGEREFS 0
END_PAGEREFS

# Search keyphrases - Number of search
# The 10 first number of search must be first (order not required for others)
BEGIN_SEARCHWORDS 0
END_SEARCHWORDS

# Search keywords - Number of search
# The 25 first number of search must be first (order not required for others)
BEGIN_KEYWORDS 0
END_KEYWORDS

# Errors - Hits - Bandwidth
BEGIN_ERRORS 1
302 573 12546967
END_ERRORS

# URL with 404 errors - Hits - Last URL referrer
BEGIN_SIDER_404 0
END_SIDER_404

# Host - Pages - Hits - Bandwidth - Last visit date - [Start date of last visit] - [Last page of last visit]
# [Start date of last visit] and [Last page of last visit] are saved only if session is not finished
# The 25 first Hits must be first (order not required for others)
BEGIN_VISITOR 99
138.246.253.5 6 6 186408 20190628031311
62.210.83.78 5 5 155340 20190627014531
221.229.204.71 5 5 155360 20190609172601
2001:4ca0:108:42::5 4 4 124272 20190628102250
188.166.116.151 3 3 93456 20190626043627
167.114.117.176 3 3 64619 20190610043906
18.217.143.113 2 2 62140 20190630183026
69.58.178.59 2 2 49293 20190601082329
2400:cb00:36:1045::a29e:4171 2 2 62144 20190609204822
77.234.46.193 2 2 62136 20190626064142
60.191.38.77 2 2 62136 20190605162418
116.203.22.185 2 2 62136 20190623151159
193.106.30.98 2 2 62136 20190629131526
185.191.204.13 1 1 31074 20190615060221
54.202.32.252 1 1 31068 20190630100253
2400:cb00:36:1032::a29e:4444 1 1 31074 20190604112518
63.33.233.231 1 1 31068 20190613092814
192.99.66.39 1 1 31068 20190603151112
149.210.201.181 1 1 31068 20190627041617
54.187.196.131 1 1 31068 20190623084601
138.197.14.172 1 1 31072 20190606155333
54.201.32.95 1 1 31068 20190626060211
2400:cb00:36:1047::a29e:42cc 1 1 31068 20190602163141
206.180.165.147 1 1 31068 20190603105944
188.32.98.89 1 2 33210 20190625193335
162.158.67.71 0 1 2136 
2400:cb00:36:1034::a29e:44da 1 1 31072 20190617041454
121.238.254.109 1 1 31068 20190622053621
112.134.47.140 1 1 31074 20190614090600
34.221.225.171 1 1 31068 20190628090253
162.158.68.144 0 1 2136 
54.184.143.148 1 1 31068 20190627085633
162.158.69.21 0 1 2136 
51.15.191.81 1 1 31068 20190622061621
75.126.32.182 1 1 31068 20190605012501
34.208.147.68 1 1 31068 20190617100141
51.77.52.160 1 1 31068 20190619004304
162.158.68.218 0 1 2136 
2a03:2880:21ff:32::face:b00c 1 1 31068 20190615131604
134.209.32.95 1 1 31074 20190606155640
34.221.16.60 1 1 31068 20190624062643
51.38.162.236 1 1 31068 20190619030225
54.191.250.187 1 1 31068 20190621085558
167.114.90.33 1 2 33204 20190603054251
50.112.82.114 1 1 31068 20190611095250
52.26.147.89 1 1 31068 20190607060605
175.157.57.219 1 2 33210 20190619101752
18.236.252.143 1 1 31068 20190620061040
107.6.183.162 1 1 31068 20190611032155
85.10.204.252 1 1 31068 20190627190954
2400:cb00:36:1028::a29e:4347 1 1 31068 20190609204822
3.16.48.15 0 1 3481 
132.147.96.245 1 1 31068 20190621112940
2400:cb00:36:1001::a29e:4515 1 1 31068 20190617041529
104.248.14.246 1 1 31073 20190603015507
159.203.110.43 1 1 31074 20190606171838
117.81.14.100 1 1 31068 20190615082334
162.158.66.202 0 1 2136 
191.101.80.44 1 1 31068 20190627102233
34.220.28.1 1 1 31068 20190619085358
51.77.246.67 0 1 2136 
162.158.70.141 0 1 2136 
54.200.246.22 1 1 31068 20190622083953
159.203.120.182 1 1 31072 20190606170934
2400:cb00:36:1003::a29e:4055 1 1 31074 20190611132748
18.204.229.157 1 1 31068 20190614195905
18.144.21.210 1 1 31068 20190605213419
51.158.121.89 1 1 31068 20190610091724
34.222.168.255 1 1 31068 20190622092349
54.71.89.38 1 1 31068 20190601061527
2402:4000:1081:4e75:a06e:6a83:7e51:8a1e 1 1 31074 20190606234541
114.124.132.48 1 1 31074 20190619211223
54.242.242.174 0 1 2136 
178.128.229.150 1 1 31072 20190611085134
2400:cb00:36:1033::a29e:4492 1 1 31068 20190624094641
2401:dd00:10:20:3809:e9ca:2c73:f2cb 1 2 33210 20190606201718
51.68.152.26 1 1 31068 20190606004112
54.187.162.219 1 1 31068 20190629085617
2400:cb00:36:1001::a29e:4529 1 1 31072 20190624094652
37.17.172.132 1 1 31074 20190626113108
35.161.120.182 1 1 31068 20190627082019
2402:4000:2180:6ed6:998:14c4:33a5:e6f 1 1 31074 20190612210340
2400:cb00:36:1018::a29e:4210 1 1 31074 20190618162550
162.158.71.87 0 1 2136 
148.0.7.16 1 1 31068 20190602114450
45.55.50.188 1 1 31068 20190606153456
162.158.65.113 0 1 2136 
5.62.43.182 1 1 31068 20190626112417
35.167.236.145 1 1 31068 20190628140932
68.183.156.16 1 1 31073 20190606162402
71.6.165.200 1 2 34549 20190614211657
34.204.96.33 1 1 31068 20190617164151
212.64.27.75 1 1 31072 20190616194517
64.246.165.50 1 1 31072 20190620180147
134.209.42.186 1 1 31074 20190603151328
64.202.160.250 1 1 31068 20190620033446
109.202.107.147 1 1 31068 20190630001908
34.209.42.161 1 1 31068 20190625060811
35.161.197.46 1 1 31068 20190609061450
END_VISITOR

# Date - Pages - Hits - Bandwidth - Visits
BEGIN_DAY 29
20190601 3 3 80361 2
20190602 4 6 128548 4
20190603 5 6 157487 5
20190604 1 1 31074 1
20190605 3 3 93204 3
20190606 10 11 312853 10
20190607 1 1 31068 1
20190609 8 10 252840 4
20190610 4 5 97823 2
20190611 5 5 155350 5
20190612 3 3 93210 2
20190613 2 2 62136 2
20190614 4 6 129895 4
20190615 3 3 93210 3
20190616 2 2 62140 2
20190617 4 6 128548 4
20190618 1 1 31074 1
20190619 7 8 219624 7
20190620 3 3 93208 3
20190621 3 3 93204 3
20190622 4 4 124272 4
20190623 3 3 93204 2
20190624 3 5 97480 3
20190625 2 3 64278 2
20190626 8 8 248802 5
20190627 6 7 189889 6
20190628 6 6 186408 6
20190629 3 3 93204 3
20190630 4 4 124276 3
END_DAY

# Session range - Number of visits
BEGIN_SESSION 3
0s-30s 99
30s-2mn 2
30mn-1h 1
END_SESSION

# URL - Pages - Bandwidth - Entry - Exit
# The 25 first Pages must be first (order not required for others)
BEGIN_SIDER 7
/ 106 3293360 101 99
/index.php 3 93216 0 1
/about-us 2 48038 0 1
/contact-us 1 38371 0 1
/location 1 25272 1 0
/index.php/Home/AppUpload/commentUpload 1 31072 0 0
/sitemap.xml 1 2475 0 0
END_SIDER
