AWSTATS DATA FILE 7.6 (build 20161204)
# If you remove this file, all statistics for date 201807 will be lost/reset.
# Last config file used to build this data file was /home2/fyfxamvcmvss/tmp/awstats/awstats.randholeeresort.freudenbergleisure.com.conf.

# Position (offset in bytes) in this file for beginning of each section for
# direct I/O access. If you made changes somewhere in this file, you should
# also remove completely the MAP section (AWStats will rewrite it at next
# update).
BEGIN_MAP 28
POS_GENERAL 2040                
POS_TIME 2720                
POS_VISITOR 22143               
POS_DAY 95164               
POS_DOMAIN 3691                
POS_LOGIN 3977                
POS_ROBOT 4132                
POS_WORMS 6270                
POS_EMAILSENDER 6401                
POS_EMAILRECEIVER 6544                
POS_SESSION 96109               
POS_SIDER 96324               
POS_FILETYPES 6679                
POS_DOWNLOADS 6969                
POS_OS 7017                
POS_BROWSER 7514                
POS_SCREENSIZE 11673               
POS_UNKNOWNREFERER 11747               
POS_UNKNOWNREFERERBROWSER 13996               
POS_ORIGIN 14881               
POS_SEREFERRALS 15035               
POS_PAGEREFS 16112               
POS_SEARCHWORDS 19090               
POS_KEYWORDS 20449               
POS_MISC 2382                
POS_ERRORS 21727               
POS_CLUSTER 3833                
POS_SIDER_404 21834               
END_MAP

# LastLine    = Date of last record processed - Last record line number in last log - Last record offset in last log - Last record signature value
# FirstTime   = Date of first visit for history file
# LastTime    = Date of last visit for history file
# LastUpdate  = Date of last update - Nb of parsed records - Nb of parsed old records - Nb of parsed new records - Nb of parsed corrupted - Nb of parsed dropped
# TotalVisits = Number of visits
# TotalUnique = Number of unique visitors
# MonthHostsKnown   = Number of hosts known
# MonthHostsUnKnown = Number of hosts unknown
BEGIN_GENERAL 8
LastLine 20180801000907 63 11944 9700494207347
FirstTime 20180701001447
LastTime 20180731233951
LastUpdate 20180801174006 63 0 62 0 0
TotalVisits 2711                
TotalUnique 1040                
MonthHostsKnown 0                   
MonthHostsUnknown 2260                
END_GENERAL

# Misc ID - Pages - Hits - Bandwidth
BEGIN_MISC 10
RealPlayerSupport 0 0 0
WindowsMediaPlayerSupport 0 0 0
QuickTimeSupport 0 0 0
AddToFavourites 0 589 0
JavaEnabled 0 0 0
FlashSupport 0 0 0
JavascriptDisabled 0 0 0
TotalMisc 0 0 0
DirectorSupport 0 0 0
PDFSupport 0 0 0
END_MISC

# Hour - Pages - Hits - Bandwidth - Not viewed Pages - Not viewed Hits - Not viewed Bandwidth
BEGIN_TIME 24
0 150 458 25581258 133 229 6025250
1 119 660 43744435 140 260 8510414
2 103 236 15897075 120 231 6326817
3 45 224 22259866 147 238 6812511
4 93 194 6038619 194 314 7769382
5 93 157 7960683 147 257 7208521
6 100 179 6601397 134 226 6252621
7 112 271 10207219 131 261 7963164
8 116 157 5207621 164 253 6393536
9 154 292 11765942 117 222 5437372
10 144 280 17698836 231 328 9048184
11 236 380 16649378 119 238 6139374
12 232 400 11990624 139 255 9103050
13 250 748 43263056 113 244 6512873
14 264 683 46211194 97 214 6784405
15 259 535 32940364 106 253 7066562
16 298 873 54695615 91 197 4967782
17 192 507 18519236 132 289 8842787
18 181 388 18354357 114 221 5514193
19 157 524 33394638 93 218 7472933
20 187 462 22981629 177 306 7862541
21 172 544 36135083 161 272 6915834
22 188 516 26662813 120 307 8323995
23 108 322 17706435 211 326 8454069
END_TIME

# Domain - Pages - Hits - Bandwidth
# The 25 first Pages must be first (order not required for others)
BEGIN_DOMAIN 4
us 3650 9061 498146539
eu 278 866 50957688
hk 16 44 2872961
sc 9 19 490185
END_DOMAIN

# Cluster ID - Pages - Hits - Bandwidth
BEGIN_CLUSTER 0
END_CLUSTER

# Login - Pages - Hits - Bandwidth - Last visit
# The 10 first Pages must be first (order not required for others)
BEGIN_LOGIN 0
END_LOGIN

# Robot ID - Hits - Bandwidth - Last visit - Hits on robots.txt
# The 25 first Hits must be first (order not required for others)
BEGIN_ROBOT 50
Googlebot/ 682 22116076 20180731231157 0
bingbot/ 401 18380982 20180731235434 0
YandexBot/ 401 10772750 20180731225640 0
AhrefsBot/ 158 4403579 20180731232358 0
Baiduspider/ 90 2434814 20180730161622 0
Apache\-HttpClient/ 75 2435340 20180730012314 0
crawl 64 1734961 20180705004446 0
SeznamBot/ 61 8771507 20180729101714 0
bingpreview 56 2360077 20180731150704 0
MegaIndex\.ru/ 55 1404967 20180711234242 0
BLEXBot/ 50 1208115 20180730032929 0
360Spider 42 1368084 20180731103736 0
no_user_agent 35 840674 20180727183825 0
Applebot/ 26 753281 20180726085659 0
YandexImages/ 24 3402644 20180731024510 0
CCBot/ 24 650253 20180719210716 0
Sogou[\x20]web[\x20]spider/ 22 704751 20180731071036 0
DotBot/ 20 567751 20180731152705 0
Googlebot\-Image/ 16 658816 20180724211902 0
Mail\.RU_Bot/ 15 387715 20180730233314 0
MJ12bot/ 14 404804 20180724133537 0
YandexMobileBot/ 13 207280 20180704220027 0
[\s_+:,\.\;\/\\-]bot 11 1777048 20180706140241 0
MSIECrawler 9 291807 20180726132630 0
bot[\s_+:,\.\;\/\\-] 9 259307 20180726012114 0
SafeDNSBot 1 32465 20180730123536 0
HubSpot[\x20]Webcrawler 1 20219 20180730195713 0
nbot 3 55643 20180705153255 0
spbot/ 1 32465 20180725045555 0
robot 1 32465 20180716070721 0
istellabot/ 1 32465 20180716131348 0
baidu 3 26540 20180708220506 0
DuckDuckGo\-Favicons\-Bot/ 4 129905 20180729213247 0
Dalvik/ 1 32480 20180721135238 0
aiHitBot/ 1 0 20180706181824 0
YisouSpider 4 113379 20180720232313 0
MojeekBot/ 6 156672 20180731050234 0
php 2 64930 20180729005544 0
007ac9[\x20]Crawler 1 32097 20180706020354 0
Baiduspider\-image 1 562189 20180725114503 0
Babya[\x20]Discoverer 5 162297 20180717200816 0
PhantomJS 3 32461 20180718114219 0
SurdotlyBot/ 4 129122 20180731113001 0
Deepnet[\x20]Explorer 8 259720 20180728065130 0
oBot/ 1 32461 20180731113945 0
SemrushBot/ 8 229201 20180726223442 0
facebookexternalhit/ 6 404545 20180719080458 0
curl 1 0 20180715020328 0
(firefox/)([0-9]\.|[0-1][0]\.) 4 97421 20180729145101 0
Google[\x20]Web[\x20]Preview 4 217080 20180711154251 0
END_ROBOT

# Worm ID - Hits - Bandwidth - Last visit
# The 5 first Hits must be first (order not required for others)
BEGIN_WORMS 0
END_WORMS

# EMail - Hits - Bandwidth - Last visit
# The 20 first Hits must be first (order not required for others)
BEGIN_EMAILSENDER 0
END_EMAILSENDER

# EMail - Hits - Bandwidth - Last visit
# The 20 first hits must be first (order not required for others)
BEGIN_EMAILRECEIVER 0
END_EMAILRECEIVER

# Files type - Hits - Bandwidth - Bandwidth without compression - Bandwidth after compression
BEGIN_FILETYPES 11
js 2203 68744025 0 0
eot 2 79088 0 0
html 2566 80173049 0 0
gif 47 100746 0 0
jpeg 38 769106 0 0
jpg 2158 304589285 0 0
css 634 13384586 0 0
swf 8 966094 0 0
png 957 42936807 0 0
php 326 9640459 0 0
Unknown 1051 31084128 0 0
END_FILETYPES

# Downloads - Hits - Bandwidth
BEGIN_DOWNLOADS 0
END_DOWNLOADS

# OS ID - Hits
BEGIN_OS ID - Hits - Pages 31
win2003 38 38
linuxubuntu 26 1
linux 352 184
macosx 363 63
winlong 38 33
linuxandroid 931 250
macosx8 9 3
macosx11 360 40
win8 49 28
win10 2389 966
macosx5 1 1
winme 7 7
winnt 25 25
win98 30 30
Unknown 760 434
macosx7 19 1
macosx10 182 31
unix 12 6
winunknown 2 2
macosx9 47 24
win2000 61 61
winphone 9 2
win95 4 4
ios_iphone 673 211
win8.1 348 152
winxp 219 201
macosx12 74 38
win16 3 3
macosx6 6 5
win7 2478 1012
ios_ipad 475 97
END_OS

# Browser ID - Hits - Pages
BEGIN_BROWSER 205
firefox26.0 25 6
chrome66.0.3359.158 16 4
firefox48.0 11 11
chrome43.0.2357.134 4 4
safari9.0.1 1 1
chrome66.0.3359.181 17 12
opera8.50 1 1
safari7.0 8 0
msie5.01 17 17
msie5.0 7 7
chrome12.0.742.91 3 1
chrome36.0.1985.125 7 3
chrome52.0.2743.116 7 7
chrome63.0.3239.111 37 13
android 11 7
opera7.11 2 2
firefox60.0 394 42
msie5.5 39 39
firefox62.0 6 6
chrome38.0.2125.111 19 19
safari5.1 3 3
firefox27.3 1 1
chrome57.0.2987.108 19 4
chrome64.0.3282.39 1 1
opera30.1835.49 2 2
safari6.0 26 11
chrome40.0.2214.85 12 12
chrome45.0.2454.93 2 2
opera42.0.5500.0238 1 1
chrome58.0.3029.83 73 4
firefox37.0 3 3
chrome67.0.3396.87 652 186
chrome37.0.2062.103 1 1
firefox56.0 38 12
chrome59.0.3071.115 6 6
chrome31.0.1650.59 1 1
chrome69.0.3493.3 9 6
chrome43.0.2357.93 6 4
chrome63.0.3239.84 2 2
firefox50.0 79 9
safari11.1.1 35 6
chrome66.0.3359.126 6 6
edge14 3 0
chrome49.0.2623.112 27 15
chrome31.0.1650.63 19 2
chrome57.0.2987.132 91 2
chrome55.0.2883.87 58 35
safari 200 47
opera54.0.2952.64 5 4
chrome69.0.3486.0 5 5
chrome38.0.2125.102 10 10
cloudflare 411 114
firefox30.0 1 1
opera53.0.2907.68 6 5
opera36.0.2130.32 19 19
chrome54.8.3462.8734 1 1
chrome64.0.3282.167 1 1
safari6.1 4 1
safari10.1.2 93 3
chrome55.0.2883.95 12 12
opera12.0 1 1
chrome44.0.2403.157 4 3
chrome12.0.742.112 1 1
safari11.0.2 48 5
chrome32.0.1700.41 1 0
opera44.5.0401.5774 1 1
firefox43.1 1 1
chrome53.0.2785.104 1 0
chrome61.0.3163.100 34 33
msie7.0 25 25
chrome63.0.3237.88 2 1
edge17 173 27
chrome61.0.3163.128 1 1
chrome26.0.1410.64 1 1
chrome62.0.3202.94 3 1
chrome68.0.3440.33 2 2
firefox33.1 2 2
opera9.0 7 7
safari11.1.2 80 16
opera12.16 11 0
chrome38.0.1025.166 15 1
chrome42.0.2311.90 21 21
msie6.0 187 187
chrome46.0.2490.86 1 1
chrome65.0.3325.109 3 3
chrome58.0.2988.0 6 1
chrome44.0.2403.89 1 1
firefox47.0 6 6
firefox34.0 1 1
chrome63.0.3239.108 5 4
firefox36.0 1 0
safari7.0.1 4 0
chrome57.0.2987.133 4 1
chrome35.0.1916.47 2 2
netscape4.76 1 1
chrome32.0.1700.72 2 0
opera7.54 11 11
opera10.00 1 1
chrome51.0.2704.106 8 8
msie4.01 2 2
opera55.0.2962.0 1 1
chrome46.0.2490.80 1 1
firefox57.0 6 5
msie10.0 16 3
chrome28.0.1500.94 2 2
chrome28.0.1500.71 2 2
safari6.1.1 4 1
chrome50.0.2661.102 33 31
chrome6.0 1 1
firefox12.0 1 1
firefox53.0 14 6
chrome30.0.1599.103 1 1
firefox24.0 5 1
chrome40.0.2214.111 1 0
firefox43.0 74 18
firefox40.1 150 150
opera7.60 7 7
chrome68.0.3440.70 3 2
chrome42.0.2311.152 2 2
safari6.0.5 1 0
wap 3 1
firefox27.0 6 4
chrome69.0.3452.0 17 0
chrome31.0.1650.57 7 3
firefox20.0 1 1
firefox25.0 6 1
chrome58.1.3029.81 3 2
chrome35.0.1916.153 1 1
chrome58.0.3029.110 1 1
mozilla 108 79
chrome66.0.3359.117 1 1
msie8.0 76 26
chrome34.0.1847.116 1 1
chrome67.0.3396.79 3 3
msie11.0 532 120
chrome41.0.2228.0 10 10
chrome13.0.748.0 1 1
chrome60.0.3112.113 24 1
firefox39.1 1 1
chrome63.0.3239.132 52 22
chrome50.0.2661.89 1 1
chrome55.0.2883.91 31 10
netscape4.79 7 7
chrome20.0.1132.57 1 1
chrome67.0.3396.99 3393 1319
safari5.0.4 1 1
safari9.0.3 2 0
chrome19.0.1084.36 1 1
chrome54.0.2840.85 1 1
opera9.00 4 4
chrome22.0.1216.0 1 1
safari11.0.3 8 2
chrome64.0.3282.119 2 2
firefox58.0 6 5
chrome49.0.2623.110 28 1
chrome68.0.3440.75 72 27
safari5.0.3 1 1
chrome10.0.649.0 1 1
firefox42.0 1 1
chrome60.0.3112.50 2 2
chrome66.0.3359.139 1 1
chrome23.0.1271.97 39 4
edge15 7 1
opera8.00 15 15
firefox55.0 42 9
firefox21.0 1 1
firefox15.0 1 1
chrome47.0.2526.106 1 1
chrome59.0.3071.125 41 19
chrome65.0.3294.54 19 2
chrome26.0.1410.63 6 6
firefox31.0 4 2
chrome65.0.3325.181 153 83
chrome62.0.3202.62 1 1
opera6.01 3 3
msie9.0 17 15
chrome45.0.2454.101 27 27
firefox59.0 18 9
chrome58.0.3029.81 15 1
chrome32.0.1664.3 1 1
netscape4.61 4 4
opera10.62 1 1
chrome65.0.3325.183 3 2
iphone 8 6
chrome33.0.1750.154 1 1
opera53.0.2907.99 3 3
Unknown 245 245
chrome65.0.3318.94 4 3
opera8.01 13 13
chrome32.0.1700.68 2 0
netscape5.0 4 2
safari10.0 119 22
edge16 37 7
chrome67.0.3396.62 5 5
safari11.0 738 184
chrome43.0.2357.124 1 0
safari11.1 53 4
safari9.0 58 37
chrome50.0.2661.94 1 1
firefox45.0 38 38
firefox33.0 3 1
chrome49.0.2623.75 42 42
firefox51.0 1 1
firefox54.0 2 2
firefox61.0 192 83
END_BROWSER

# Screen size - Hits
BEGIN_SCREENSIZE 0
END_SCREENSIZE

# Unknown referer OS - Last visit date
BEGIN_UNKNOWNREFERER 40
Mozilla/5.0_AppleWebKit/537.36_(KHTML,_like_Gecko)_Chrome/55.0.2883.95_Safari/537.36/ 20180718072917
Mozilla/5.0_(compatible;_NetcraftSurveyAgent/1.0;__info@netcraft.com) 20180709152857
python-requests/2.9.0 20180723010728
WhatsApp/2.18.191_A 20180706231302
Mozilla/5.0_zgrab/0.x_(compatible;_Researchscan/t12ca;__http://researchscan.comsys.rwth-aachen.de) 20180720212550
python-requests/2.9.1 20180722020304
python-requests/2.19.1 20180730095800
Mozilla/5.0_(compatible;_Dataprovider.com;) 20180713170723
WhatsApp/2.18.61_i 20180703114119
WhatsApp/0.2.9998_N 20180713143040
Mozilla/5.0_(compatible;_Qwantify/2.4w;__https://www.qwant.com/)/2.4w 20180731231708
python-requests/2.18.1 20180705011430
WhatsApp/0.3.33_N 20180727141350
Mozilla/5.0_(compatible;_CloudFlare-AlwaysOnline/1.0;__http://www.cloudflare.com/always-online) 20180729092031
SEMrushBot 20180729120558
panscient.com 20180731003055
AHC/2.1 20180725165442
python-requests/2.18.4 20180731165721
Mozilla/5.0_(compatible;_CloudFlare-AlwaysOnline/1.0;__http://www.cloudflare.com/always-online)_AppleWebKit/534.34 20180731071218
Mozilla/5.0_(compatible;_Daum/4.1;__http://cs.daum.net/faq/15/4118.html?faqId=28966) 20180720011801
python-requests/2.18.3 20180703234000
Mozilla/5.0_zgrab/0.x 20180731025345
Mozilla/5.0_(compatible;_Yeti/1.1;__http://naver.me/spd) 20180731051258
Mozilla/6.0_(compatible) 20180712153747
Go-http-client/1.1 20180719044623
Mozilla/5.0_(compatible) 20180712153752
Mozilla/5.0_zgrab/0.x_(compatible;_Researchscan/t13rl;__http://researchscan.comsys.rwth-aachen.de) 20180729070347
WhatsApp/2.18.41_i 20180725173613
Mozilla/4.0_(compatible;_Netcraft_Web_Server_Survey) 20180703000024
Python/3.5_aiohttp/3.3.2 20180711071023
WhatsApp/2.18.203_A 20180710131902
Mozilla/5.0_(compatible;_ips-agent) 20180706192423
Mozilla/5.0_(compatible;_Wappalyzer) 20180702182056
WhatsApp/2.18.71_i 20180717174845
Mozilla/5.0_zgrab/0.x_(compatible;_Researchscan/t12sns;__http://researchscan.comsys.rwth-aachen.de) 20180730155931
Mozilla/5.0_(compatible;_Google-Site-Verification/1.0) 20180714223626
null 20180718123015
Ruby 20180726215126
WhatsApp/2.18.99_A 20180717142117
the_beast 20180712075155
END_UNKNOWNREFERER

# Unknown referer Browser - Last visit date
BEGIN_UNKNOWNREFERERBROWSER 24
python-requests/2.18.1 20180705011430
WhatsApp/0.2.9998_N 20180713143040
WhatsApp/2.18.61_i 20180703114119
Python/3.5_aiohttp/3.3.2 20180711071023
Microsoft_Office_Excel_2013 20180731220938
python-requests/2.19.1 20180730095800
python-requests/2.9.1 20180722020304
WhatsApp/2.18.41_i 20180725173613
WhatsApp/2.18.191_A 20180706231302
python-requests/2.9.0 20180723010728
Go-http-client/1.1 20180719044623
the_beast 20180712075155
python-requests/2.18.3 20180703234000
WhatsApp/2.18.99_A 20180717142117
Microsoft_Office_Word_2014 20180702180424
Ruby 20180726215126
python-requests/2.18.4 20180731165721
null 20180718123015
AHC/2.1 20180725165442
panscient.com 20180731003055
WhatsApp/2.18.71_i 20180717174845
SEMrushBot 20180729120558
WhatsApp/2.18.203_A 20180710131902
WhatsApp/0.3.33_N 20180727141350
END_UNKNOWNREFERERBROWSER

# Origin - Pages - Hits 
BEGIN_ORIGIN 6
From0 1356 1588
From1 12 12
From2 1000 1025
From3 359 382
From4 1226 6983
From5 0 0
END_ORIGIN

# Search engine referers ID - Pages - Hits
BEGIN_SEREFERRALS 47
www_google_lt 2 2
www_google_com_lb 0 1
www_google_ae 19 20
www_google_com_au 19 19
www_google_pt 1 1
es_search_yahoo_com 1 1
www_google_com_ph 2 2
www_google_co_th 1 1
www_google_co_jp 1 1
www_google_co_in 81 82
www_google_co_za 1 1
www_google_lv 1 1
yahoo_catchall 2 2
www_google_es 2 2
www_google_co_uk 25 25
www_google_com_sg 1 1
r_search_yahoo_com 2 2
www_google_com 191 193
www_google_ro 1 1
www_google_nl 7 7
www_google_lk 539 543
www_google_cz 1 1
bing 8 9
www_google_com_mt 1 1
www_google_be 4 4
www_google_com_tw 0 1
yandexru 13 14
www_google_com_bh 2 2
www_google_dk 4 4
search_yahoo_com 1 1
www_google_com_pk 1 1
google_com 3 3
www_google_ca 3 3
www_google_de 3 3
www_google_com_ua 0 1
www_google_co_nz 1 1
www_google_no 4 4
search_yahoo_co_jp 2 2
baidu 19 19
www_google_co_il 2 2
www_google_mu 3 3
www_google_fr 7 7
www_google_pl 1 1
google_translate 12 24
www_google_com_eg 1 1
www_google_it 3 3
www_google_com_sa 2 2
END_SEREFERRALS

# External page referers - Pages - Hits
# The 25 first Pages must be first (order not required for others)
BEGIN_PAGEREFS 87
http://03e.info 18 18
http://technika-remont.ru 17 17
http://dosugrostov.site 12 12
http://xn----ctbigni3aj4h.xn--p1ai 10 10
https://www.souvenirua.com/uk/ 10 10
http://metallosajding.ru 10 10
http://xn-----6kcamwewcd9bayelq.xn--p1ai 9 9
https://ww2awards.info 9 9
https://bezprostatita.com 8 8
http://ukrainian-poetry.com 8 8
http://xn--d1abj0abs9d.in.ua 7 7
http://shnyagi.net 7 7
https://dawlenie.com 7 7
http://www.tsatu.edu.ua 7 7
http://medicineseasybuy.com 7 7
https://hyip-zanoza.me 7 7
https://infektsii.com 7 7
https://luckybull.io 6 6
http://xn----8sblgmbj1a1bk8l.xn----161-4vemb6cjl7anbaea3afninj.xn--p1ai 6 6
http://udav.net 6 6
http://hard-porn.mobi 6 6
https://xn----8sbarihbihxpxqgaf0g1e.xn--80adxhks 6 6
http://jjbabskoe.ru 5 5
https://impotentik.com 5 5
https://bpro1.top 5 5
https://rybalka-opt.ru 3 3
https://live.ipms247.com 1 1
https://vzheludke.com 2 2
http://resa.monsrilanka.com/management/providers.php 1 1
https://www.atyks.ru 1 1
http://kino2018.cc 1 1
https://officedocuments.net 1 1
https://moinozhki.com 4 4
http://pornoplen.com 4 4
https://tl.rulate.ru 1 1
https://www.kimkim.com/t/rX8AN9gR 1 1
http://ruspoety.ru 4 4
http://resa.monsrilanka.com/DATA/html/proposal.php 2 2
https://supermama.top 2 2
http://xn-----7kcaaxchbbmgncr7chzy0k0hk.xn--p1ai 4 4
https://balkanfarma.org 5 5
http://viagra-soft.ru 2 2
http://snabs.kz 1 1
http://computer-remont.ru 2 2
https://manimpotence.com 5 5
https://gandikapper.ru 3 3
http://translate.baiducontent.com/transpage 0 23
https://top-l2.com 1 1
http://modnie-futbolki.net 4 4
http://skinali.photo-clip.ru 3 3
https://allergija.com 4 4
https://sportwizard.ru 4 4
http://%20www.randholeeresorts.com 2 2
http://www.srilanka.travel/index.php 1 1
https://www.kimkim.com/tp/9MDWGPXL 1 1
https://atleticpharm.org 3 3
http://comp-pomosch.ru 1 1
http://sladkoevideo.com 4 4
https://vzubkah.com 2 2
http://viagra-soft.ru 5 5
https://rent2spb.ru 1 1
http://lerporn.info 2 2
http://www.poms2018.org/about/Accommodation.php 4 4
http://www.netcraft.com/survey/ 1 1
http://pornoelita.info 5 5
http://elementspluss.ru 2 2
http://pc-services.ru 1 1
http://mobile.regionshop.biz 5 5
https://russian-translator.com 5 5
http://www.rospromtest.ru 4 4
http://l.facebook.com/l.php 1 1
https://l.facebook.com 1 1
http://x5market.ru 2 2
http://www.thasl.lk/list-of-members.html 2 2
https://ogorodnic.com 2 2
https://luckybull.io 3 3
https://www.tripadvisor.com/Hotel_Review-g304138-d1594031-Reviews-Randholee_Resort_Spa-Kandy_Kandy_District_Central_Province.html 1 1
https://yhirurga.ru 1 1
http://money7777.info 2 2
https://mybuh.kz 3 3
http://rusochineniya.ru 4 4
http://m.facebook.com 4 4
http://porno-chaman.info 2 2
https://filesdatabase.net 1 1
http://resa.monsrilanka.com/DATA/html/roadbook.php 3 3
https://www.kimkim.com/tp/qM5DxBXd 3 3
http://prostitutki-rostova.ru.com 4 4
END_PAGEREFS

# Search keyphrases - Number of search
# The 10 first number of search must be first (order not required for others)
BEGIN_SEARCHWORDS 22
tallmeg 1
foundq4l 1
skinvb9 1
squash+courts+in+kandy 1
slavel53 1
feetauu 1
youri54 1
sets62p 1
tiekz9 1
loudzb8 1
arrowwdd 1
wooltx7 1
excitementw4o 1
wish8i1 1
https+//yandex.ru/clck/jsredir%3ffrom%3dyandex.ru%253bsearch%253bweb%253b%253b%26text%3d%26etext%3d1843.n0ooky_0djniowm6ripzmjkno-l36oaznzhrvqein3t8efnoa96yxx2vykba5js4.14d1bcf0aa8f47bde1874fd285a4a472a45c81aa%26uuid%3d%26state%3d_blhiln4sxnivvl0w45ksic66ucig23qh8irg98qeixmeppkguc0yhrngn3ksbhjbmukku86_my%26data%3dulnrnmk5wktyejr0ewjfyk1ldmtxclztd0hoqw1mtunfwmzhmu1xdwkxudzrcvfpadzlafpwbjmzmmv1lujpz0rtows2weu4n0g1rudkrmvpzzrundzisvptbe9lae5namrztuowajdovmngs3zlt1ptsvvjdw%26b64e%3d2%26sign%3dcd0bb48b14b82c564d73890824ffa890%26keyno%3d0%26cst%3daiuy0dbwfj7ixge4wdyjqyuwsqlovbttmekwpjnt82qf_dtphy9_wkczefulj_fwm3ispsdfnzmjw6zbdih91cxbymcdfye4aamhja6mrmwap72cdlstb8uadarh6vtbfabxpuktm-juxknm12nnqlf1tju10wlb%26ref%3dorjy4mgprjk5bodnw0uvlrrd71vzw9kp5uqozpmtkcxboeqr305aioehtcqaxpzthyt7ygd6je4oqjfyuyyyybcjz7n0a-px82k-e_42lv8ylippvx_ofsp91sjum3yz%26l10n%3dru%26cts%3d1531026405393%26mc%3d6.95905335823 1
nm6 1
www.randoleeresorts.com 1
%68%6f%74%65%6c+%52%61%6e%64%6f%6c%65%65+%6b%61%6e%64%79 1
wherevereab 1
principalnvb 1
suwa 1
entirelyq2k 1
END_SEARCHWORDS

# Search keywords - Number of search
# The 25 first number of search must be first (order not required for others)
BEGIN_KEYWORDS 28
kandy 1
courts 1
https 1
slavel53 1
youri54 1
feetauu 1
skinvb9 1
//yandex.ru/clck/jsredir%3ffrom%3dyandex.ru%253bsearch%253bweb%253b%253b%26text%3d%26etext%3d1843.n0ooky_0djniowm6ripzmjkno-l36oaznzhrvqein3t8efnoa96yxx2vykba5js4.14d1bcf0aa8f47bde1874fd285a4a472a45c81aa%26uuid%3d%26state%3d_blhiln4sxnivvl0w45ksic66ucig23qh8irg98qeixmeppkguc0yhrngn3ksbhjbmukku86_my%26data%3dulnrnmk5wktyejr0ewjfyk1ldmtxclztd0hoqw1mtunfwmzhmu1xdwkxudzrcvfpadzlafpwbjmzmmv1lujpz0rtows2weu4n0g1rudkrmvpzzrundzisvptbe9lae5namrztuowajdovmngs3zlt1ptsvvjdw%26b64e%3d2%26sign%3dcd0bb48b14b82c564d73890824ffa890%26keyno%3d0%26cst%3daiuy0dbwfj7ixge4wdyjqyuwsqlovbttmekwpjnt82qf_dtphy9_wkczefulj_fwm3ispsdfnzmjw6zbdih91cxbymcdfye4aamhja6mrmwap72cdlstb8uadarh6vtbfabxpuktm-juxknm12nnqlf1tju10wlb%26ref%3dorjy4mgprjk5bodnw0uvlrrd71vzw9kp5uqozpmtkcxboeqr305aioehtcqaxpzthyt7ygd6je4oqjfyuyyyybcjz7n0a-px82k-e_42lv8ylippvx_ofsp91sjum3yz%26l10n%3dru%26cts%3d1531026405393%26mc%3d6.95905335823 1
%52%61%6e%64%6f%6c%65%65 1
squash 1
suwa 1
entirelyq2k 1
nm6 1
wherevereab 1
principalnvb 1
www.randoleeresorts.com 1
%68%6f%74%65%6c 1
excitementw4o 1
wish8i1 1
arrowwdd 1
tiekz9 1
sets62p 1
loudzb8 1
%6b%61%6e%64%79 1
wooltx7 1
tallmeg 1
foundq4l 1
in 1
END_KEYWORDS

# Errors - Hits - Bandwidth
BEGIN_ERRORS 2
301 36 10044
302 3086 69338838
END_ERRORS

# URL with 404 errors - Hits - Last URL referrer
BEGIN_SIDER_404 0
END_SIDER_404

# Host - Pages - Hits - Bandwidth - Last visit date - [Start date of last visit] - [Last page of last visit]
# [Start date of last visit] and [Last page of last visit] are saved only if session is not finished
# The 25 first Hits must be first (order not required for others)
BEGIN_VISITOR 2260
172.68.202.27 105 165 6647911 20180731114547
172.68.202.21 89 150 6317259 20180731162142
172.68.202.33 86 138 5349092 20180731114624
172.68.202.9 80 146 5009212 20180729175446
172.68.202.45 77 132 6344064 20180731093239
172.68.202.39 76 142 6577691 20180731114329
172.68.238.45 62 62 2012760 20180731233951
172.68.202.15 52 109 5685054 20180730141755
172.68.238.183 43 45 1412623 20180731205321
162.158.165.147 40 41 1230878 20180725152844
172.69.134.194 36 37 1216127 20180730214408
162.158.166.250 32 33 1006076 20180731161850
172.69.134.200 28 28 874033 20180731161053
162.158.165.219 27 27 831675 20180727143308
162.158.166.160 24 24 771298 20180731135449
162.158.155.91 24 25 828980 20180726173311
172.69.134.32 23 23 746717 20180731120702
172.69.130.9 22 30 2398210 20180718112319
172.68.144.72 22 22 719639 20180731154924
162.158.165.99 22 22 710181 20180730144443
162.158.165.207 22 22 694178 20180731211718
172.68.239.100 22 22 714230 20180731233949
162.158.165.9 22 22 708569 20180730171304
172.68.146.109 22 32 743350 20180730114251
172.68.146.169 21 22 714226 20180731131120
162.158.154.252 2 2 64932 20180724130312
162.158.126.93 1 3 92358 20180712191041
108.162.216.21 0 2 189148 
162.158.58.146 1 1 32480 20180723145547
108.162.219.33 0 7 2791485 
108.162.210.141 0 2 71914 
108.162.246.142 0 5 101075 
172.68.162.45 0 2 14240 
172.69.22.169 1 1 0 20180726025520
172.69.226.70 0 4 411586 
162.158.106.59 1 1 32101 20180703135816
141.101.77.211 0 1 3279 
162.158.59.153 0 2 0 
172.68.102.51 0 1 137536 
162.158.202.87 5 10 673237 20180729164723
172.69.222.51 0 5 150776 
162.158.79.28 3 8 127900 20180729092020
108.162.249.159 0 6 483560 
162.158.155.37 11 16 316035 20180731104947
172.69.134.86 9 9 281501 20180731093151
172.69.55.183 0 1 31910 
172.69.23.74 2 2 64960 20180712231942
172.69.130.87 0 3 87929 
108.162.212.160 0 2 3694 
108.162.249.87 0 2 23936 
162.158.58.164 2 3 75158 20180701003450
162.158.152.244 3 3 97380 20180724201434
162.158.63.33 0 3 15801 
172.68.50.177 2 17 836106 20180710013554
172.68.132.226 0 7 0 
172.69.70.220 0 1 137300 
172.68.50.195 0 6 519912 
162.158.74.146 0 1 3393 
172.68.238.15 0 2 10534 
172.69.226.64 5 13 147466 20180731231708
172.68.253.88 0 3 35957 
172.68.46.196 1 1 32461 20180722050507
172.68.47.107 1 1 32101 20180706105946
162.158.78.117 0 1 1281 
162.158.73.76 6 6 193668 20180724164051
172.68.146.115 0 1 116 
162.158.22.219 0 8 181698 
162.158.50.123 0 4 847515 
162.158.255.63 3 3 99897 20180713162053
103.22.200.125 0 1 3252 
141.101.88.177 1 1 32451 20180711035333
162.158.91.4 0 3 15801 
172.69.190.15 4 6 116973 20180725005408
162.158.158.8 0 10 181869 
108.162.219.93 0 2 191866 
172.68.51.93 0 17 972414 
162.158.90.227 2 4 399132 20180720183746
162.158.155.169 4 4 129862 20180729175511
172.68.11.124 1 1 32451 20180711022916
172.68.239.106 1 1 32101 20180701091421
188.114.102.9 0 2 58226 
162.158.56.4 1 1 32464 20180716010750
162.158.50.147 2 8 2199578 20180714163800
172.68.238.87 0 2 95398 
162.158.167.191 7 8 424144 20180709161006
172.68.78.99 0 2 14240 
172.68.254.113 2 2 64930 20180721103251
162.158.50.57 1 6 74958 20180704111813
141.101.69.74 2 8 154072 20180728180919
162.158.134.87 0 2 3474 
188.114.103.82 0 2 3694 
162.158.118.201 0 1 3162 
108.162.215.153 1 2 56401 20180723185404
162.158.118.171 2 4 256472 20180718163327
162.158.38.171 1 1 29551 20180710195800
162.158.57.220 2 2 64920 20180725175343
172.68.146.79 0 1 16060 
108.162.237.51 0 1 137536 
172.68.59.29 1 1 32466 20180714195802
108.162.229.21 4 5 283708 20180727222410
172.68.46.112 6 8 194811 20180729053229
172.69.94.27 1 25 4892578 20180706191119
162.158.2.183 0 1 2657 
162.158.106.221 0 3 138612 
172.68.162.99 0 2 59893 
162.158.92.225 4 4 129860 20180728122314
172.69.54.32 2 3 269804 20180719183256
162.158.75.159 0 2 274623 
162.158.49.150 1 1 32460 20180719182843
172.69.134.80 0 14 23936 
172.69.86.57 0 7 590320 
162.158.98.33 1 1 32102 20180701130343
162.158.59.69 2 2 64930 20180719181918
162.158.30.75 0 9 876051 
162.158.50.165 5 5 160262 20180728191608
162.158.166.220 1 1 32102 20180704172953
172.68.253.52 0 1 137536 
172.69.68.32 0 1 31910 
172.68.210.189 6 6 178600 20180730003802
141.101.105.245 0 2 398859 
172.68.58.82 0 1 3386 
162.158.38.183 4 4 125262 20180713130123
141.101.99.142 0 6 18972 
172.69.22.61 0 2 12409 
172.69.69.231 0 2 27924 
108.162.219.195 0 2 29954 
172.68.189.192 0 4 0 
162.158.17.144 1 1 32100 20180706181140
108.162.212.154 0 2 29954 
172.68.110.69 0 2 3859 
172.68.51.117 1 7 794381 20180710013443
162.158.186.233 3 3 97395 20180729175711
172.68.58.142 0 1 3009 
172.68.218.69 1 1 32465 20180719025242
162.158.62.158 1 1 32451 20180708075125
172.68.51.183 0 9 869066 
172.68.46.28 5 5 128404 20180704080827
108.162.237.195 1 1 28477 20180711071023
141.101.98.207 0 6 1419846 
162.158.90.77 0 11 123202 
172.69.226.130 1 1 29903 20180717002655
173.245.54.54 2 2 64931 20180722181138
108.162.219.87 2 6 128798 20180731025345
141.101.76.165 2 2 64931 20180713165114
172.68.47.11 0 10 52175 
162.158.164.34 1 1 32096 20180704110610
172.68.65.107 6 6 170663 20180729160214
141.101.69.14 4 4 166740 20180710085154
162.158.39.16 0 1 94574 
172.68.47.167 0 2 10534 
172.68.9.186 1 1 32460 20180720164932
108.162.215.159 1 1 32097 20180704045931
162.158.177.82 1 1 32460 20180717122643
162.158.92.33 0 1 419681 
108.162.215.15 2 5 477189 20180712150345
103.22.200.245 0 2 4942 
162.158.202.129 0 6 907382 
172.69.33.160 0 2 0 
108.162.226.88 0 2 23898 
172.68.146.151 19 19 616852 20180731111155
162.158.97.77 3 3 97380 20180720184413
162.158.119.40 1 2 35485 20180724150313
162.158.63.123 3 3 60376 20180731002121
162.158.26.57 1 1 32466 20180727161311
172.69.54.146 0 4 12409 
172.69.190.39 0 4 31691 
162.158.158.20 9 9 280624 20180712041451
162.158.166.196 0 4 0 
172.68.46.214 2 2 64581 20180712173932
172.68.162.51 0 3 105315 
198.41.242.33 0 2 35237 
141.101.76.87 5 8 299862 20180730105038
172.68.58.16 0 2 6654 
172.69.130.93 0 5 659117 
162.158.59.129 1 1 32461 20180729045709
172.68.51.51 0 7 303980 
162.158.79.202 0 4 37227 
172.69.34.11 8 8 227466 20180724122550
141.101.77.37 0 1 824 
162.158.22.129 0 8 421713 
172.68.189.54 2 5 80337 20180726025529
173.245.52.108 0 2 136344 
172.69.166.87 0 2 97581 
172.68.253.244 1 1 32465 20180728120242
162.158.114.75 1 2 127054 20180717220701
172.68.133.179 0 5 0 
141.101.97.70 0 3 663268 
162.158.50.177 0 4 12576 
141.101.77.109 0 2 32076 
172.68.144.36 1 1 32116 20180703214843
162.158.179.135 0 4 378296 
162.158.91.232 0 5 339308 
141.101.99.106 6 12 413354 20180730141641
162.158.118.69 0 2 398867 
141.101.68.249 1 1 32446 20180707213909
162.158.92.165 1 1 32452 20180709034414
173.245.48.86 0 1 8311 
172.68.146.85 1 1 32451 20180707192019
172.68.58.250 0 1 3932 
108.162.215.237 1 1 32101 20180703120923
162.158.58.152 0 1 3327 
141.101.107.239 0 3 12504 
162.158.201.71 1 1 32460 20180724181019
162.158.78.15 0 10 17108 
172.68.47.17 3 3 96348 20180706073339
172.69.70.184 3 3 97395 20180723184501
172.68.130.21 3 70 5556272 20180722090919
162.158.186.113 0 1 20215 
162.158.111.210 1 2 339521 20180711145717
162.158.92.111 0 1 336694 
172.68.47.161 1 1 32101 20180704132142
162.158.18.105 1 1 32101 20180703202713
108.162.245.81 1 1 0 20180729092009
188.114.103.172 0 2 327263 
162.158.22.183 0 2 19317 
162.158.210.75 1 1 32465 20180731221442
162.158.167.143 0 1 11767 
162.158.119.82 0 1 3783 
172.69.142.9 0 7 61886 
172.68.141.207 5 5 161219 20180714002545
162.158.88.121 0 1 3931 
162.158.39.40 5 5 160965 20180710093604
162.158.118.159 0 1 4504 
172.68.210.207 11 11 288614 20180704183300
162.158.234.51 0 3 7413 
162.158.126.39 0 1 465075 
172.68.239.184 0 2 1847 
172.68.46.208 2 2 64908 20180714055742
162.158.38.231 0 1 2430 
162.158.89.90 0 1 327261 
162.158.186.35 1 1 29903 20180716011139
172.68.94.207 0 2 40430 
172.68.237.83 1 1 32460 20180725163244
108.162.246.160 0 8 35957 
162.158.164.226 7 7 227220 20180725152828
172.68.246.199 1 1 32461 20180726180518
172.68.245.162 0 2 217518 
108.162.229.183 4 7 140387 20180727195903
173.245.54.6 0 4 5211 
141.101.99.196 0 1 107112 
172.68.245.240 1 1 32461 20180720164933
172.68.239.16 1 3 40109 20180728111803
198.41.235.172 1 1 32460 20180721121738
162.158.79.58 0 3 412608 
162.158.41.35 1 1 32446 20180709235149
172.69.222.69 0 11 2753657 
162.158.91.172 0 6 28772 
162.158.63.213 0 5 119680 
162.158.60.94 1 1 32096 20180701221321
172.68.238.21 0 2 138817 
162.158.104.166 1 1 0 20180725230242
172.68.206.87 0 6 17295 
172.68.239.88 0 2 35957 
162.158.179.33 0 1 8311 
172.69.33.244 1 1 32465 20180715132000
172.68.206.93 0 5 817471 
172.68.145.229 8 8 259680 20180730143733
108.162.210.111 0 2 14644 
141.101.97.71 0 3 397891 
162.158.89.222 0 2 272440 
172.69.94.69 4 20 2239033 20180706142043
172.68.50.207 0 8 502212 
172.68.65.203 1 6 720146 20180717073846
172.68.154.51 5 5 136640 20180706062155
197.234.242.93 0 1 3007 
172.69.33.208 3 3 97440 20180713150726
172.68.130.9 2 85 8155347 20180701131410
108.162.250.40 0 4 111306 
172.68.255.91 0 1 105 
162.158.234.45 1 3 38642 20180729045251
162.158.202.39 0 4 936411 
162.158.90.233 0 1 3625 
162.158.63.147 12 12 326109 20180722113244
172.69.130.51 0 5 154754 
108.162.229.201 1 7 61578 20180714183338
162.158.63.225 0 7 333043 
172.68.78.27 0 2 59893 
162.158.9.11 1 1 32460 20180712132408
172.69.130.99 0 3 375568 
162.158.91.16 2 5 907664 20180718201317
141.101.99.190 0 6 153016 
198.41.230.141 1 1 32101 20180705003952
162.158.166.142 1 1 32102 20180705121219
162.158.90.179 0 2 313076 
162.158.89.252 0 1 275536 
162.158.91.94 0 1 2205 
172.68.146.175 0 5 186353 
141.101.105.17 0 1 3476 
162.158.22.171 0 3 277250 
162.158.178.20 0 2 12409 
162.158.118.189 0 2 530237 
162.158.50.117 1 4 42160 20180724160044
141.101.77.217 0 1 3393 
172.68.110.57 0 1 31910 
162.158.248.203 1 1 32096 20180702133813
162.158.154.6 0 1 113940 
172.68.162.87 0 2 5634 
162.158.158.80 1 2 217405 20180716163354
197.234.242.159 0 1 7322 
172.68.51.123 2 8 499625 20180706133330
162.158.56.40 1 1 32100 20180705005240
172.69.226.46 0 6 0 
162.158.79.160 0 5 549200 
162.158.111.168 0 1 2934 
162.158.187.12 1 1 29903 20180715011254
162.158.91.88 0 1 0 
173.245.54.24 0 5 1860300 
172.68.238.159 2 2 64902 20180710052540
162.158.155.7 0 1 144322 
141.101.98.129 0 17 27732 
162.158.98.63 2 2 64918 20180713172459
162.158.154.96 1 7 2497195 20180707012155
162.158.118.153 0 4 7345 
141.101.76.153 0 1 2205 
172.68.62.243 1 3 39609 20180713164754
162.158.126.69 1 2 35553 20180718162832
162.158.79.166 0 3 345 
162.158.93.110 0 2 367 
162.158.79.34 2 3 67138 20180702202532
108.162.226.64 1 3 583570 20180719072248
172.68.94.27 0 1 31910 
172.69.54.110 0 1 229772 
108.162.238.64 0 2 930150 
162.158.91.28 0 3 505568 
172.69.130.45 0 9 1599512 
172.68.10.105 3 5 371856 20180724002724
172.68.102.57 0 2 22606 
172.69.70.208 0 1 14977 
108.162.226.82 2 2 50969 20180720140321
108.162.249.93 0 1 20215 
162.158.30.27 1 8 891906 20180731140126
172.68.244.101 2 2 57724 20180724214846
162.158.89.36 0 3 4186 
162.158.118.177 1 1 24770 20180710183516
162.158.167.215 0 2 17370 
172.68.46.130 0 1 20215 
172.68.239.10 2 2 64202 20180701134456
141.101.97.76 0 3 345937 
162.158.111.66 1 2 369159 20180726054253
172.68.249.214 2 2 64192 20180706142710
162.158.74.110 0 4 365344 
172.68.102.33 0 3 331499 
162.158.93.14 0 2 232252 
172.68.102.93 1 1 32465 20180727072820
162.158.109.143 1 1 32096 20180704143419
108.162.215.231 2 2 64582 20180711234429
162.158.26.39 0 1 137536 
172.69.130.105 0 9 1425873 
172.69.132.182 3 3 97380 20180721123408
141.101.66.232 1 1 32446 20180707192609
162.158.152.58 1 1 32460 20180715201059
162.158.92.141 2 5 336768 20180716201637
162.158.92.219 1 3 266045 20180714033820
172.68.239.208 0 2 6654 
162.158.167.107 5 9 159083 20180705223321
162.158.118.51 0 1 31910 
162.158.38.21 0 2 53080 
172.69.134.92 1 13 45767 20180704095945
162.158.22.207 1 9 579169 20180731131323
141.101.76.129 0 1 137536 
172.68.211.63 1 1 32116 20180702171050
172.68.189.132 1 1 32451 20180708073610
172.68.102.27 0 1 13962 
172.68.46.202 0 1 2934 
162.158.22.141 6 22 1719111 20180726163608
172.68.58.100 0 3 446806 
162.158.22.51 0 16 3659470 
172.69.71.29 0 1 852 
162.158.166.4 1 1 32102 20180704094826
172.68.254.137 0 2 58226 
172.68.141.117 2 2 64581 20180724204442
162.158.155.13 0 9 223788 
162.158.59.237 1 1 0 20180711092012
162.158.134.81 0 5 128219 
162.158.111.254 0 1 184939 
162.158.91.154 0 1 3279 
162.158.114.45 1 3 36325 20180726205255
172.68.102.99 1 2 34203 20180727194624
172.69.194.33 1 1 32466 20180716162118
172.69.86.45 0 5 13240 
162.158.106.5 1 1 32465 20180726180843
162.158.202.99 0 3 211163 
162.158.89.246 5 6 314122 20180720184218
162.158.74.86 0 1 2908 
172.68.239.40 0 1 7322 
172.68.208.88 1 1 32460 20180731135733
162.158.50.159 4 11 1251265 20180722181110
108.162.216.9 0 1 3327 
172.68.65.209 5 5 155483 20180729160140
172.68.94.45 1 2 34895 20180725090341
108.162.228.28 1 1 32460 20180715112530
172.68.62.183 0 1 29113 
172.68.51.159 0 9 823567 
173.245.52.60 1 4 33314 20180717090704
162.158.59.33 0 1 94574 
162.158.134.33 3 7 113196 20180728024327
172.68.141.141 2 2 0 20180729092031
162.158.167.245 1 11 197537 20180709155600
172.69.54.80 1 1 25238 20180701001649
103.22.200.143 0 1 261342 
141.101.104.184 2 2 64931 20180730225406
172.68.51.165 0 8 648543 
162.158.111.120 0 1 3227 
141.101.68.76 1 1 32460 20180716181101
141.101.98.243 3 4 146401 20180707000124
162.158.165.201 1 1 24618 20180707144341
172.68.134.30 1 1 0 20180704145124
162.158.106.107 2 2 64930 20180730092555
172.68.10.69 1 1 32462 20180726215126
172.68.253.70 1 1 32465 20180728120249
162.158.152.106 3 3 97380 20180724144606
103.22.200.107 8 14 790630 20180720140313
108.162.226.136 3 3 79436 20180731082403
172.69.54.218 1 1 32466 20180711224402
141.101.99.52 0 1 159858 
141.101.98.99 0 1 275536 
162.158.2.57 0 6 1397678 
108.162.215.99 1 1 32466 20180711051923
162.158.59.213 6 6 194796 20180729132322
141.101.98.57 10 10 271147 20180730195401
141.101.96.85 0 4 605783 
162.158.108.112 1 1 32460 20180722154931
172.68.146.103 2 2 73611 20180706190246
173.245.48.122 2 2 64930 20180725003644
103.22.200.95 0 2 24818 
162.158.111.192 0 3 0 
172.68.144.180 1 1 32102 20180704143247
188.114.103.106 0 4 20658 
162.158.75.171 0 1 208743 
172.68.210.201 2 2 64920 20180726011127
162.158.50.195 2 10 664326 20180728210452
108.162.245.171 1 1 29903 20180711225248
172.69.70.10 1 3 33541 20180722221508
172.68.50.171 1 13 1797258 20180701204322
172.68.238.33 0 1 852 
141.101.107.5 3 3 97396 20180722135144
108.162.241.189 0 1 137300 
172.68.201.41 10 10 324208 20180731114314
162.158.93.164 7 8 535720 20180711170121
162.158.62.26 1 11 113059 20180725224747
162.158.179.225 0 2 53080 
172.68.78.15 0 3 111669 
108.162.226.196 0 1 3625 
172.69.55.93 0 1 309980 
198.41.230.87 1 1 28484 20180719123111
162.158.179.213 0 2 5267 
162.158.166.64 9 9 281343 20180707131413
162.158.94.55 2 2 64204 20180706135742
162.158.50.171 4 5 466558 20180723174019
172.69.94.45 3 29 2530073 20180726115817
162.158.138.33 0 2 6014 
172.68.65.11 3 11 1740433 20180729160223
172.69.70.160 0 1 26540 
162.158.50.129 1 4 50661 20180717154952
162.158.39.52 0 1 3007 
172.68.58.208 0 1 3476 
141.101.106.118 1 1 32460 20180712041143
172.68.132.88 0 1 11767 
108.162.249.195 0 2 35957 
173.245.52.114 0 3 60709 
162.158.158.62 0 2 148419 
162.158.58.206 0 1 0 
172.69.142.33 3 6 269048 20180719004322
172.68.47.155 0 3 24933 
108.162.246.10 0 7 14580 
108.162.250.46 2 2 85466 20180710161341
162.158.166.70 0 1 4504 
172.68.94.39 0 1 8311 
172.68.78.9 0 1 1847 
108.162.226.22 0 1 184939 
162.158.90.35 0 2 123862 
172.68.211.231 1 1 32465 20180712073647
172.68.11.58 1 1 28598 20180723120855
172.68.206.33 0 5 965795 
162.158.88.13 2 5 464282 20180727223229
172.68.46.184 0 6 29113 
162.158.75.111 0 1 562189 
172.68.62.81 0 1 538 
162.158.58.62 1 1 32480 20180715130623
162.158.88.7 0 2 53080 
162.158.22.153 4 9 179872 20180703210030
172.69.55.75 1 2 48489 20180707165339
172.68.51.231 0 8 363533 
108.162.212.196 0 1 2471 
172.69.226.112 1 1 32102 20180706135419
172.69.120.31 1 1 32096 20180703155554
188.114.102.45 0 2 275072 
172.68.209.172 13 13 344661 20180706075535
141.101.88.219 1 1 32465 20180725025233
172.68.245.108 0 1 0 
162.158.107.36 0 1 404213 
172.68.132.142 1 1 32465 20180715132010
141.101.98.183 0 3 9837 
172.68.206.45 0 1 12409 
162.158.126.111 1 4 224348 20180731221511
172.69.94.51 2 28 2455434 20180727125716
172.69.62.69 0 3 9981 
172.68.238.123 17 18 554979 20180718201412
162.158.93.20 4 4 129863 20180728075027
172.69.236.29 1 1 32460 20180715122641
141.101.76.33 3 4 101563 20180722212214
162.158.153.16 2 2 64920 20180729194005
162.158.63.243 0 1 2816 
162.158.91.136 0 8 291493 
141.101.77.139 1 3 24268 20180707091417
162.158.155.175 0 6 16202 
162.158.88.133 0 1 208743 
172.68.205.5 1 1 32460 20180724212553
162.158.74.194 0 2 735922 
172.68.238.63 21 21 681723 20180718212829
141.101.96.61 0 6 749188 
197.234.242.177 0 1 0 
108.162.215.9 2 2 64232 20180705005252
172.68.211.33 3 3 96683 20180709170455
162.158.90.101 0 1 39996 
108.162.216.237 0 2 0 
172.68.154.87 1 2 33289 20180729231627
162.158.30.39 0 10 749753 
162.158.118.15 0 1 3279 
162.158.123.120 0 2 5267 
162.158.90.191 8 8 250087 20180720213349
172.68.44.64 2 2 54368 20180719044623
172.69.33.46 1 1 32466 20180711052129
162.158.63.27 0 4 80860 
172.69.142.39 0 2 9366 
162.158.88.223 0 1 59538 
141.101.98.15 1 1 25821 20180703113234
162.158.178.248 0 3 4942 
173.245.48.176 2 2 64960 20180711220942
172.68.51.225 0 7 277588 
141.101.69.122 11 11 357045 20180726001249
141.101.97.64 2 2 64926 20180726014024
172.68.238.219 0 1 137536 
162.158.106.143 1 1 32101 20180701121640
172.68.189.186 0 6 87339 
162.158.106.167 0 1 94574 
172.68.46.10 1 1 32461 20180726062638
162.158.90.47 0 2 621117 
162.158.202.219 1 6 425023 20180725001751
108.162.226.10 0 3 333396 
172.69.54.170 0 5 7629 
172.69.33.4 1 1 32116 20180706073335
162.158.90.245 0 1 524565 
172.69.134.14 0 10 465075 
172.69.126.63 0 1 7322 
172.68.154.63 1 1 32101 20180702183705
172.68.50.189 0 8 462450 
141.101.107.221 0 1 0 
162.158.166.208 2 3 75738 20180704213443
188.114.102.171 0 3 6543 
172.69.6.87 1 1 32465 20180715085054
162.158.155.115 0 2 512553 
108.162.249.165 2 3 68258 20180719072309
162.158.90.131 7 14 254844 20180724023712
172.68.51.45 1 10 589376 20180710013645
172.68.189.24 1 1 32466 20180724060431
108.162.229.63 3 3 89941 20180727191740
162.158.82.103 1 1 32464 20180727035334
141.101.69.68 2 2 64566 20180716225056
141.101.107.41 3 3 94863 20180731161520
172.69.54.68 0 1 3009 
162.158.92.213 9 11 323443 20180721170930
172.68.77.23 1 1 32460 20180720030240
162.158.154.234 0 7 22389 
172.68.238.57 0 1 31910 
162.158.88.109 0 1 204872 
172.69.62.51 3 3 73816 20180729160146
162.158.109.38 1 1 32464 20180722143104
172.69.166.165 0 1 852 
172.68.116.52 1 1 32460 20180720215227
172.69.69.171 0 1 94574 
188.114.102.243 0 3 71808 
172.68.78.45 0 2 97004 
162.158.90.155 0 2 565788 
162.158.79.220 0 4 378296 
141.101.104.148 0 3 14977 
172.69.86.15 0 8 1600304 
162.158.22.225 0 7 23706 
162.158.10.21 6 29 2322293 20180726022247
172.68.62.153 0 1 7629 
172.68.58.46 0 1 3693 
108.162.229.225 1 3 307538 20180717173327
172.68.144.78 19 19 581966 20180731185905
141.101.103.4 1 1 32465 20180715022822
172.68.133.131 1 1 29903 20180719191130
162.158.74.170 0 2 5587 
162.158.50.63 2 2 64567 20180715142019
162.158.108.250 1 1 32460 20180724153819
172.68.78.21 0 1 29113 
141.101.77.175 0 1 3007 
108.162.219.99 0 19 548057 
162.158.165.135 2 2 64913 20180713143040
172.68.46.82 1 1 32116 20180705005329
162.158.118.213 0 1 2480 
172.69.23.68 1 1 32465 20180729093309
172.68.94.219 0 3 43962 
172.68.59.5 0 1 2480 
172.69.190.21 0 2 541749 
198.41.242.9 0 2 15809 
141.101.104.244 1 1 32466 20180712131651
173.245.48.182 2 2 64202 20180703050125
172.69.134.230 0 1 105 
162.158.165.129 1 1 41510 20180704094837
141.101.99.4 2 9 64931 20180730195317
162.158.2.21 0 1 3162 
162.158.154.216 0 4 7772 
172.69.226.142 2 5 73952 20180719183707
162.158.74.206 0 2 563902 
162.158.202.147 0 3 565883 
172.68.238.189 0 1 111219 
141.101.76.69 0 1 16060 
172.69.126.33 0 2 21067 
162.158.38.99 0 5 20200 
162.158.185.4 1 1 32460 20180715011239
141.101.99.232 0 1 38125 
162.158.165.189 1 4 26933 20180703123424
162.158.134.69 0 9 381019 
162.158.122.179 0 2 7629 
162.158.90.197 6 6 194792 20180726185500
162.158.202.213 0 3 10691 
162.158.93.104 8 9 263652 20180726082852
162.158.134.75 0 2 2562 
141.101.69.164 1 1 32101 20180701064045
162.158.79.112 0 5 80860 
162.158.2.39 2 2 64917 20180720063305
172.68.162.69 0 4 153203 
162.158.134.183 0 4 143828 
141.101.107.71 0 6 15942 
103.22.200.191 0 3 216092 
108.162.229.237 0 6 7629 
162.158.79.142 0 5 55848 
172.68.102.21 0 1 3088 
172.68.154.75 1 1 32465 20180715202845
162.158.196.211 2 2 64920 20180730172223
141.101.107.251 0 2 138551 
172.68.146.97 1 2 169638 20180703151153
172.68.65.143 3 3 76792 20180729160148
172.68.10.15 0 1 2934 
162.158.110.219 5 5 162250 20180708112145
172.69.69.249 1 1 32465 20180722221456
108.162.219.249 1 1 32097 20180705155230
108.162.219.147 1 8 387086 20180710183930
162.158.2.147 0 1 3393 
173.245.48.206 1 1 32116 20180706110759
162.158.138.45 1 3 39120 20180720005454
162.158.93.32 0 1 518404 
141.101.105.77 0 2 489136 
162.158.88.85 0 2 1076 
108.162.219.81 0 1 56978 
172.68.51.63 0 4 541334 
162.158.63.141 1 6 521524 20180720030339
172.69.134.20 0 1 1261 
141.101.98.201 4 16 145632 20180721163807
108.162.226.46 0 2 275072 
162.158.38.219 0 2 35237 
162.158.91.166 0 5 191866 
162.158.122.107 0 1 538 
172.69.68.41 6 7 200057 20180716151907
172.68.78.51 0 1 31910 
103.22.200.101 6 6 183431 20180720140130
162.158.2.69 2 6 585164 20180710161001
162.158.49.41 1 1 32460 20180723211527
162.158.192.22 1 1 32460 20180717130637
162.158.255.243 1 1 32465 20180724154516
141.101.105.143 0 6 33011 
141.101.97.67 0 4 13748 
162.158.202.141 0 1 4233 
162.158.89.228 0 1 0 
172.69.86.33 0 13 55399 
172.68.46.178 0 9 4860 
172.68.102.81 0 1 404213 
162.158.2.63 0 7 694052 
162.158.38.225 0 7 146799 
162.158.78.189 3 3 89695 20180729160158
172.68.58.160 0 1 367 
172.69.130.75 0 5 696212 
172.68.154.15 1 3 47547 20180714213533
172.68.50.153 8 19 782009 20180723010728
172.69.134.188 10 10 342322 20180731233202
162.158.18.87 2 2 64930 20180723124220
172.69.134.206 4 4 128408 20180706055802
162.158.165.51 0 4 0 
162.158.158.38 0 2 153939 
172.68.11.232 0 1 3088 
162.158.93.74 0 1 3898 
108.162.215.177 5 5 162326 20180730080955
172.68.51.207 0 5 381487 
141.101.96.74 0 1 3386 
162.158.75.225 0 1 3625 
162.158.134.63 0 3 60645 
162.158.118.39 1 1 32461 20180712203747
162.158.234.87 1 4 144135 20180713015845
172.68.65.221 3 3 75718 20180729160216
162.158.166.58 0 1 824 
162.158.106.23 0 5 36610 
162.158.93.140 0 1 320216 
162.158.10.33 0 18 1671234 
172.68.10.63 0 1 16060 
172.68.144.222 0 1 271618 
162.158.93.98 0 1 0 
162.158.90.11 0 3 37227 
162.158.74.8 0 4 20096 
162.158.222.21 0 3 11072 
172.68.144.24 0 1 1737 
172.68.144.126 0 10 13962 
172.68.201.11 13 13 419362 20180714105716
172.68.51.81 7 13 570690 20180710013644
141.101.69.206 1 1 32466 20180710205639
162.158.92.201 9 9 253726 20180717215906
141.101.97.82 2 2 84071 20180718203526
162.158.92.75 0 1 160781 
172.68.51.129 0 3 195657 
172.68.47.29 3 3 96712 20180715130624
172.69.166.189 0 1 31910 
172.68.51.111 0 12 829569 
172.68.146.223 2 2 56384 20180707115006
103.22.200.209 0 1 314398 
172.69.86.51 0 8 1230063 
172.69.69.123 0 1 35957 
162.158.38.189 0 2 465075 
162.158.50.81 2 3 67938 20180723130428
172.69.55.33 1 5 42631 20180705155251
141.101.77.133 0 6 8896 
162.158.93.2 0 1 4504 
162.158.142.45 1 1 32465 20180723041708
172.69.222.27 0 18 2580323 
172.69.222.63 0 6 479101 
141.101.77.19 0 6 278 
141.101.76.93 0 4 23936 
172.69.86.39 0 17 2849367 
172.68.206.9 0 8 1987459 
141.101.105.148 1 2 35428 20180705110359
162.158.202.15 0 6 651916 
162.158.234.57 0 7 149113 
162.158.166.100 0 4 60368 
172.69.62.123 3 3 75793 20180729160227
162.158.166.190 3 3 95806 20180705121312
162.158.222.51 0 2 930150 
162.158.22.177 0 5 1192733 
162.158.42.33 0 1 2471 
162.158.106.227 0 1 137536 
172.68.146.235 0 12 1847 
162.158.234.27 0 5 208200 
162.158.122.95 0 2 6014 
162.158.108.226 1 1 32464 20180718163510
172.69.33.184 1 1 32465 20180715131751
172.69.226.16 1 1 32461 20180713104520
172.68.11.112 0 1 16038 
162.158.138.39 0 2 189148 
162.158.62.134 3 3 90937 20180730170905
172.68.51.135 0 7 624984 
162.158.202.225 2 7 96273 20180716052030
108.162.249.189 0 2 27924 
162.158.167.83 0 1 45863 
162.158.222.75 0 6 50450 
172.68.142.82 1 1 0 20180726025523
162.158.138.27 0 2 1704 
162.158.10.45 0 24 2085328 
162.158.89.198 0 1 3956 
162.158.22.189 0 9 294798 
172.68.62.225 0 1 35957 
173.245.54.18 0 4 1614 
162.158.106.185 1 1 0 20180707223515
162.158.93.44 0 1 8311 
162.158.165.105 1 1 32452 20180707131602
141.101.76.39 1 1 39544 20180715001018
162.158.2.159 0 9 491891 
172.69.33.22 0 1 0 
162.158.134.171 0 2 32120 
172.68.206.105 0 5 649713 
172.69.54.224 0 2 2562 
162.158.91.112 0 5 28755 
162.158.155.163 6 15 215103 20180730160948
108.162.216.51 0 5 1398904 
172.69.62.165 11 11 281311 20180729160153
162.158.134.117 1 4 54068 20180705125635
162.158.111.12 0 2 4942 
141.101.77.49 6 6 194792 20180728223713
162.158.22.237 0 4 82528 
172.68.239.154 1 1 32480 20180716082510
172.69.54.20 0 1 4102 
162.158.166.130 0 1 2405 
172.68.255.175 0 1 278 
108.162.249.81 0 3 4711 
172.68.46.244 1 1 32102 20180706153427
141.101.68.118 6 6 194760 20180721125138
162.158.6.27 5 5 162260 20180710184549
172.69.130.39 0 9 1836053 
162.158.126.27 0 5 195334 
162.158.37.35 2 2 64192 20180705001426
172.68.162.111 0 1 1847 
108.162.229.69 2 2 54775 20180731210030
162.158.178.170 0 1 404361 
162.158.167.101 1 1 32102 20180702145857
172.69.166.105 0 1 3327 
162.158.134.159 0 2 6176 
172.68.253.160 1 1 32465 20180721130505
162.158.38.51 0 2 191866 
162.158.163.233 5 5 160830 20180709100455
162.158.89.120 0 3 2556 
162.158.18.9 1 1 32465 20180714190847
162.158.18.33 1 1 32461 20180711224309
141.101.95.158 1 1 32460 20180718203523
162.158.108.139 1 1 32464 20180724212248
141.101.105.11 5 5 133512 20180708152044
172.69.134.158 0 3 2934 
141.101.68.166 1 1 32460 20180719153144
172.69.134.122 21 23 665974 20180731125452
162.158.154.144 0 4 819488 
172.68.154.99 1 2 48525 20180731150641
162.158.202.57 0 7 1020491 
162.158.78.135 3 3 97396 20180729092010
172.68.246.223 1 1 32461 20180722230315
172.69.134.248 5 5 146105 20180705221857
162.158.133.209 1 1 32096 20180703113500
141.101.97.78 0 2 557226 
162.158.74.212 0 1 524565 
172.68.133.185 0 4 0 
162.158.75.75 0 1 419681 
172.68.46.64 1 7 32116 20180703214241
172.68.46.226 5 5 162325 20180730205839
162.158.87.240 2 2 32460 20180727210158
162.158.178.116 0 1 16038 
162.158.154.60 0 6 18030 
172.69.69.243 2 2 57112 20180713195507
172.69.55.21 1 1 32447 20180708082923
162.158.75.201 0 2 396595 
172.69.132.158 8 8 259680 20180730175046
162.158.79.88 0 3 90552 
172.69.55.129 0 1 538 
172.68.144.60 0 2 0 
108.162.215.69 6 6 194502 20180726011227
141.101.69.86 4 4 129862 20180725231758
141.101.98.45 3 9 1969837 20180711142459
162.158.88.43 1 2 3651 20180727211217
162.158.22.63 0 3 10743 
141.101.88.213 0 2 274600 
162.158.93.248 0 1 239890 
172.69.135.9 1 1 32466 20180707143613
162.158.57.58 1 1 32460 20180713111604
172.68.47.83 1 1 32466 20180716143159
162.158.134.129 0 10 1041664 
172.68.244.53 0 2 0 
162.158.202.9 0 4 194008 
108.162.245.63 0 10 951766 
141.101.76.63 0 1 3195 
162.158.111.132 0 1 2908 
162.158.118.87 0 1 185783 
141.101.107.23 0 8 964686 
172.68.102.9 0 1 3327 
141.101.88.189 0 5 1401 
172.68.141.249 1 1 0 20180722104654
172.69.54.236 3 3 97396 20180729190056
172.69.23.62 1 1 32451 20180707165250
172.69.130.63 17 25 1628689 20180718123015
162.158.59.27 1 3 307188 20180707115112
162.158.78.21 0 5 33244 
141.101.76.9 1 3 51148 20180706210136
162.158.92.249 0 1 562189 
162.158.74.254 0 1 3227 
172.69.190.63 1 3 176787 20180713091030
172.68.94.15 1 1 32465 20180727225425
162.158.165.177 14 14 436119 20180725120034
162.158.167.41 0 1 76 
162.158.155.211 1 13 1225888 20180703153628
162.158.155.25 1 1 32102 20180702220420
188.114.103.142 0 4 2986 
162.158.88.25 3 3 97396 20180730155931
141.101.97.132 0 1 111219 
141.101.77.91 0 4 35957 
162.158.88.91 2 3 67566 20180718160013
172.69.133.9 6 6 194396 20180731160704
162.158.91.208 4 4 106369 20180712194712
162.158.224.171 2 2 64596 20180724011043
108.162.215.219 0 1 278 
162.158.74.122 0 4 15801 
172.69.134.74 1 1 32101 20180703145149
162.158.255.15 1 1 32116 20180702023323
141.101.77.43 2 2 64204 20180701001552
172.68.142.160 0 1 3088 
162.158.167.17 2 3 65084 20180704142423
162.158.111.240 0 2 272068 
162.158.155.61 0 6 21594 
172.68.51.189 0 4 398929 
162.158.38.141 0 3 15496 
162.158.167.53 1 1 32102 20180706231302
162.158.2.15 0 6 737117 
162.158.74.224 0 1 3783 
172.68.58.58 1 3 66789 20180706145604
172.68.78.93 4 4 122174 20180721080304
162.158.78.207 1 1 32461 20180725193659
172.68.74.33 1 1 32465 20180713064029
172.68.94.147 3 4 109943 20180709212252
108.162.210.207 0 4 970580 
108.162.219.159 1 2 52666 20180707184008
162.158.6.159 1 1 32465 20180720142311
162.158.122.239 0 1 31910 
162.158.134.51 2 2 64930 20180716005624
172.68.15.88 1 1 32460 20180720152858
172.68.206.63 0 5 277041 
141.101.77.247 0 1 271159 
103.22.200.113 0 1 4102 
162.158.154.114 9 16 313945 20180729150640
162.158.155.253 0 9 180237 
141.101.97.137 1 1 32465 20180712121222
162.158.79.244 1 1 25104 20180729160221
162.158.154.150 2 8 1694640 20180715220120
162.158.134.189 0 7 28758 
108.162.215.21 1 1 32461 20180725050544
172.69.33.136 1 1 32465 20180715060801
162.158.59.51 2 2 58301 20180714132236
108.162.212.190 0 2 58226 
162.158.167.59 0 2 76250 
162.158.2.171 0 7 1093694 
108.162.245.141 2 2 41859 20180729092010
162.158.111.36 0 1 562189 
162.158.91.64 0 2 7578 
108.162.226.232 0 1 3954 
162.158.58.74 1 1 32451 20180710014554
162.158.111.180 0 2 431064 
108.162.246.232 1 1 32465 20180717120532
172.68.239.130 1 1 32461 20180725091027
162.158.111.216 0 1 275536 
172.68.65.29 0 3 333657 
172.68.47.149 2 2 64960 20180731095225
172.68.51.57 0 9 473666 
108.162.219.111 0 10 13234 
162.158.91.34 0 1 0 
172.68.211.237 1 1 32465 20180718200849
162.158.75.237 0 3 17916 
172.68.58.52 0 1 345543 
162.158.30.69 2 16 889047 20180731140124
141.101.96.52 0 2 63820 
162.158.83.152 1 1 32460 20180717142122
172.68.58.244 0 1 38125 
162.158.2.9 0 12 1032169 
162.158.118.45 0 3 0 
197.234.242.33 0 1 20215 
172.68.244.89 0 2 21039 
172.69.226.82 3 3 89716 20180728155926
108.162.214.10 1 1 32096 20180703114245
162.158.179.243 0 6 24522 
162.158.134.165 1 5 26572 20180705125715
162.158.50.99 1 4 323762 20180730165449
162.158.2.123 0 3 243329 
173.245.48.188 1 1 32465 20180714132135
162.158.158.32 0 1 30184 
172.68.253.100 0 2 275072 
162.158.88.205 0 2 314924 
162.158.91.100 0 2 402338 
162.158.19.16 1 1 32102 20180706143624
108.162.249.243 0 1 94574 
162.158.57.82 1 1 32464 20180723005358
162.158.59.9 3 3 97440 20180730110328
162.158.165.57 0 4 0 
188.114.102.69 0 2 5868 
162.158.50.153 1 1 32466 20180719194955
162.158.38.201 0 1 29113 
172.68.51.87 0 1 2419 
172.69.226.118 0 3 60645 
162.158.118.195 0 1 3932 
162.158.165.75 2 2 64554 20180708175908
188.114.102.75 0 2 1704 
162.158.56.226 1 1 32464 20180714211923
162.158.94.7 2 4 198496 20180724175820
162.158.166.136 0 4 0 
172.68.162.57 0 2 58450 
172.69.134.62 6 7 192612 20180705065713
173.245.52.126 16 16 442888 20180724215502
172.68.146.199 16 18 784057 20180730153211
141.101.98.33 0 2 182236 
162.158.192.52 1 1 32460 20180719153744
172.68.246.145 0 1 404213 
162.158.89.234 0 7 1244548 
162.158.92.45 0 3 71808 
108.162.226.130 0 2 540570 
172.68.50.135 0 11 553211 
162.158.90.5 1 1 0 20180705225452
172.68.238.195 21 21 681765 20180731205323
172.68.211.195 0 1 0 
162.158.222.57 0 7 278237 
162.158.154.120 0 3 929940 
162.158.59.99 0 7 49636 
197.234.242.123 1 1 32480 20180729100226
162.158.134.9 3 15 447762 20180723170811
162.158.154.240 0 3 2472 
162.158.119.52 1 1 41874 20180726180642
198.41.242.69 0 1 7322 
172.68.239.22 10 10 321010 20180706022419
108.162.216.249 0 1 4233 
172.68.144.18 0 1 16354 
108.162.210.165 0 2 191866 
172.68.50.159 0 4 329111 
162.158.165.39 0 1 31910 
172.68.144.234 1 1 32101 20180703183103
108.162.226.244 0 1 275536 
162.158.155.97 1 2 160579 20180715205925
108.162.249.99 0 1 538 
172.69.70.64 0 3 4976 
162.158.134.147 0 1 137536 
108.162.212.214 1 1 29903 20180711225236
172.68.51.9 6 17 477184 20180731165721
141.101.88.39 0 3 197904 
141.101.88.165 0 1 2471 
162.158.74.74 0 2 559965 
141.101.107.113 1 1 0 20180702180424
141.101.99.100 0 1 3057 
162.158.90.65 0 5 727986 
108.162.215.81 0 3 411900 
162.158.91.148 0 3 7413 
162.158.166.88 0 11 684969 
162.158.74.44 7 7 226863 20180730085531
108.162.241.165 1 2 34922 20180707180455
162.158.154.156 6 6 186625 20180726173631
162.158.58.44 1 1 32466 20180710200443
188.114.103.64 0 1 89684 
162.158.97.11 2 2 64920 20180711225338
162.158.59.195 3 4 64930 20180731220938
162.158.167.161 1 10 37368 20180707104953
172.68.146.19 1 2 39606 20180703114423
172.68.239.136 0 2 12409 
141.101.107.149 8 9 268400 20180728220249
172.68.110.51 0 1 94574 
162.158.138.15 1 1 32466 20180722201130
162.158.88.97 0 7 34861 
162.158.111.114 2 6 95807 20180701001555
162.158.89.144 0 1 269411 
162.158.98.45 0 6 719590 
141.101.76.159 2 2 57953 20180709095028
162.158.2.141 0 7 40942 
162.158.63.135 0 2 1648 
108.162.249.117 0 3 465075 
172.68.50.141 2 11 505853 20180717203607
162.158.202.105 0 5 45998 
172.68.238.69 0 2 58226 
172.69.134.182 20 20 634727 20180725174024
172.68.146.127 19 19 611596 20180728144602
172.69.222.21 0 8 190790 
141.101.97.103 0 2 5388 
172.68.102.45 0 1 1281 
172.69.142.51 0 2 27078 
162.158.122.35 1 1 29903 20180720024444
172.69.190.9 0 1 0 
141.101.104.70 0 1 314398 
172.68.244.113 0 1 5267 
162.158.74.140 0 1 313787 
162.158.133.71 1 1 32460 20180727202520
108.162.215.189 2 2 64917 20180710125628
162.158.88.139 0 1 271618 
162.158.2.135 0 2 3992 
197.234.242.117 2 2 64202 20180704081040
172.69.70.172 1 1 32461 20180712223312
172.68.142.70 1 1 32101 20180704123607
162.158.63.99 1 1 35101 20180731003055
172.68.154.81 0 1 16038 
108.162.238.70 1 1 32101 20180706175759
141.101.98.21 3 3 93771 20180703170702
162.158.154.78 0 6 1568052 
103.22.200.137 1 2 36032 20180707124907
172.69.222.9 1 5 146437 20180707203908
162.158.74.116 0 2 566466 
172.68.47.215 0 4 144949 
162.158.78.33 0 3 114375 
172.68.62.231 0 1 0 
172.68.230.93 1 1 32102 20180706004236
162.158.123.30 0 1 94574 
162.158.222.9 0 2 3694 
162.158.62.248 5 8 548649 20180727183844
162.158.59.225 3 3 96348 20180706110639
188.114.103.76 0 1 66979 
162.158.153.246 2 2 64556 20180720143355
162.158.63.21 1 1 32461 20180715044231
172.68.144.192 0 1 20219 
172.68.146.67 0 6 138074 
108.162.215.129 0 6 1112 
108.162.216.27 3 4 117611 20180728100628
172.69.69.135 0 2 24818 
197.234.242.15 1 2 32744 20180723170546
172.69.69.45 0 3 3563 
172.68.45.94 1 1 32460 20180711223713
198.41.242.27 0 3 13107 
162.158.89.180 0 1 83668 
172.68.58.178 0 1 3462 
172.68.94.237 1 3 307537 20180726194613
172.68.51.201 0 8 678858 
162.158.22.9 0 2 240743 
172.68.45.220 1 1 32446 20180710131639
162.158.85.2 2 2 64920 20180729145604
108.162.216.111 0 1 26540 
172.68.46.76 5 5 162400 20180731095109
172.68.46.40 1 1 32116 20180704194335
172.68.237.221 1 1 32460 20180728140049
172.68.63.10 0 2 40430 
162.158.49.186 1 1 32460 20180725213505
197.234.242.27 1 4 47842 20180723185545
162.158.111.90 0 1 8311 
172.68.208.254 1 1 32464 20180715040117
162.158.152.232 1 1 32460 20180724205208
162.158.134.135 18 28 706764 20180711021205
162.158.89.72 0 1 3393 
172.68.25.129 0 1 137536 
108.162.215.213 7 7 226982 20180731135747
172.68.94.213 0 1 7629 
172.68.47.119 1 1 32579 20180705175956
162.158.134.27 0 2 63820 
162.158.155.19 4 10 136469 20180726173807
172.69.22.241 1 1 32466 20180711051944
172.69.70.94 0 1 824 
141.101.97.68 0 6 872419 
172.69.94.21 0 25 2735204 
172.68.94.87 0 2 274600 
108.162.246.34 1 9 31602 20180707223530
141.101.104.178 1 1 26788 20180708215424
172.69.54.50 0 1 824 
141.101.69.44 2 2 64418 20180730200444
162.158.106.53 1 1 32465 20180718022409
172.68.94.225 0 3 74412 
108.162.214.70 1 1 32464 20180730004726
162.158.93.194 3 4 191956 20180720212550
162.158.89.192 0 1 3327 
162.158.138.93 0 2 40430 
172.69.126.93 0 1 3007 
162.158.165.159 0 2 450478 
108.162.237.75 0 1 0 
172.69.126.117 0 1 3327 
162.158.222.111 0 1 16060 
108.162.226.184 0 3 0 
172.68.162.93 0 1 29113 
162.158.90.89 0 3 107871 
162.158.79.10 3 8 269436 20180729160211
172.68.50.111 1 7 540429 20180728010900
162.158.92.243 4 4 129861 20180724172111
172.68.110.15 0 1 7322 
172.68.62.87 0 2 1704 
141.101.69.236 0 2 76250 
162.158.59.117 0 1 0 
108.162.215.135 0 1 11767 
173.245.52.144 6 7 220033 20180727183844
172.68.58.112 0 2 620380 
141.101.88.63 0 2 53080 
162.158.86.30 1 1 32460 20180727210159
162.158.222.105 0 4 119786 
162.158.202.153 0 5 1040707 
172.68.51.15 0 4 468697 
162.158.63.201 1 6 58787 20180709152751
172.69.68.248 0 1 7629 
172.69.62.153 0 1 186353 
103.22.200.71 0 4 278 
172.68.90.99 1 1 32465 20180721105844
162.158.49.23 2 2 64920 20180725211516
162.158.202.69 0 3 404041 
172.69.62.177 1 1 32465 20180713182143
162.158.74.248 2 2 53867 20180714195854
141.101.97.131 0 3 55653 
162.158.50.33 3 4 98679 20180720120141
162.158.91.58 0 1 73184 
172.68.238.177 0 2 278 
172.68.206.69 0 7 982680 
141.101.77.181 0 5 2430 
162.158.50.51 1 2 35396 20180723164805
141.101.98.219 0 1 63989 
108.162.215.45 3 3 97410 20180713025157
141.101.77.193 2 3 62757 20180701001600
162.158.165.183 0 3 87940 
172.68.51.171 0 4 197389 
162.158.167.131 0 4 0 
108.162.246.64 2 2 64930 20180718133408
108.162.229.159 1 1 32466 20180715132537
162.158.91.52 0 3 64151 
162.158.50.45 1 3 353575 20180725132656
172.69.22.157 3 3 32461 20180726025540
162.158.118.231 1 2 428911 20180718163231
172.69.70.58 1 1 32465 20180729105912
108.162.229.81 0 6 465075 
162.158.134.207 0 1 20219 
172.68.15.154 1 1 32461 20180721010946
162.158.133.59 1 1 32460 20180723172402
162.158.105.49 1 1 32450 20180708212209
141.101.69.20 1 1 32466 20180713222339
172.68.78.105 1 2 37732 20180727181851
198.41.242.93 0 2 32201 
172.68.238.105 4 4 129804 20180709070330
162.158.50.15 0 7 1091662 
162.158.78.141 3 8 186552 20180729160209
162.158.2.153 0 4 465075 
162.158.222.69 0 1 3088 
172.68.141.177 1 1 32466 20180710200232
188.114.102.15 0 2 274600 
162.158.88.61 1 2 3679 20180714003342
162.158.93.26 0 1 3783 
162.158.92.39 0 4 550144 
172.69.94.33 0 21 3178634 
172.69.33.250 1 1 32480 20180727081611
162.158.49.47 1 1 32460 20180730200425
172.69.69.87 0 1 465075 
162.158.202.27 0 9 1063949 
141.101.98.69 0 3 981783 
172.68.63.70 0 2 6014 
172.69.22.193 2 2 64931 20180727060034
172.69.132.38 6 6 194760 20180729134122
162.158.118.129 0 1 345543 
141.101.97.133 1 7 90245 20180716001222
172.69.20.10 1 1 32465 20180730205042
172.68.211.243 1 1 32465 20180724065820
141.101.105.185 1 2 202291 20180701060853
172.68.13.74 1 1 32460 20180726180523
162.158.162.52 1 1 32446 20180707161705
172.68.50.201 0 8 417311 
162.158.73.4 1 1 32460 20180723004708
141.101.99.184 6 11 181218 20180708153905
141.101.99.46 6 9 175528 20180730144257
162.158.92.159 0 1 824 
162.158.248.233 2 2 64920 20180728111752
141.101.107.185 0 2 204544 
172.68.239.160 0 1 538 
162.158.126.15 0 2 5805 
108.162.245.45 1 1 32452 20180707174616
141.101.77.25 2 3 579482 20180731161606
172.69.142.57 0 8 1149116 
108.162.245.117 0 5 4260 
162.158.126.21 10 11 331580 20180723022303
162.158.178.224 0 3 44931 
108.162.226.40 0 3 0 
172.68.133.173 1 1 32465 20180718023627
162.158.75.249 0 1 31910 
162.158.60.245 1 1 32460 20180711145712
172.68.246.175 0 4 24818 
172.69.70.244 0 1 20215 
172.68.146.187 0 2 0 
162.158.18.243 1 1 32102 20180702201354
162.158.165.117 0 2 0 
162.158.30.57 0 10 810811 
141.101.76.189 0 4 95933 
162.158.107.30 1 1 32451 20180708214217
172.69.55.45 3 3 81641 20180708174218
172.68.206.117 0 1 3327 
172.68.245.96 0 1 105 
162.158.91.202 0 2 761206 
172.68.58.232 14 15 455390 20180731093809
172.69.33.238 0 1 0 
172.68.211.111 2 2 64232 20180706162219
172.69.132.152 5 5 162300 20180727140245
108.162.229.135 4 11 152704 20180719183709
172.68.234.111 0 1 137536 
162.158.93.152 0 1 3279 
141.101.95.66 1 1 32460 20180729225248
162.158.154.204 0 14 1638480 
162.158.75.69 0 1 20219 
172.69.62.183 0 4 287799 
172.68.65.59 0 8 562172 
172.69.62.57 3 6 87952 20180729160232
162.158.248.77 1 1 32464 20180722072729
172.68.238.93 2 2 64894 20180710182034
141.101.105.101 0 4 465075 
162.158.88.67 0 3 60645 
108.162.237.213 0 1 8311 
162.158.93.254 2 2 64930 20180712235405
162.158.78.39 0 4 44931 
172.68.206.39 0 8 2243847 
162.158.22.195 0 4 730676 
162.158.19.10 1 1 32451 20180710163542
172.69.22.247 0 1 59538 
172.68.58.22 0 1 3279 
162.158.111.42 1 1 32102 20180701211534
162.158.74.104 0 1 204872 
162.158.75.99 0 1 3931 
162.158.62.14 6 6 154120 20180731002417
141.101.99.64 0 1 3956 
172.68.144.174 1 1 41510 20180703152601
162.158.58.26 6 6 185982 20180713025057
162.158.62.86 7 7 197425 20180702232459
141.101.96.63 0 4 37227 
141.101.97.80 0 7 18852 
188.114.102.225 0 3 44931 
162.158.154.108 4 7 879847 20180722020258
172.69.55.57 0 3 0 
162.158.79.76 0 5 3408 
162.158.155.55 2 7 260621 20180716140930
108.162.249.69 0 1 137536 
162.158.50.135 5 5 160874 20180731185624
108.162.219.105 0 17 1072892 
172.68.206.99 0 7 755531 
141.101.97.134 1 1 32461 20180712075155
162.158.106.11 1 23 846392 20180730111339
162.158.138.69 0 2 63820 
141.101.107.53 1 1 32465 20180716201259
162.158.62.50 13 14 267106 20180731002906
162.158.126.63 0 3 105315 
172.69.130.21 0 7 1210736 
108.162.216.195 13 14 425746 20180730081943
198.41.241.6 1 1 32096 20180706220607
162.158.85.182 2 2 64928 20180719083154
172.68.63.46 0 1 23936 
172.68.239.94 11 11 357115 20180731203051
141.101.97.65 0 4 21396 
141.101.69.110 3 3 87167 20180727181626
141.101.107.35 5 5 161601 20180730170836
172.68.50.117 0 14 693189 
141.101.98.189 0 4 1583084 
172.68.238.249 0 2 27924 
108.162.249.111 1 1 32465 20180729143624
172.69.86.21 3 11 374164 20180716144105
172.68.62.9 0 1 1847 
162.158.134.39 0 4 33244 
162.158.104.142 1 1 0 20180704145124
141.101.77.187 0 1 620265 
172.68.211.129 1 3 68073 20180704095651
141.101.104.196 0 1 3954 
108.162.246.22 0 5 12355 
141.101.76.195 0 1 3096 
141.101.99.70 1 1 120745 20180707145535
162.158.2.27 1 3 439028 20180705185909
162.158.202.51 0 7 104979 
162.158.234.63 0 2 14644 
188.114.103.58 0 2 10534 
162.158.75.27 0 1 3956 
141.101.99.250 1 1 37869 20180704111840
141.101.76.123 1 1 32452 20180709000236
172.69.22.55 1 4 35957 20180707223541
172.68.63.76 0 2 122473 
172.69.54.188 0 2 12409 
172.68.58.202 0 4 160781 
162.158.118.243 0 3 6151 
172.69.130.33 0 3 258453 
141.101.88.81 3 3 96305 20180706220451
172.68.58.118 0 1 3162 
141.101.76.27 0 1 137300 
172.68.239.118 20 20 646332 20180718091413
162.158.91.178 0 4 22311 
172.68.94.171 0 2 16165 
162.158.85.140 1 1 32096 20180701191037
172.69.142.63 0 4 274432 
141.101.99.136 0 1 179373 
108.162.246.178 0 15 1431835 
172.69.126.57 0 1 31910 
108.162.226.208 0 4 95933 
162.158.98.39 7 7 128769 20180715143856
108.162.215.141 3 4 234740 20180731135759
162.158.2.111 0 2 346564 
162.158.50.183 2 4 64917 20180727120848
162.158.118.225 0 2 243352 
172.68.162.75 0 3 111669 
172.69.33.64 0 1 26540 
162.158.50.111 3 7 355649 20180721140014
162.158.58.68 6 6 194880 20180730110819
108.162.226.34 1 5 180686 20180707124914
162.158.22.111 5 10 775208 20180714162451
172.69.62.33 3 3 66730 20180729160204
162.158.184.94 1 1 32096 20180706064821
162.158.63.159 0 10 149770 
108.162.245.9 2 2 64930 20180728043011
108.162.237.243 3 3 97369 20180726112842
108.162.219.75 3 3 56378 20180731002739
162.158.98.75 1 2 33318 20180728160708
162.158.62.224 1 5 37728 20180701221113
172.68.146.157 0 1 229772 
108.162.216.165 0 4 90582 
108.162.249.171 0 2 63820 
103.22.200.197 1 2 269102 20180730103022
172.68.46.70 0 1 31910 
162.158.122.41 0 1 137536 
162.158.222.33 0 2 14644 
172.68.9.54 1 1 32460 20180722230314
172.68.58.136 0 2 243489 
198.41.242.63 0 4 501958 
172.68.254.143 0 1 31910 
162.158.98.15 4 5 148623 20180704194553
162.158.164.64 4 4 129840 20180730174418
172.69.142.15 0 1 7322 
172.68.140.253 1 1 32465 20180718204637
141.101.96.72 0 3 277993 
141.101.96.50 0 3 8619 
172.69.33.118 4 4 129860 20180727124431
162.158.157.46 1 1 32460 20180719231720
162.158.30.45 0 11 965223 
162.158.18.195 1 1 32465 20180731140704
172.68.110.63 0 1 20215 
162.158.50.93 0 1 3693 
172.68.143.131 3 3 0 20180729092019
162.158.88.235 0 1 4102 
162.158.60.149 1 1 0 20180703000024
172.68.245.18 2 2 64902 20180710173558
162.158.92.51 0 2 623173 
172.68.143.251 1 1 0 20180715004859
162.158.234.75 0 3 95850 
172.69.69.237 0 2 16622 
172.69.226.10 7 7 191280 20180713222053
162.158.154.246 1 1 32465 20180713040238
108.162.246.106 1 1 0 20180722044235
108.162.246.40 0 3 79620 
162.158.22.117 0 10 47635 
162.158.83.101 1 1 32460 20180727210156
162.158.30.63 0 12 1428749 
162.158.222.99 0 7 513164 
172.69.20.101 1 1 32096 20180702182055
141.101.99.40 3 3 61878 20180707145533
162.158.50.105 1 5 32744 20180726215201
162.158.134.105 0 3 48114 
162.158.165.165 0 1 0 
172.68.58.166 0 1 2205 
162.158.98.9 6 7 196346 20180724171554
162.158.63.51 1 2 48246 20180709152857
172.68.62.135 0 1 13962 
162.158.91.226 0 8 72642 
172.68.11.76 0 2 0 
172.68.238.207 2 2 64930 20180711124602
172.68.102.69 0 1 11767 
172.68.46.172 5 5 161672 20180729052909
162.158.30.33 0 18 1257847 
162.158.106.119 0 6 0 
198.41.242.57 0 2 274836 
172.68.142.4 1 1 32101 20180702060945
162.158.94.37 0 4 48556 
172.68.130.15 2 59 4874882 20180717174845
172.68.78.57 0 2 3859 
162.158.179.93 1 1 25821 20180704031555
162.158.50.189 0 2 141490 
173.245.48.248 0 6 930150 
172.68.238.129 0 2 465075 
172.68.201.17 14 14 453278 20180730141320
162.158.155.139 2 2 53604 20180715193958
162.158.74.158 1 3 350058 20180730045003
162.158.162.96 1 1 32096 20180702081439
173.245.52.120 1 1 25587 20180720030341
162.158.187.60 0 2 0 
172.69.70.232 0 1 1847 
162.158.49.174 1 1 32460 20180730170404
172.68.94.75 0 5 211389 
162.158.26.105 0 1 137300 
172.68.146.181 1 2 36698 20180712093247
162.158.50.87 2 2 64567 20180731132909
172.69.33.34 0 1 852 
141.101.106.244 1 1 32096 20180702180254
172.68.145.26 5 5 162300 20180727080007
162.158.110.38 2 2 64920 20180724203608
162.158.164.40 4 4 129840 20180723183235
141.101.88.75 5 5 144915 20180728153525
172.68.10.81 0 3 7629 
162.158.154.24 0 3 941361 
162.158.234.99 0 2 930150 
172.68.239.178 6 6 194790 20180719044302
108.162.216.15 0 1 4168 
162.158.110.5 1 1 32460 20180717132153
162.158.2.129 0 3 977390 
172.68.244.233 1 1 32461 20180720164932
172.68.146.247 1 1 32102 20180702173839
162.158.50.39 0 4 147014 
162.158.202.123 0 2 6604 
141.101.66.142 1 1 32460 20180726201357
162.158.92.153 0 14 445473 
108.162.245.195 1 1 0 20180715004850
172.68.239.124 12 12 389576 20180716082609
172.69.190.57 1 3 32465 20180712061234
197.234.242.39 0 1 14977 
172.68.254.131 0 2 13962 
162.158.75.87 1 1 32116 20180702204342
108.162.229.171 1 1 25602 20180721050447
198.41.242.99 0 1 278 
162.158.93.86 0 1 269411 
162.158.155.103 0 1 92447 
162.158.111.102 0 1 3599 
188.114.102.129 0 4 329517 
103.22.200.179 0 2 175661 
141.101.104.112 0 1 2480 
141.101.102.81 1 1 32465 20180731094157
162.158.95.124 1 1 32460 20180727210201
162.158.105.22 1 1 32460 20180714054501
162.158.106.47 2 2 61670 20180719095302
172.69.54.254 0 1 1737 
162.158.2.81 0 4 481463 
172.68.238.39 2 2 64902 20180710175127
162.158.126.105 0 2 14240 
162.158.62.242 5 5 133840 20180731002822
108.162.229.15 1 10 94510 20180723211207
162.158.93.242 0 4 12700 
162.158.22.87 0 8 631360 
162.158.114.33 0 1 7322 
162.158.59.207 1 1 32480 20180721170840
172.69.142.69 0 1 35957 
172.68.206.81 0 3 276536 
162.158.91.106 0 3 9981 
162.158.114.69 0 1 3327 
162.158.109.29 1 1 32464 20180718070445
162.158.62.62 4 4 122200 20180730174003
162.158.154.228 4 5 313696 20180722020243
172.68.246.25 0 1 137536 
108.162.229.39 2 4 73939 20180722041924
162.158.176.172 1 1 32460 20180712123539
162.158.49.71 1 1 32096 20180706015923
162.158.61.96 2 2 64907 20180711150242
162.158.18.183 1 1 32465 20180720190913
162.158.63.75 0 11 85201 
172.69.134.26 0 1 26540 
173.245.48.170 1 1 32461 20180723050413
172.69.69.219 0 1 3088 
141.101.69.230 0 6 2430 
162.158.152.202 1 1 32460 20180719012750
108.162.241.147 0 1 3088 
172.68.141.69 1 1 0 20180715004837
162.158.37.174 1 1 32460 20180712165723
172.68.146.49 1 2 172442 20180705144443
172.68.146.193 1 4 186956 20180706053831
172.68.50.129 0 3 224555 
162.158.155.145 6 6 155628 20180710205620
172.68.189.30 5 5 161588 20180715071731
172.68.102.39 2 2 49878 20180722163421
162.158.126.9 0 1 29113 
162.158.2.33 0 2 272690 
162.158.108.40 1 1 32464 20180722214036
172.68.238.243 0 4 44931 
162.158.2.177 0 13 1268440 
162.158.154.162 0 3 348 
172.68.62.51 0 1 278 
162.158.119.34 0 2 7240 
162.158.86.24 1 1 0 20180713150824
141.101.97.136 0 14 679219 
173.245.52.174 0 1 2405 
172.69.69.201 0 2 14644 
108.162.216.75 1 2 493103 20180703234000
172.68.50.183 0 10 913297 
172.68.47.173 1 1 29903 20180713025054
172.68.51.75 0 3 361949 
141.101.76.105 0 1 52847 
172.68.65.227 3 3 73882 20180729160225
162.158.134.123 0 4 3694 
162.158.158.68 0 3 412608 
162.158.74.236 0 2 274600 
141.101.99.22 0 5 18465 
172.68.191.177 2 2 60204 20180703053514
162.158.90.83 0 1 20215 
141.101.102.171 1 1 32465 20180727215857
162.158.62.44 0 2 5868 
172.68.58.76 0 1 31910 
141.101.97.79 0 1 87940 
162.158.92.123 0 3 9264 
172.68.238.99 0 2 95933 
162.158.118.123 2 3 55059 20180709003133
141.101.69.38 3 4 75126 20180703060142
141.101.107.89 0 4 227912 
172.69.55.159 1 3 32671 20180716003729
141.101.99.112 1 1 32102 20180702163121
188.114.102.207 0 3 6152 
162.158.202.33 0 3 490558 
172.68.78.33 1 1 29903 20180724091203
141.101.96.51 1 6 535939 20180723102415
172.68.58.88 0 1 3589 
172.69.86.63 9 19 3057884 20180731150615
198.41.242.45 0 2 28526 
172.69.55.39 0 2 0 
162.158.166.238 1 1 32102 20180702141206
141.101.77.169 0 1 0 
172.69.54.242 4 5 226789 20180724184530
198.41.231.40 1 1 32465 20180716064801
172.68.143.77 1 1 32466 20180708220920
162.158.222.27 2 2 64931 20180731190047
162.158.167.125 0 5 4291 
162.158.118.21 0 6 426636 
162.158.58.182 1 2 59006 20180710111541
162.158.62.38 0 5 179785 
162.158.97.71 1 1 32460 20180714202831
173.245.48.68 1 1 0 20180713050452
162.158.179.39 0 1 137536 
162.158.166.46 0 3 542433 
162.158.122.125 0 2 27924 
162.158.154.42 4 4 129862 20180729114651
172.69.33.28 0 1 0 
172.68.144.114 0 1 3227 
162.158.222.63 0 4 28480 
172.68.238.117 17 18 685467 20180710064856
108.162.212.118 0 2 4860 
141.101.77.31 1 1 32451 20180709060346
162.158.38.81 1 3 76343 20180709143053
172.69.68.19 0 1 95933 
172.68.106.69 1 1 32101 20180701202218
141.101.99.148 3 14 337944 20180728145757
162.158.90.221 0 3 283722 
162.158.119.16 0 2 0 
162.158.88.163 3 3 64930 20180726214440
172.69.226.34 5 5 146031 20180728172240
162.158.155.133 5 7 349393 20180730022102
108.162.246.238 0 4 13308 
141.101.77.55 4 5 121444 20180717182517
162.158.79.40 0 5 1112 
172.68.162.81 0 1 465075 
162.158.234.81 0 1 29113 
162.158.154.48 0 5 1256836 
162.158.202.159 0 6 1720160 
172.68.206.111 0 2 39582 
172.68.234.51 1 1 32452 20180709154137
162.158.49.144 3 3 97016 20180725132826
172.69.190.51 0 1 2934 
162.158.62.236 1 1 32465 20180714002351
172.68.94.69 0 2 5478 
162.158.63.93 4 9 152317 20180729192146
172.68.11.46 0 1 144322 
172.69.54.152 0 1 3693 
162.158.234.111 0 1 8311 
172.68.11.4 2 2 64930 20180725171756
188.114.102.123 0 2 53080 
141.101.99.94 0 7 453897 
172.69.68.28 1 1 32465 20180722221459
162.158.90.215 0 3 3694 
172.68.201.23 9 9 291755 20180727164145
172.69.33.40 5 5 162327 20180730081034
172.68.51.105 0 10 308464 
172.68.14.177 1 1 32461 20180721010947
172.68.211.177 1 5 160105 20180713121133
141.101.107.245 0 1 3589 
162.158.93.8 0 1 204872 
172.68.201.35 9 9 290992 20180727084104
162.158.155.109 0 5 1087590 
172.68.162.15 0 1 7322 
141.101.98.123 0 11 10428 
162.158.39.4 0 2 1847 
162.158.38.63 0 2 1076 
141.101.77.61 1 1 34737 20180701001712
172.68.206.51 0 2 340927 
162.158.75.219 0 1 185783 
162.158.2.87 0 6 34586 
162.158.118.9 1 3 655753 20180704051928
172.69.55.9 1 2 28972 20180701001721
172.69.70.28 1 1 32465 20180722221509
172.68.94.231 0 4 124806 
141.101.97.81 1 1 32465 20180719170435
108.162.249.249 0 3 10534 
173.245.52.186 1 1 32451 20180710225550
108.162.212.166 0 2 47872 
108.162.219.9 0 2 16824 
162.158.2.99 1 5 945171 20180710160601
172.69.54.98 0 1 396445 
172.68.50.123 0 6 585464 
162.158.61.162 1 1 32451 20180709142532
141.101.105.113 0 6 32884 
108.162.219.141 14 14 404264 20180713081024
162.158.88.103 0 1 3476 
162.158.234.69 0 11 973318 
172.69.54.104 0 1 320855 
108.162.226.58 0 2 6810 
162.158.59.231 2 2 64932 20180710111742
162.158.88.115 0 4 68763 
172.69.62.159 1 1 32466 20180717072159
172.68.245.138 0 1 1847 
172.68.51.69 0 8 340635 
172.68.50.147 0 5 27924 
188.114.103.10 0 3 129896 
162.158.59.87 0 1 538 
172.68.254.161 0 2 269723 
172.68.141.237 1 1 32466 20180710200254
172.68.238.213 2 4 113046 20180701080032
141.101.97.75 3 13 864905 20180713005306
162.158.202.111 0 3 629922 
162.158.158.50 0 1 4233 
141.101.98.93 0 11 1036629 
172.69.86.9 1 5 140684 20180716143401
188.114.103.46 0 3 1159553 
162.158.93.80 0 1 3693 
162.158.88.187 1 2 44425 20180701014221
162.158.78.27 0 10 137520 
162.158.122.101 0 1 26540 
141.101.107.131 0 6 3110424 
162.158.165.15 0 4 0 
162.158.10.15 4 33 2965228 20180730154051
162.158.186.53 2 2 64596 20180714223626
162.158.63.219 2 4 992150 20180717090704
172.68.51.177 0 6 227775 
172.68.44.118 1 1 32096 20180702004737
172.68.51.99 1 5 327811 20180722215913
172.68.144.162 0 9 12409 
162.158.164.28 1 1 32096 20180705110857
141.101.107.59 7 7 239930 20180731161827
172.69.33.82 7 7 226137 20180711035126
188.114.103.166 0 2 40430 
172.69.222.45 0 15 2832653 
162.158.50.75 0 6 128052 
172.69.94.15 5 29 4502669 20180726001716
162.158.61.150 1 1 32460 20180712205900
141.101.102.135 1 1 32465 20180725110816
172.68.51.219 1 7 242904 20180720163528
162.158.163.161 7 7 227206 20180728184725
188.114.102.117 0 2 27924 
172.69.134.152 1 1 32460 20180721003830
172.68.51.141 4 15 1053335 20180709045940
162.158.142.57 1 1 32101 20180706102502
162.158.134.15 0 6 198868 
162.158.165.243 0 10 43279 
162.158.118.219 0 1 562189 
172.68.78.63 0 1 465075 
172.69.33.226 21 21 681738 20180731150131
162.158.38.237 0 4 287009 
141.101.104.214 0 1 94574 
108.162.246.208 0 6 18042 
172.68.141.171 2 2 64930 20180720065301
162.158.108.4 2 2 64920 20180729145000
172.69.126.87 0 1 94574 
188.114.102.111 0 2 6654 
162.158.94.61 2 2 64902 20180708114100
141.101.107.77 18 22 1375217 20180725163422
162.158.79.4 0 3 60657 
162.158.91.238 8 8 259721 20180726075423
172.68.253.94 0 2 4860 
172.68.245.48 1 1 32462 20180723025001
172.68.254.246 0 2 23936 
162.158.167.71 1 1 32102 20180701214545
162.158.89.108 0 2 7329 
162.158.37.234 1 1 32460 20180726055915
162.158.252.184 1 1 32465 20180727204116
162.158.62.56 0 2 2562 
162.158.92.147 0 1 0 
162.158.22.81 0 15 761039 
162.158.94.67 0 1 182160 
108.162.226.154 0 2 512317 
172.69.71.5 2 2 32465 20180722221503
162.158.78.231 0 4 127640 
162.158.92.93 13 13 400527 20180730221527
108.162.249.63 0 2 12409 
162.158.222.45 0 1 2471 
162.158.126.45 0 4 131888 
162.158.98.27 1 1 32452 20180708153421
162.158.91.190 0 1 3195 
141.101.99.214 6 11 211755 20180712164509
172.69.70.202 0 1 3327 
172.68.142.88 1 1 32101 20180704091132
162.158.63.165 4 6 223221 20180727183842
108.162.216.69 0 4 0 
172.69.130.81 0 7 659338 
162.158.165.93 0 9 44931 
172.68.63.64 0 1 824 
141.101.96.73 0 2 7852 
141.101.95.60 1 1 32096 20180702220544
162.158.202.165 0 2 6862 
108.162.229.243 0 2 734 
108.162.219.153 1 1 34718 20180702232456
172.68.51.39 0 14 650550 
173.245.52.66 0 5 145565 
162.158.59.249 1 1 32451 20180710135313
162.158.126.99 1 4 173860 20180719174315
172.68.238.9 21 21 681737 20180717234531
172.68.47.197 2 2 64916 20180716051621
162.158.90.167 0 1 4168 
172.68.144.108 0 1 186353 
108.162.215.87 1 1 32465 20180712123635
172.68.255.97 0 2 6654 
172.69.54.116 0 1 182160 
141.101.107.167 1 1 32102 20180704221833
162.158.167.89 0 5 142242 
172.68.65.239 6 9 598772 20180729160202
172.68.51.237 0 16 780689 
162.158.167.35 1 1 24884 20180706002640
141.101.77.253 0 1 3589 
162.158.123.72 0 1 3327 
108.162.226.250 0 3 269716 
162.158.93.218 0 1 184939 
172.68.244.131 2 2 64922 20180722230314
141.101.105.155 0 1 208743 
162.158.50.9 4 14 3012536 20180731161144
172.68.253.226 0 2 95933 
162.158.166.22 1 1 32452 20180708201209
162.158.2.93 0 3 10567 
108.162.216.207 0 1 137536 
108.162.246.70 0 8 83772 
162.158.111.156 0 3 1847 
162.158.114.117 0 1 31910 
162.158.154.72 0 7 0 
162.158.155.193 0 4 276960 
162.158.88.79 0 6 1087899 
162.158.93.92 0 6 35957 
162.158.63.237 0 11 39323 
198.41.242.87 0 1 35957 
162.158.22.21 0 21 205730 
162.158.88.145 0 1 3227 
172.68.144.102 0 2 114844 
162.158.91.160 0 2 3589 
172.68.146.133 12 12 415467 20180731110855
172.69.62.9 0 3 1101 
172.68.62.69 0 2 189148 
198.41.230.39 3 3 97017 20180728045133
141.101.107.209 0 1 115 
162.158.167.29 17 18 699273 20180727071341
162.158.92.171 0 1 249985 
141.101.106.40 2 2 64920 20180711115940
141.101.97.99 0 1 20215 
162.158.166.214 19 19 598485 20180728205926
172.68.145.110 3 3 97380 20180722190808
172.69.68.230 0 2 47872 
172.69.55.27 0 7 14240 
172.68.154.33 0 1 1737 
172.69.54.200 1 1 32465 20180723174116
162.158.74.62 0 7 104839 
162.158.98.51 3 3 97397 20180731160837
141.101.77.199 0 1 16060 
162.158.126.81 0 1 1847 
172.68.133.53 2 2 64930 20180724154517
172.68.239.70 0 1 3007 
162.158.88.181 1 1 32451 20180707193601
162.158.39.46 1 4 32739 20180726055905
162.158.49.59 1 1 32460 20180727163111
172.68.65.233 3 3 96238 20180729160203
108.162.214.34 4 4 129840 20180719201142
162.158.22.45 1 5 264239 20180703135729
172.68.253.166 0 3 9021 
172.68.238.231 0 3 4860 
162.158.89.30 8 9 262973 20180729070347
108.162.238.172 0 2 10534 
188.114.102.63 3 6 117699 20180730172550
162.158.154.198 0 4 1346776 
108.162.226.190 0 3 27924 
172.68.59.35 0 5 557917 
162.158.42.9 0 1 137536 
198.41.230.111 1 1 32451 20180710114155
162.158.155.73 0 4 64152 
172.68.206.27 2 7 346524 20180724212737
162.158.106.131 3 3 97032 20180725084534
162.158.74.50 0 1 3252 
172.68.145.181 1 1 32096 20180707102643
108.162.229.87 0 1 2934 
172.69.130.69 0 10 1551037 
172.69.134.104 0 4 0 
162.158.59.111 3 3 97440 20180730110330
108.162.238.160 0 1 7629 
162.158.2.189 0 1 94574 
162.158.93.182 0 5 1450210 
172.68.206.57 0 5 967588 
162.158.154.126 0 1 2419 
108.162.226.160 0 1 309980 
162.158.95.64 2 2 0 20180706165311
172.68.46.190 0 7 11082 
162.158.165.153 2 3 72515 20180702144721
172.68.110.75 0 1 3327 
141.101.105.239 1 1 32461 20180716002920
162.158.157.16 1 1 32460 20180713183810
162.158.79.178 0 1 2471 
162.158.90.107 0 3 844024 
162.158.19.4 1 1 32462 20180725162700
173.245.52.150 0 1 164807 
162.158.72.172 1 1 32446 20180710172209
162.158.104.49 1 1 0 20180711183352
172.69.33.94 1 1 32461 20180711192047
108.162.248.204 1 1 32446 20180708163837
172.68.211.21 1 10 136955 20180703053820
162.158.167.203 15 19 482993 20180730083114
172.68.229.95 1 1 32460 20180727200001
162.158.93.176 0 1 518404 
108.162.246.124 0 6 95744 
172.68.201.5 17 17 549930 20180731112219
162.158.91.184 0 3 411900 
172.68.211.105 0 2 6176 
172.69.62.147 3 3 77584 20180729160207
162.158.202.201 0 3 61905 
141.101.88.183 1 1 32101 20180705203831
141.101.99.82 0 4 65416 
108.162.215.27 1 1 32116 20180702171009
172.68.191.39 1 1 32464 20180727155652
172.69.134.68 0 1 134401 
172.68.154.21 0 2 138817 
172.68.51.21 0 11 432315 
141.101.98.249 1 5 32872 20180708181637
162.158.234.117 2 5 165311 20180726172431
162.158.252.226 1 1 0 20180711183353
172.69.142.27 0 3 37626 
162.158.118.207 0 3 0 
172.69.78.27 1 1 32465 20180729011025
162.158.154.54 2 6 630032 20180723100045
162.158.252.190 5 5 161583 20180714063336
172.68.50.165 1 13 473436 20180710010259
162.158.164.221 2 2 64892 20180709141125
162.158.91.70 0 2 281561 
108.162.245.15 2 2 64902 20180711041339
162.158.118.165 10 13 375072 20180713165114
188.114.102.189 0 2 189148 
162.158.93.170 0 1 3462 
162.158.22.93 0 2 679185 
108.162.216.57 1 1 0 20180703234000
172.68.144.66 1 2 82678 20180706191301
198.41.235.118 1 1 32460 20180712231033
162.158.2.75 1 6 933649 20180703171906
162.158.75.9 0 1 375017 
162.158.234.39 2 6 90835 20180710145805
162.158.166.226 0 2 160744 
162.158.2.105 0 2 5485 
162.158.126.75 3 3 97353 20180709044418
141.101.69.218 0 7 17050 
162.158.63.9 1 1 32465 20180716155714
172.69.55.63 1 1 29903 20180719070558
172.68.208.214 2 2 64920 20180724160911
108.162.219.21 4 4 122033 20180731002817
162.158.202.135 0 4 41720 
162.158.38.153 0 5 37188 
162.158.164.94 9 9 292140 20180730084552
172.68.254.107 0 1 538 
172.69.68.236 1 2 170001 20180730095800
162.158.30.9 0 14 1105779 
162.158.155.43 4 12 2226761 20180726123348
172.68.94.165 0 2 1704 
172.68.78.75 0 1 7322 
162.158.95.180 1 1 32464 20180727202903
172.68.47.89 1 1 28598 20180713025100
172.69.62.93 5 10 574182 20180725230243
172.68.238.147 20 21 651037 20180731113918
172.68.145.116 9 9 292126 20180728190645
162.158.111.144 1 1 32097 20180704142217
162.158.22.15 0 11 1086452 
172.68.143.173 0 1 3327 
172.69.132.188 3 3 97380 20180730110550
162.158.154.84 4 9 126212 20180711192724
172.68.102.63 0 1 538 
162.158.30.81 0 8 503061 
172.68.255.61 0 1 16060 
162.158.88.169 0 1 137536 
103.22.200.173 0 1 3476 
108.162.241.39 0 1 538 
172.69.190.27 0 7 324713 
172.68.249.148 1 1 32096 20180702061417
162.158.98.87 2 2 64932 20180719124241
172.68.6.111 1 1 32101 20180703194956
162.158.49.5 1 1 32460 20180723105734
141.101.104.232 0 3 337723 
162.158.119.94 6 6 161466 20180720141604
162.158.62.230 8 9 264558 20180714092801
188.114.103.190 0 2 15258 
162.158.119.10 0 5 596563 
162.158.154.138 0 1 8311 
162.158.93.56 0 8 23506 
198.41.242.39 0 1 94574 
197.234.242.147 0 1 137536 
172.69.222.57 0 8 1230063 
172.68.133.233 0 3 13962 
172.68.59.17 0 1 111219 
108.162.250.58 0 4 11323 
172.69.22.175 0 6 1860300 
162.158.90.203 0 1 105 
172.68.206.15 0 9 717571 
162.158.154.168 0 1 146936 
162.158.62.188 1 1 32466 20180712173857
141.101.107.155 0 1 493103 
141.101.99.34 0 8 158653 
162.158.62.212 0 5 69810 
172.68.162.21 0 1 4504 
172.69.226.148 1 7 33944 20180702170226
172.69.70.40 0 1 1281 
162.158.202.189 0 3 66300 
162.158.98.69 0 4 419930 
172.68.10.165 2 3 83510 20180715102717
162.158.92.15 2 2 32461 20180726085434
162.158.111.6 0 1 3386 
162.158.109.101 2 2 64542 20180708015714
162.158.153.76 1 1 32460 20180724200734
198.41.242.51 0 2 7697 
162.158.119.58 0 1 419681 
108.162.215.63 1 2 61214 20180702051332
172.68.46.16 1 7 32101 20180703090513
162.158.156.76 1 1 32460 20180724202859
141.101.69.92 0 2 275072 
172.68.58.28 0 1 275536 
172.68.51.147 0 5 251364 
141.101.105.161 0 1 3931 
141.101.97.100 0 4 950814 
162.158.93.62 0 1 239890 
162.158.222.81 0 3 3964 
141.101.98.171 0 1 188284 
172.68.51.195 0 9 736391 
141.101.69.146 1 1 32465 20180712083839
162.158.82.250 1 1 0 20180720005043
188.114.102.81 1 1 32465 20180727024055
197.234.242.69 4 4 129860 20180721040147
172.68.14.81 1 1 32460 20180715182447
141.101.76.45 0 3 465075 
162.158.78.93 0 1 144322 
172.68.154.105 1 1 32451 20180709191614
162.158.126.51 2 2 64930 20180713170723
162.158.156.130 2 2 64920 20180726140132
172.68.51.153 1 3 157765 20180727172646
162.158.138.63 0 2 14644 
162.158.18.153 1 1 32465 20180722151645
162.158.98.81 0 2 97901 
198.41.242.105 0 1 14977 
141.101.68.220 1 1 32096 20180706141602
162.158.89.18 0 2 138817 
172.68.94.159 0 2 6654 
108.162.215.207 1 7 32466 20180707221903
162.158.123.108 0 2 278 
162.158.118.57 0 1 3898 
172.68.78.81 0 5 72775 
162.158.187.42 0 2 23936 
172.68.62.63 0 2 63820 
172.68.146.139 21 22 636112 20180730161128
172.68.211.159 2 2 64558 20180716051937
108.162.216.105 1 1 32465 20180711225835
162.158.79.94 3 3 74122 20180729160219
162.158.153.222 2 2 64920 20180717174735
172.69.142.21 0 2 140863 
108.162.216.183 0 4 182160 
172.68.142.142 0 5 191866 
172.68.162.27 0 1 30184 
172.69.166.45 0 1 20215 
172.68.135.91 1 1 32464 20180714100044
172.68.62.33 0 1 2471 
162.158.89.168 0 2 6903 
141.101.105.29 4 6 301732 20180731161042
172.68.201.29 13 13 419754 20180729101949
162.158.134.219 0 4 411626 
162.158.75.39 0 3 9264 
172.68.146.31 19 19 567621 20180731093154
141.101.107.47 0 1 4504 
172.68.144.90 1 3 32102 20180703112209
162.158.22.69 0 15 1073483 
162.158.186.191 0 1 16038 
162.158.60.209 1 1 32446 20180709213249
141.101.104.202 0 3 3625 
172.69.166.33 0 1 7322 
172.68.47.143 1 3 62415 20180715061142
162.158.93.230 1 1 32102 20180705170003
198.41.235.196 1 1 32460 20180719062441
172.68.47.233 1 1 32480 20180714132153
108.162.215.225 1 1 32465 20180714032141
172.68.162.63 0 3 42821 
172.69.226.58 1 1 32466 20180717180619
162.158.167.119 0 1 404213 
172.68.255.133 0 2 406470 
172.68.154.57 2 2 64930 20180727183504
162.158.50.69 1 11 1035569 20180723214307
162.158.106.179 0 7 0 
172.69.222.15 0 9 1621024 
172.68.143.35 1 1 32480 20180723145718
108.162.219.27 1 1 32448 20180709143635
162.158.92.129 0 2 188440 
162.158.22.39 0 17 584983 
162.158.92.207 1 1 32473 20180711064043
172.68.191.111 2 2 32464 20180720172006
172.68.211.123 1 2 3007 20180713025106
172.68.132.10 1 1 0 20180715004838
162.158.202.81 0 5 923997 
162.158.63.231 0 1 53511 
172.69.62.63 6 10 216421 20180729160206
162.158.22.27 0 11 1236560 
162.158.30.51 0 15 2160197 
172.68.239.64 0 1 8311 
108.162.219.69 2 2 28499 20180731002735
162.158.50.141 1 3 39495 20180705104331
172.68.94.153 2 6 1005477 20180724135821
172.68.47.23 2 2 32101 20180713050452
172.69.55.81 1 4 92237 20180707091359
162.158.62.104 1 4 28199 20180731002825
172.68.65.245 3 7 157588 20180729160142
162.158.234.105 0 6 98228 
172.69.62.87 3 3 75715 20180729160230
162.158.202.171 0 10 899343 
141.101.107.101 7 11 402440 20180703105205
162.158.179.75 1 1 32465 20180712040553
172.68.211.81 1 1 32461 20180731074450
172.68.47.95 3 6 82883 20180703043735
141.101.68.64 1 1 32460 20180730011637
108.162.212.232 0 1 8311 
162.158.6.105 1 1 32465 20180724191736
162.158.10.27 1 31 4847170 20180708073611
162.158.88.37 1 1 32102 20180701002803
172.68.54.111 1 1 32462 20180729120558
108.162.216.171 1 2 303275 20180703143610
141.101.77.205 0 1 236641 
108.162.226.148 1 1 32101 20180702174320
141.101.88.237 0 2 32120 
141.101.105.197 0 2 794698 
162.158.123.132 1 2 30755 20180720024631
141.101.97.69 0 3 613967 
162.158.62.20 8 12 273262 20180731002656
162.158.155.157 1 1 32461 20180712235245
141.101.107.215 0 13 3147390 
162.158.111.30 2 4 62161 20180701001708
141.101.105.203 7 7 175174 20180726163819
162.158.97.17 1 1 32096 20180701132018
162.158.90.185 4 6 442748 20180728122309
141.101.88.171 2 2 62353 20180726213102
141.101.88.9 0 2 32076 
172.68.46.136 2 2 64960 20180723145621
172.68.62.111 0 2 13578 
188.114.102.33 0 3 114693 
188.114.103.88 0 4 38519 
172.68.144.240 14 14 450641 20180728110422
172.68.144.42 1 2 33218 20180704144031
108.162.218.214 2 2 61304 20180706192423
172.68.146.73 1 1 32102 20180705131331
162.158.62.92 1 1 32466 20180712023716
172.68.245.42 0 1 8311 
141.101.105.167 0 1 26540 
141.101.107.125 2 2 64563 20180725165442
162.158.119.70 1 3 38052 20180717015225
141.101.97.98 0 6 197278 
108.162.216.141 0 4 280014 
162.158.162.228 8 8 227220 20180723145613
172.68.141.75 0 8 7629 
141.101.77.235 0 1 26540 
141.101.105.35 0 1 56978 
103.22.200.203 0 1 271618 
162.158.62.110 1 1 32116 20180706204432
172.68.143.239 2 2 0 20180726025537
162.158.114.21 0 1 20215 
172.69.226.28 0 7 44931 
172.69.62.129 3 7 87805 20180729160157
172.68.237.11 2 2 64920 20180725160527
108.162.210.105 0 2 24818 
172.68.150.21 2 2 64960 20180728073643
162.158.39.10 0 2 40430 
108.162.236.108 1 1 32460 20180729211145
172.69.142.45 1 4 173828 20180719004247
162.158.92.81 0 2 613963 
172.69.22.97 0 1 7322 
103.22.200.83 0 1 313787 
162.158.50.27 2 6 313009 20180728142501
162.158.88.253 0 4 17561 
172.68.51.27 0 10 866194 
108.162.229.219 0 6 5267 
162.158.22.213 0 9 909218 
162.158.60.137 1 1 32447 20180709143732
172.69.54.164 0 2 500425 
162.158.49.156 2 2 64920 20180712145113
172.68.146.121 18 19 731898 20180731161901
172.68.47.239 2 2 64596 20180714211909
172.69.62.21 0 1 824 
162.158.202.93 0 2 5135 
172.68.254.71 0 2 465075 
162.158.94.43 0 4 2430 
162.158.2.51 0 3 37809 
172.68.9.36 3 3 96290 20180705235609
162.158.155.79 1 1 32466 20180713175113
162.158.202.207 0 3 719792 
162.158.22.99 0 4 415551 
172.68.58.10 0 1 3651 
162.158.93.38 0 2 4825 
172.68.46.148 2 2 64960 20180712011131
172.69.62.27 3 3 73888 20180729160229
172.68.239.148 1 1 24632 20180725174217
172.68.63.28 1 1 32101 20180704180727
108.162.219.225 6 6 175669 20180731002748
172.69.70.82 0 1 2471 
172.68.133.89 0 1 51978 
162.158.88.19 0 1 345543 
162.158.38.159 0 3 24933 
172.68.46.52 1 1 32480 20180712011315
141.101.107.137 1 2 41149 20180710030056
162.158.93.122 0 5 29113 
172.68.94.177 0 1 538 
141.101.98.135 4 4 109634 20180716132205
162.158.167.173 0 10 2430 
172.68.10.57 0 1 3327 
162.158.111.78 0 1 137536 
172.68.46.124 2 2 64930 20180730094808
172.69.52.34 2 2 64920 20180714225101
172.68.141.27 4 8 129804 20180710210325
188.114.102.87 2 2 57264 20180712111750
162.158.161.130 1 1 32096 20180701131345
162.158.94.19 6 9 281751 20180728122321
172.68.140.38 1 1 32464 20180729193520
172.68.238.201 20 20 649300 20180731114052
172.69.86.27 0 20 2601366 
141.101.107.29 0 3 12306 
172.68.63.22 0 1 0 
162.158.154.186 0 7 961079 
162.158.6.117 0 1 137536 
198.41.242.81 0 1 852 
172.68.190.254 1 1 32464 20180722233445
172.69.134.56 16 16 393384 20180704160054
162.158.49.120 1 1 32460 20180724175846
162.158.78.147 3 3 72856 20180729160200
162.158.154.90 2 14 3442830 20180702195751
172.68.46.142 4 4 123791 20180731135810
162.158.39.34 0 1 5267 
172.69.130.27 0 6 662014 
162.158.202.195 0 4 193061 
108.162.226.166 1 2 230738 20180720011801
162.158.93.200 0 2 164243 
108.162.246.130 3 3 92800 20180720044141
172.69.132.50 2 2 64920 20180726155104
141.101.99.238 0 1 88726 
188.114.102.99 0 2 24818 
162.158.92.87 0 2 3386 
108.162.226.94 1 5 1455719 20180726180017
172.69.33.220 1 1 32480 20180711234613
162.158.222.87 0 5 202319 
172.69.70.166 1 1 0 20180718165912
141.101.96.62 3 5 573721 20180716200739
141.101.96.84 0 3 47872 
172.68.206.21 0 6 505669 
173.245.48.152 2 2 64232 20180704072202
108.162.250.52 0 1 14977 
162.158.63.171 0 6 18042 
188.114.103.178 0 2 1076 
162.158.74.230 0 1 184939 
162.158.167.23 18 18 560053 20180731093210
172.69.68.8 0 1 29113 
108.162.216.243 0 2 40430 
162.158.111.186 0 2 65018 
162.158.22.147 0 3 504237 
141.101.99.172 0 6 1378632 
162.158.202.183 0 3 44386 
188.114.102.165 0 1 38125 
162.158.62.170 0 12 136220 
108.162.219.231 0 6 336295 
141.101.76.81 1 1 32452 20180710135738
108.162.219.57 1 1 32466 20180709152143
172.68.62.57 0 2 6654 
162.158.166.10 0 1 20215 
141.101.99.154 1 2 652731 20180711161858
173.245.52.156 0 10 452750 
108.162.229.117 4 4 111777 20180721070438
162.158.234.9 1 2 34299 20180710145718
172.68.58.40 0 1 312719 
172.69.70.238 0 1 1737 
172.69.134.146 3 3 97354 20180709044341
141.101.97.77 0 9 615699 
172.68.146.7 0 1 3954 
141.101.66.112 1 1 32096 20180702194514
141.101.105.209 0 1 16354 
172.69.94.63 0 17 1182197 
162.158.125.72 1 1 32460 20180731194458
162.158.2.45 1 4 491427 20180710033442
172.69.130.15 1 6 615709 20180702203644
162.158.93.158 0 1 3651 
172.68.27.209 2 2 64930 20180726135638
162.158.201.209 1 1 32096 20180704162516
162.158.118.33 0 3 9264 
172.68.154.111 1 1 32465 20180730144218
172.68.10.123 0 2 0 
188.114.103.94 4 5 423184 20180712011315
162.158.178.50 0 1 514419 
172.68.62.177 0 2 14644 
162.158.91.142 0 1 229772 
141.101.97.66 0 4 7718 
162.158.90.41 1 1 41510 20180704162534
172.69.55.195 0 1 1943 
162.158.158.14 0 5 138585 
172.68.47.5 1 2 35568 20180711221234
162.158.134.153 0 4 1860300 
172.69.190.33 0 4 13900 
108.162.246.184 0 16 150882 
108.162.216.63 0 4 7198 
172.69.222.39 0 12 83231 
162.158.202.75 0 3 9948 
172.68.14.57 1 1 32460 20180729015228
162.158.166.82 0 1 3932 
162.158.155.247 1 1 32466 20180723143515
172.68.58.34 4 4 153005 20180702192211
172.68.10.189 3 4 91145 20180728193912
162.158.104.136 1 1 32464 20180726183507
108.162.229.27 3 6 182417 20180725012427
162.158.92.195 5 6 140778 20180722215957
162.158.30.15 0 7 828565 
162.158.58.194 0 1 7322 
172.68.94.117 0 2 71914 
162.158.92.3 0 1 275536 
162.158.75.45 0 1 261342 
172.68.11.136 0 1 95933 
162.158.134.21 3 10 90524 20180723172923
162.158.49.192 1 1 32460 20180730142851
162.158.89.174 0 3 7290 
198.41.242.15 0 1 95933 
162.158.58.38 0 8 5267 
172.68.51.213 1 5 664693 20180726161415
172.68.102.15 1 1 32465 20180725032427
162.158.106.209 3 4 97397 20180730092556
172.68.245.84 0 1 0 
108.162.237.189 0 1 137536 
END_VISITOR

# Date - Pages - Hits - Bandwidth - Visits
BEGIN_DAY 31
20180701 71 313 25409274 48
20180702 135 349 19716764 82
20180703 107 258 18156270 82
20180704 141 329 18236814 82
20180705 135 212 7711756 75
20180706 140 554 34788014 78
20180707 92 296 24876236 66
20180708 106 240 8038867 71
20180709 107 200 5838257 64
20180710 192 846 57939780 104
20180711 149 243 8460580 99
20180712 175 526 33477976 102
20180713 143 264 8079239 92
20180714 90 195 6095513 62
20180715 129 225 7055386 102
20180716 139 272 8869192 91
20180717 118 327 20440180 87
20180718 154 336 27324336 102
20180719 169 349 13452067 129
20180720 156 356 14868351 110
20180721 89 117 2910906 73
20180722 120 290 11352090 80
20180723 141 246 7343333 108
20180724 122 491 40205425 99
20180725 127 403 30999232 91
20180726 147 294 8950967 106
20180727 93 175 8138400 79
20180728 79 263 15431103 66
20180729 122 414 28561664 90
20180730 130 252 9128246 96
20180731 135 355 20611155 95
END_DAY

# Session range - Number of visits
BEGIN_SESSION 7
15mn-30mn 36
30s-2mn 120
1h+ 22
2mn-5mn 50
0s-30s 2360
5mn-15mn 62
30mn-1h 61
END_SESSION

# URL - Pages - Bandwidth - Entry - Exit
# The 25 first Pages must be first (order not required for others)
BEGIN_SIDER 72
/ 2517 79937761 2052 2015
/contact-us 156 6531205 94 99
/accommodation/standard 93 2276581 39 47
/accommodation/super-deluxe 93 2427620 41 38
/accommodation 93 2746848 52 43
/accommodation/delux-mountain-view 91 2435131 42 47
/manage-gallery 83 3164533 44 47
//index.php 81 2628489 55 56
/promotions.php 68 1939361 23 25
/honeymoon.php 64 1612164 31 28
/index.php 48 1558379 21 25
/cuisine/buffet 40 1021651 14 14
/about-us 38 1079245 14 17
/infinity-pool 38 933062 17 16
/promotions 38 1084120 13 11
/downloads 28 623244 8 9
/facilities 28 981599 10 7
/assets/360/poolview.html 27 81025 9 5
/facilities/spa 26 654263 5 11
/cuisine/bar 22 539772 8 9
/facilities/infinity-pool 21 516034 6 8
/facilities/badminton-n-table-tennis 21 527733 5 8
/cuisine.php 19 538258 8 3
/cuisine/signature-dinning 19 490286 5 10
/facilities/shopping-boutique 17 417169 7 8
//index.php/Home/AppUpload/commentUpload 1 32101 0 0
/site-map 8 193563 4 5
/deluxe_m_view.php 1 27218 0 0
/assets/fonts/itcedscr_0-webfont.eot 2 79088 2 2
/facilities/squash-court 16 395489 6 9
/accommodation/terms-and-conditions 1 0 1 0
/facilities/fitness-centre 11 274584 2 5
/assets/360/restaurantview.html 5 16310 1 2
/assets/360/poolview.swf 4 482980 3 4
/signature_dining.php 3 79024 1 2
/privacy-policy 10 295350 3 7
/assets/360/gymview.swf 1 120734 1 1
/facilities/business-centre 13 320733 6 9
/long-stay.php 1 26207 1 1
/bar.php 3 75548 1 2
/contact-us.php 7 292305 5 6
/wedding.php 3 98131 1 3
/accommodation.php 3 89694 2 3
/assets/360/restaurantview.swf 1 120732 1 0
/honeymoon 17 425844 10 2
/buffet.php 1 25775 0 0
/accommodation/about-us 1 0 1 1
/map_pop.html 3 4845 0 2
/index.php/utils/upload 1 32465 0 1
// 3 97367 3 3
/shopping-boutique.php 2 50263 0 2
/assets/360/lobbyview.html 6 19506 0 2
/terms-and-conditions 10 288358 4 5
/deluxe.php 1 25822 1 0
/privacy-policy.php 3 85441 3 3
/accommodation/privacy-policy 1 0 1 0
/cuisine/privacy-policy 1 0 0 1
/assets/360/gymview.html 5 16235 0 3
/facilities/conferences-and-workshops 11 280116 7 5
/facilities.php 3 104905 3 2
/cuisine/about-us 1 0 0 1
/facilities/wedding 2 62964 0 0
//index.php/utils/upload 1 32465 1 0
/assets/360/lobbyview.swf 2 241648 2 2
/about-us.php 2 56939 1 1
/spa.php 1 25643 1 1
/suite.php 1 28198 0 0
/infinity-pool.php 1 25010 1 1
/badminton-and-table-tennis.php 3 76597 2 1
/conferences-and-workshops.php 2 51332 1 2
/downloads.php 2 44376 2 2
/squash-court.php 3 75380 3 1
END_SIDER
