AWSTATS DATA FILE 7.7 (build 20180105)
# If you remove this file, all statistics for date 201907 will be lost/reset.
# Last config file used to build this data file was /home2/fyfxamvcmvss/tmp/awstats/awstats.randholeeresort.freudenbergleisure.com.conf.

# Position (offset in bytes) in this file for beginning of each section for
# direct I/O access. If you made changes somewhere in this file, you should
# also remove completely the MAP section (AWStats will rewrite it at next
# update).
BEGIN_MAP 28
POS_GENERAL 2040                
POS_TIME 2725                
POS_VISITOR 14708               
POS_DAY 50761               
POS_DOMAIN 3653                
POS_LOGIN 4529                
POS_ROBOT 4684                
POS_WORMS 6221                
POS_EMAILSENDER 6352                
POS_EMAILRECEIVER 6495                
POS_SESSION 51248               
POS_SIDER 51463               
POS_FILETYPES 6630                
POS_DOWNLOADS 6911                
POS_OS 6959                
POS_BROWSER 7304                
POS_SCREENSIZE 10413               
POS_UNKNOWNREFERER 10487               
POS_UNKNOWNREFERERBROWSER 12216               
POS_ORIGIN 12809               
POS_SEREFERRALS 12955               
POS_PAGEREFS 13386               
POS_SEARCHWORDS 13802               
POS_KEYWORDS 14088               
POS_MISC 2387                
POS_ERRORS 14283               
POS_CLUSTER 4385                
POS_SIDER_404 14399               
END_MAP

# LastLine    = Date of last record processed - Last record line number in last log - Last record offset in last log - Last record signature value
# FirstTime   = Date of first visit for history file
# LastTime    = Date of last visit for history file
# LastUpdate  = Date of last update - Nb of parsed records - Nb of parsed old records - Nb of parsed new records - Nb of parsed corrupted - Nb of parsed dropped
# TotalVisits = Number of visits
# TotalUnique = Number of unique visitors
# MonthHostsKnown   = Number of hosts known
# MonthHostsUnKnown = Number of hosts unknown
BEGIN_GENERAL 8
LastLine 20190715173732 657 180214 16646322054724
FirstTime 20190701002932
LastTime 20190715173732
LastUpdate 20190715174822 657 0 657 0 0
TotalVisits 1455                
TotalUnique 777                 
MonthHostsKnown 0                   
MonthHostsUnknown 884                 
END_GENERAL

# Misc ID - Pages - Hits - Bandwidth
BEGIN_MISC 10
DirectorSupport 0 0 0
WindowsMediaPlayerSupport 0 0 0
PDFSupport 0 0 0
AddToFavourites 0 199 0
JavascriptDisabled 0 0 0
TotalMisc 0 0 0
FlashSupport 0 0 0
QuickTimeSupport 0 0 0
JavaEnabled 0 0 0
RealPlayerSupport 0 0 0
END_MISC

# Hour - Pages - Hits - Bandwidth - Not viewed Pages - Not viewed Hits - Not viewed Bandwidth
BEGIN_TIME 24
0 56 65 2349758 88 135 3417712
1 52 52 1597949 81 123 2909641
2 48 52 2045478 151 206 5166169
3 32 33 1110879 92 124 3045250
4 60 100 3807805 79 111 2698941
5 35 37 1186444 75 121 2972851
6 55 72 1849143 105 135 3300038
7 97 160 6540630 65 106 2598238
8 152 178 5569793 56 113 3546311
9 232 366 10343833 96 160 5349732
10 250 290 7922806 101 162 4155475
11 249 282 7461062 148 191 4614769
12 175 184 6740362 131 189 4712821
13 152 280 13351404 94 150 3846681
14 191 205 8466126 72 115 2946918
15 164 185 8112813 104 168 4076938
16 168 340 17306279 87 129 3477710
17 155 163 5024980 107 161 3862953
18 124 128 4263949 103 130 3240470
19 195 206 7423034 107 134 3288447
20 94 96 3269544 58 87 1983065
21 140 140 4266080 96 123 3048188
22 137 141 4933419 98 137 3333568
23 123 135 3700591 90 164 3459593
END_TIME

# Domain - Pages - Hits - Bandwidth
# The 25 first Pages must be first (order not required for others)
BEGIN_DOMAIN 45
us 1783 2197 73416728
lk 764 973 40626628
ip 214 252 7576266
cn 51 66 2247479
fr 41 42 1287889
de 40 43 1103744
mv 34 34 1093167
in 26 38 1430472
gb 22 29 1244802
bd 21 21 473311
ie 19 19 616854
au 16 47 1303794
qa 12 13 341422
ru 9 9 316389
nz 9 10 284528
kr 7 9 1014310
jp 7 13 228762
eu 6 6 176661
nl 5 5 165218
ua 5 5 176130
pl 5 6 299836
pt 4 4 148688
ae 4 4 114735
om 3 10 1246467
jo 3 4 111342
hu 1 2 169996
si 1 1 32465
ao 1 1 32465
za 1 1 41873
hr 1 1 32465
be 2 2 64926
bw 1 2 457913
es 1 1 24783
ph 1 3 162930
cw 2 2 64939
ng 2 2 83746
sg 1 1 32460
cz 2 2 64945
ch 1 1 32465
id 1 1 32479
no 2 3 90189
ro 1 1 32465
lv 1 1 41873
ca 2 2 70697
it 1 1 32465
END_DOMAIN

# Cluster ID - Pages - Hits - Bandwidth
BEGIN_CLUSTER 0
END_CLUSTER

# Login - Pages - Hits - Bandwidth - Last visit
# The 10 first Pages must be first (order not required for others)
BEGIN_LOGIN 0
END_LOGIN

# Robot ID - Hits - Bandwidth - Last visit - Hits on robots.txt
# The 25 first Hits must be first (order not required for others)
BEGIN_ROBOT 34
bingbot/ 331 10990231 20190715153036 0
Googlebot/ 258 7973252 20190715173505 0
YandexBot/ 60 1604065 20190715020038 0
bot[\s_+:,\.\;\/\\-] 58 1888754 20190715150341 0
Applebot/ 51 1415821 20190715170832 0
Baiduspider/ 45 1395703 20190715165307 0
SemrushBot/ 35 986591 20190715054039 0
DotBot/ 29 681793 20190714172420 0
Sogou[\x20]web[\x20]spider/ 26 844212 20190715165709 0
SeznamBot/ 26 747489 20190713132934 0
Exabot/ 21 641621 20190714225901 0
no_user_agent 16 2750881 20190711090735 0
bingpreview 15 475162 20190715025456 0
CCBot/ 13 364312 20190713084555 0
facebookexternalhit/ 13 269130 20190712223600 0
aiHitBot/ 12 263082 20190712053544 0
spider 11 159091 20190710202050 0
(firefox/)([0-9]\.|[0-1][0]\.) 9 262490 20190713221748 0
crawl 6 152428 20190711150833 0
360Spider 5 162312 20190712184723 0
Mail\.RU_Bot/ 5 148391 20190714033355 0
baidu 4 101223 20190712114223 0
SurdotlyBot/ 3 97385 20190710102219 0
YisouSpider 3 83311 20190710062927 0
YandexMobileBot/ 2 52672 20190704101621 0
Screaming[\x20]Frog[\x20]SEO[\x20]Spider/ 1 32461 20190704154942 0
MojeekBot/ 1 32480 20190714052401 0
Googlebot\-Image/ 2 76250 20190714083558 0
DuckDuckGo\-Favicons\-Bot/ 2 64930 20190708213008 0
Yahoo[\x20]Link[\x20]Preview 1 32466 20190709163321 0
curl 1 32466 20190705010351 0
netEstate[\x20]NE[\x20]Crawler 1 32464 20190702111424 0
oBot/ 1 32480 20190706211234 0
YandexImages/ 1 83668 20190703024422 0
END_ROBOT

# Worm ID - Hits - Bandwidth - Last visit
# The 5 first Hits must be first (order not required for others)
BEGIN_WORMS 0
END_WORMS

# EMail - Hits - Bandwidth - Last visit
# The 20 first Hits must be first (order not required for others)
BEGIN_EMAILSENDER 0
END_EMAILSENDER

# EMail - Hits - Bandwidth - Last visit
# The 20 first hits must be first (order not required for others)
BEGIN_EMAILRECEIVER 0
END_EMAILRECEIVER

# Files type - Hits - Bandwidth - Bandwidth without compression - Bandwidth after compression
BEGIN_FILETYPES 11
css 50 577822 0 0
gif 7 15633 0 0
js 236 5588119 0 0
Unknown 1431 42945201 0 0
jpg 314 32710594 0 0
jpeg 15 230952 0 0
php 362 10477430 0 0
swf 6 724420 0 0
png 132 4878980 0 0
eot 1 39544 0 0
html 1336 40455466 0 0
END_FILETYPES

# Downloads - Hits - Bandwidth
BEGIN_DOWNLOADS 0
END_DOWNLOADS

# OS ID - Hits
BEGIN_OS ID - Hits - Pages 20
linuxandroid 670 581
Unknown 319 188
macosx10 4 4
macosx 83 77
win10 1419 1002
win8 64 64
macosx6 3 3
winxp 7 7
macosx12 4 3
winphone 3 3
macosx11 16 16
win8.1 159 154
winunknown 1 1
win7 658 625
ios_ipad 47 42
macosx5 1 1
macosx8 3 3
ios_iphone 319 286
linux 101 67
winlong 9 9
END_OS

# Browser ID - Hits - Pages
BEGIN_BROWSER 147
chrome63.0.3239.132 22 22
android 2 2
opera52.4.2517.140781 2 2
safari11.0.1 1 1
edge15 1 1
chrome71.0.3578.99 4 4
chrome50.0.2661.102 6 6
chrome43.0.2357.124 1 0
firefox66.0 4 4
chrome45.0.2454.93 1 1
chrome62.0.3202.94 1 1
chrome4.1.249.1025 1 1
chrome68.0.3440.106 4 4
chrome71.0.3578.98 12 4
chrome20.0.1132.47 1 1
chrome58.0.3029.83 1 1
opera54.0.2952.71 1 1
chrome75.0.3770.89 9 8
opera53.0.2907.68 5 5
opera54.0.2952.51 4 4
opera53.0.2907.99 5 5
safari9.0 2 2
chrome75.0.3770.100 1292 942
firefox64.0 13 13
chrome74.0.3729.169 64 44
chrome58.0.3029.110 5 4
opera54.0.2952.64 8 8
firefox57.0 1 1
chrome57.0.2987.133 1 1
opera51.2.2461.137690 1 1
chrome53.6.0969.5697 4 4
chrome53.0.2785.104 1 0
chrome77.0.3843.0 1 1
chrome66.0.3359.117 2 2
chrome60.0.3112.113 51 50
safari12.1.1 146 128
chrome62.0.3202.84 2 2
safari4.0.4 2 2
safari5.0.2 1 1
chrome40.0.2214.85 8 8
msie9.0 11 11
chrome70.0.3538.102 1 1
opera54.0.2952.54 3 3
chrome44.0.2403.89 1 1
safari11.1.1 5 5
edge18 27 23
firefox68.0 61 57
chrome72.0.3626.121 11 11
chrome63.0.3239.0 2 0
chrome55.0.2883.95 1 0
firefox15.0 59 59
firefox43.0 22 12
chrome38.0.2125.102 5 5
iphone 16 16
firefox24.0 2 2
chrome54.0.2844.46 1 1
chrome75.0.3770.101 369 354
firefox45.0 13 13
chrome70.0.3538.67 1 1
safari 101 92
chrome57.0.2987.108 3 3
chrome62.0.3202.9 5 3
safari13.0 23 20
chrome50.0.2661.89 19 10
msie8.0 14 14
chrome26.0.1410.65 3 3
mozilla 59 55
chrome75.0.3770.67 6 6
firefox40.1 11 11
edge12 2 2
chrome64.0.3282.137 6 5
cloudflare 231 100
chrome68.0.3440.91 5 5
chrome74.0.3729.157 40 27
chrome41.0.2228.0 4 4
Unknown 39 39
chrome59.0.3071.125 1 1
msie7.0 5 5
chrome73.0.3683.75 1 1
chrome63.0.3239.84 1 1
chrome61.0.3163.98 3 3
firefox56.0 2 2
safari12.0.3 1 1
chrome61.0.3163.100 2 2
chrome76.0.3786.0 1 1
chrome73.0.3683.90 8 7
chrome45.0.2454.101 11 9
safari12.1 13 9
chrome54.0.2840.85 4 4
chrome38.0.2125.111 2 2
chrome64.0.3282.140 9 9
chrome63.0.3238.0 1 1
safari11.0.2 1 1
chrome72.0.3626.105 12 9
chrome41.0.2272.118 3 0
safari10.1.2 1 1
opera11.00 2 2
opera62.0.3331.43 4 4
chrome67.0.3396.79 6 6
netscape5.0 1 1
chrome73.0.3683.86 5 5
safari11.0 70 65
firefox67.0 162 155
chrome74.0.3729.131 7 7
chrome67.0.3396.87 56 42
chrome14.0.835.202 2 2
msie11.0 123 95
opera60.0.3255.170 33 30
firefox54.0 7 7
chrome70.0.3538.80 3 3
edge16 10 3
chrome66.0.3359.181 40 40
chrome38.0.1025.166 17 4
msie6.0 2 2
chrome71.0.3578.80 5 5
chrome51.0.2704.81 2 2
chrome63.0.3239.111 55 38
firefox47.0 18 18
chrome67.0.3396.68 11 10
chrome56.0.2924.87 7 6
msie10.0 54 54
chrome77.0.3833.0 6 6
firefox50.0 17 4
chrome68.0.3440.70 6 6
chrome22.0.1207.1 1 1
safari5.0.4 1 1
firefox58.0 3 3
chrome55.0.2883.87 5 5
chrome65.0.3325.181 50 38
safari10.0 9 8
chrome74.0.3729.136 7 5
chrome60.0.3112.50 4 4
firefox27.0 20 20
firefox36.0 3 3
chrome34.0.1847.116 4 4
chrome72.0.3626.109 16 16
safari12.0 21 19
firefox21.0 4 4
chrome49.0.2623.75 5 5
chrome69.0.3497.100 3 3
chrome66.0.3359.158 2 2
safari5.1 2 2
chrome67.0.3396.99 7 7
chrome70.0.3538.110 1 1
firefox59.0 1 1
chrome51.0.2704.106 6 6
edge17 27 21
END_BROWSER

# Screen size - Hits
BEGIN_SCREENSIZE 0
END_SCREENSIZE

# Unknown referer OS - Last visit date
BEGIN_UNKNOWNREFERER 26
Scrapy/1.5.2_(_https://scrapy.org) 20190701042723
Mozilla/5.0_(compatible;_Daum/4.1;__http://cs.daum.net/faq/15/4118.html?faqId=28966) 20190714160516
Mozilla/5.0_(compatible;_Go-http-client/1.1;__centurybot9@gmail.com) 20190704114410
WhatsApp/2.19.150_A 20190714000713
Mozilla/5.0_(compatible;_CloudFlare-AlwaysOnline/1.0;__http://www.cloudflare.com/always-online)_AppleWebKit/534.34 20190715094608
Mozilla/5.0_(compatible;_NetcraftSurveyAgent/1.0;__info@netcraft.com) 20190704202853
Mozilla/4.0_(compatible;_ms-office) 20190710230022
MixnodeCache/1.8(_https://cache.mixnode.com/) 20190703103523
SEMrushBot 20190705025306
Mozilla/4.0_(compatible;) 20190704155452
Scrapy/1.6.0_(_https://scrapy.org) 20190705184606
Mozilla/5.0_zgrab/0.x_(compatible;_Researchscan/t13-0rtt;__http://researchscan.comsys.rwth-aachen.de) 20190711083506
WhatsApp/2.19.61_i 20190709070940
Mozilla/5.0_(compatible;_Google-Site-Verification/1.0) 20190713103912
Go-http-client/1.1 20190714175935
Mozilla/5.0_(compatible;_Yeti/1.1;__http://naver.me/spd) 20190714015935
python-requests/2.22.0 20190712003254
The_Knowledge_AI 20190713100837
WhatsApp/2.19.175_A 20190703104438
Mozilla/5.0_(compatible;_TrendsmapResolver/0.1) 20190710125410
python-requests/2.18.1 20190702150539
Go-http-client/2.0 20190715141238
Mozilla/5.0_zgrab/0.x_(compatible;_Researchscan/t12sns;__http://researchscan.comsys.rwth-aachen.de) 20190708125336
Mozilla/5.0_(compatible;_Qwantify/2.4w;__https://www.qwant.com/)/2.4w 20190707122041
Mozilla/5.0_(compatible;_ips-agent) 20190707012421
Mozilla/5.0_(compatible;_CloudFlare-AlwaysOnline/1.0;_http://www.cloudflare.com/always-online) 20190715094512
END_UNKNOWNREFERER

# Unknown referer Browser - Last visit date
BEGIN_UNKNOWNREFERERBROWSER 13
Scrapy/1.6.0_(_https://scrapy.org) 20190705184606
SEMrushBot 20190705025306
Go-http-client/2.0 20190715141238
MixnodeCache/1.8(_https://cache.mixnode.com/) 20190703103523
python-requests/2.18.1 20190702150539
WhatsApp/2.19.150_A 20190714000713
python-requests/2.22.0 20190712003254
WhatsApp/2.19.175_A 20190703104438
The_Knowledge_AI 20190713100837
Go-http-client/1.1 20190714175935
Microsoft_Office_Excel_2014 20190710230021
WhatsApp/2.19.61_i 20190709070940
Scrapy/1.5.2_(_https://scrapy.org) 20190701042723
END_UNKNOWNREFERERBROWSER

# Origin - Pages - Hits 
BEGIN_ORIGIN 6
From0 853 878
From1 2 2
From2 385 389
From3 11 11
From4 1885 2610
From5 0 0
END_ORIGIN

# Search engine referers ID - Pages - Hits
BEGIN_SEREFERRALS 15
bing 1 4
www_google_com 336 336
in_images_search_yahoo_com 0 1
www_google_co_uk 1 1
baidu 11 11
www_google_lk 20 20
www_google_be 4 4
www_google_com_sg 1 1
google_com 4 4
www_google_dk 1 1
search_yahoo_com 1 1
www_google_co_in 1 1
webde 1 1
r_search_yahoo_com 1 1
www_google_com_au 2 2
END_SEREFERRALS

# External page referers - Pages - Hits
# The 25 first Pages must be first (order not required for others)
BEGIN_PAGEREFS 6
http://m.facebook.com 4 4
http://www.iciis.org/Accommodation.html 2 2
http://www.thasl.lk/list-of-members.html 2 2
http://www.ameblo.top/articles/34077658/ 1 1
https://traveltriangle.com/blog/restaurants-in-bentota/ 1 1
http://www.elakiri.com/forum/showthread.php 1 1
END_PAGEREFS

# Search keyphrases - Number of search
# The 10 first number of search must be first (order not required for others)
BEGIN_SEARCHWORDS 12
person1sr 1
requireepr 1
4gr3 1
nf4v 1
stillo2t 1
stategfp 1
exclaimedoqt 1
randolee+resort 1
luckewg 1
mission8j9 1
bowubb 1
n8k2 1
END_SEARCHWORDS

# Search keywords - Number of search
# The 25 first number of search must be first (order not required for others)
BEGIN_KEYWORDS 13
stategfp 1
stillo2t 1
nf4v 1
4gr3 1
requireepr 1
person1sr 1
n8k2 1
bowubb 1
resort 1
mission8j9 1
luckewg 1
randolee 1
exclaimedoqt 1
END_KEYWORDS

# Errors - Hits - Bandwidth
BEGIN_ERRORS 3
500 21 0
301 41 11439
302 2045 45613922
END_ERRORS

# URL with 404 errors - Hits - Last URL referrer
BEGIN_SIDER_404 0
END_SIDER_404

# Host - Pages - Hits - Bandwidth - Last visit date - [Start date of last visit] - [Last page of last visit]
# [Start date of last visit] and [Last page of last visit] are saved only if session is not finished
# The 25 first Hits must be first (order not required for others)
BEGIN_VISITOR 884
162.158.165.101 68 68 1793731 20190710234016
174.127.135.130 61 61 1709020 20190712191728
162.158.166.196 60 60 1883360 20190710162325
162.158.165.115 59 59 1672093 20190711015018
162.158.165.235 56 56 1751612 20190711121554
162.158.167.209 53 55 1684283 20190711014816
172.69.134.74 51 51 1528968 20190711084942
162.158.165.99 48 51 1649991 20190710135304
172.69.135.21 46 49 1407547 20190710184815
172.69.134.254 46 48 1811375 20190710211447
172.68.146.217 45 45 1257544 20190711173003
162.158.167.59 41 41 1162026 20190711171124
162.158.166.154 41 41 1285779 20190711021524
172.68.146.49 39 45 1832742 20190710233944
162.158.167.239 38 39 1210136 20190710021847
162.158.166.46 31 31 883065 20190711084811
79.213.79.146 31 31 819705 20190711234343
162.158.65.231 27 63 2550412 20190715094608
162.158.165.87 27 27 830435 20190710142309
172.68.146.241 27 27 800903 20190711170850
162.158.165.195 26 26 684632 20190711001013
162.158.71.20 26 61 2380370 20190701042512
172.68.144.246 23 23 678314 20190710200248
203.115.19.66 21 21 488864 20190702191919
172.69.135.129 21 22 846475 20190710170403
162.158.166.38 1 1 32466 20190709182028
172.69.134.140 0 1 49311 
79.44.208.18 1 1 32465 20190703083652
103.247.50.157 4 4 154457 20190704090322
2402:4000:1080:15b:c5fe:7c7a:792d:ba23 1 1 32465 20190703154249
49.206.181.224 0 8 628604 
137.226.113.34 1 4 74786 20190712163613
72.14.199.160 1 1 32480 20190713103912
112.134.17.248 2 2 57708 20190702092003
91.242.162.80 2 2 53206 20190702144606
172.68.145.86 4 4 129840 20190709185754
165.225.112.197 1 1 32466 20190713175312
162.158.167.227 0 1 2920 
209.222.82.137 1 1 32465 20190704010744
34.221.41.131 2 2 64923 20190714182723
162.158.165.207 11 16 363238 20190710181447
35.176.92.103 3 3 97395 20190704120757
123.231.118.138 1 1 32465 20190704113538
172.69.135.177 2 4 99400 20190711152207
104.222.33.211 1 1 32461 20190714084215
18.216.129.209 4 4 129854 20190712132319
2404:f801:9000:1a:b735:aec7:6111:a553 1 1 32460 20190702120356
175.157.46.152 1 1 32466 20190712124323
162.158.165.171 0 2 177452 
138.197.111.97 1 1 32465 20190715093819
162.158.165.33 0 5 726425 
112.135.32.153 1 1 32465 20190704090014
125.119.8.154 1 1 32479 20190704031119
112.135.75.154 6 7 231521 20190714224405
172.69.135.189 0 2 538 
173.205.33.17 1 1 32466 20190714015401
34.222.252.35 2 2 64923 20190715164654 20190715164653 /
43.250.240.80 1 1 32465 20190703173042
172.68.253.142 1 1 24769 20190711032223
172.69.134.134 15 16 643131 20190711014815
175.157.43.143 1 1 41873 20190704145430
112.135.255.39 1 1 32460 20190702090810
2400:cb00:36:1011::a29e:4689 1 1 32461 20190701005142
175.157.55.90 1 1 25243 20190701203753
4.53.111.65 1 1 32466 20190712123345
2402:4000:1381:c896:b407:cca5:cc36:9ffd 2 2 64930 20190703194600
2402:4000:2180:33cd:6418:b413:2d55:c2bc 5 5 142027 20190703215832
162.158.165.189 0 2 94574 
2600:1f14:b62:9e04:386d:fae7:cef5:4618 1 1 32480 20190715153933
175.157.42.122 1 1 32465 20190704180606
162.158.166.108 1 1 32466 20190711091153
112.134.102.102 9 9 252940 20190703163642
104.222.43.201 1 1 32461 20190715020053
162.158.167.113 1 3 235498 20190711142349
202.52.12.106 1 1 32479 20190703002907
112.135.193.74 2 2 60950 20190712123916
162.158.179.231 0 1 0 
162.158.166.202 1 2 35381 20190710183148
35.227.80.59 1 1 32461 20190702043439
172.68.146.127 0 2 852 
112.134.1.113 3 3 77768 20190704092357
38.128.66.10 1 1 32464 20190715141218
203.143.23.145 9 11 275932 20190712111839
112.134.37.239 1 1 25269 20190714082138
2a02:13f0:8100:0:4c6b:bf60:bdbc:9069 2 2 64930 20190715032905
172.69.135.135 0 1 106964 
172.69.134.188 1 1 25104 20190708070349
209.222.82.134 1 1 32465 20190704060810
203.94.70.98 9 9 305195 20190712130141
35.177.61.28 1 1 32480 20190712104851
172.68.144.186 0 2 358268 
112.134.225.190 5 5 141882 20190712223303
91.242.162.37 4 4 115764 20190702012903
112.135.248.16 1 1 38232 20190703230240
112.134.83.189 1 1 32466 20190712214914
112.135.230.75 1 1 41873 20190701111829
162.158.166.110 4 5 180292 20190710124326
2a01:cb00:935:3500:6d69:9ed5:c439:de39 1 1 24632 20190712133500
172.68.146.43 0 1 34810 
2402:4000:10c2:a137:754a:385f:3005:7fb4 1 1 25547 20190714121658
162.158.178.32 0 1 0 
2402:d000:a000:40b9:588a:57a6:a392:785d 10 10 311681 20190712214447
123.231.106.59 3 3 93522 20190704091625
54.170.250.114 1 1 32465 20190704150654
172.68.144.222 3 4 95949 20190711143844
2400:cb00:36:1004::a29e:406d 1 1 0 20190715051319
162.158.166.84 2 7 67353 20190710183414
192.248.8.114 3 3 77611 20190701124606
2402:4000:13c4:a6f2:dd0b:92d:979b:3349 3 3 83297 20190713190557
49.181.224.146 4 4 116518 20190714173158
14.194.230.154 1 1 24631 20190703182815
112.134.193.225 10 10 303991 20190704185600
91.242.162.20 2 2 50967 20190704101718
3.9.147.77 1 1 32480 20190714105125
112.135.44.201 1 1 32465 20190703220707
106.45.0.157 1 1 32480 20190715161043
112.135.32.182 2 2 66656 20190702161055
162.158.166.130 0 1 47219 
35.177.23.34 1 1 32479 20190701110054
175.157.43.136 1 1 32465 20190703112756
124.43.17.1 2 2 59281 20190712094431
2402:4000:2181:b28c:3c0a:e3f5:c648:fa7d 1 1 32465 20190703150615
46.14.217.146 1 1 32465 20190701124423
172.69.135.75 0 1 61857 
162.158.161.25 3 3 97380 20190711082611
68.183.156.142 1 1 32479 20190704192048
173.245.48.236 1 1 24784 20190707044033
112.135.241.133 1 1 28597 20190701214400
112.134.226.90 2 2 70699 20190712072458
175.157.32.196 3 3 56469 20190704161336
162.158.165.175 4 4 129864 20190711131316
54.162.102.36 4 4 129880 20190703103523
162.158.166.34 0 1 81078 
64.233.173.146 1 1 32460 20190714094430
104.222.33.132 1 1 32461 20190712064528
162.158.166.76 1 2 60584 20190708070346
172.68.144.252 0 1 29113 
209.222.82.155 1 1 32465 20190704080828
124.43.18.57 4 4 105625 20190704063934
2400:cb00:36:1050::a29e:41e7 1 3 0 20190715094512
104.222.43.80 1 1 32461 20190713152731
43.250.242.196 3 7 252775 20190701103823
171.36.134.154 1 1 32479 20190701233158
112.134.209.58 3 3 83662 20190702001437
112.134.65.72 7 7 198076 20190715152024
172.68.255.37 1 1 41874 20190710041222
64.233.173.145 3 3 97380 20190703080508
112.135.69.160 3 3 95957 20190714122220
172.69.135.39 1 7 352299 20190709134843
2402:d000:a000:2028:adb6:d0ed:66ee:ace8 1 1 32465 20190701145529
175.157.162.194 1 1 41874 20190711220205
34.222.248.57 1 1 32462 20190713141303
13.57.11.111 1 1 32460 20190715033146
92.241.47.15 2 2 64920 20190702194053
113.128.104.231 1 1 32480 20190712114057
43.250.241.198 2 2 61076 20190701192145
43.250.242.132 8 8 214377 20190714155909
172.68.146.139 5 5 152541 20190709084602
111.224.219.16 1 1 32479 20190701023450
159.69.246.94 1 1 1615 20190703184213
77.67.54.58 1 1 32466 20190714032832
125.209.235.168 0 1 404361 
112.134.232.6 1 1 32465 20190704124208
203.143.25.69 2 2 61078 20190712114956
172.68.255.79 1 1 32480 20190711052329
194.34.133.180 5 5 162305 20190713231129
172.68.146.157 1 1 24290 20190708070334
2402:4000:1381:9ed1:b1e2:ee59:c4b2:b5c6 1 1 24632 20190713185234
112.135.193.39 1 1 32479 20190703094229
203.6.146.34 2 23 70699 20190715112250
18.237.126.93 1 1 32462 20190715141238
176.203.108.79 9 10 247892 20190715131609
77.67.54.59 2 2 64932 20190713225219
61.245.169.111 5 5 161617 20190713150704
172.68.144.174 0 2 92194 
162.158.163.250 1 1 0 20190705044417
182.101.61.180 1 1 32480 20190715145638
172.68.144.192 3 5 195627 20190711154519
77.67.54.50 2 2 64932 20190713075254
112.135.7.41 2 2 51427 20190702214328
49.180.99.238 1 1 32465 20190703143452
34.220.102.141 1 1 32461 20190713024441
35.247.80.163 1 1 32466 20190714133448
95.174.64.154 5 6 299836 20190711204533
172.68.145.134 2 2 64920 20190710115104
175.157.244.141 1 1 25243 20190701192113
172.68.146.31 1 4 307552 20190711084811
110.175.32.137 4 11 870067 20190714175047
172.68.254.95 0 1 20219 
123.145.20.12 1 1 32479 20190701221044
162.158.165.145 0 5 95933 
196.170.91.5 1 1 41873 20190701222120
172.68.146.103 1 5 52680 20190711093257
2001:8f8:1423:4ae8:9997:7926:9420:e436 1 1 25244 20190715130919
162.158.167.83 9 10 254325 20190710152019
77.67.54.52 1 1 32466 20190713023334
159.69.195.91 4 4 129848 20190702182704
113.59.209.145 1 1 41873 20190701200117
173.205.33.29 1 1 32466 20190714012029
2402:4000:2080:40dc:b899:8e7b:2417:5d63 2 2 64930 20190704204041
162.158.161.9 11 11 357061 20190709214159
185.206.225.138 1 1 41873 20190703162907
162.158.88.139 6 6 165805 20190706123253
82.102.27.195 2 2 64940 20190703205747
111.224.235.177 1 1 32479 20190704173016
185.153.180.63 5 5 162325 20190713182009
162.158.179.51 0 1 2816 
2a02:13f0:8100:1:2438:973:bf56:ce5f 1 1 32461 20190701094612
162.158.177.40 1 1 32460 20190706020307
34.218.75.223 4 4 104503 20190712111548
112.134.210.152 1 1 32466 20190712161237
124.43.10.148 4 4 138092 20190702084721
124.43.19.250 1 1 26185 20190712152459
2002:6894:6904::6894:6904 3 3 97395 20190713122810
14.139.190.98 3 4 90182 20190712141704
183.82.33.70 3 4 86599 20190701115325
2402:4000:2181:7dee:a56e:2fb9:92b8:7fd9 1 1 32466 20190714144540
34.219.141.135 1 1 32461 20190703124434
162.158.166.88 1 3 35735 20190708070325
2a02:13f0:8100:0:5cc0:8cda:d37a:73a5 4 4 129850 20190714173140
123.231.63.43 3 3 76235 20190704090104
162.158.165.81 2 2 59168 20190708070335
172.69.134.86 1 1 25587 20190705111329
124.195.199.151 16 16 593205 20190701174637
119.235.7.122 3 3 93536 20190703180358
116.252.0.40 1 1 32480 20190712201914
167.71.182.211 1 1 32460 20190704202853
18.130.213.105 1 1 32460 20190701102549
18.130.226.89 1 1 32460 20190704112127
162.158.161.29 5 5 162300 20190709144037
116.12.81.202 9 9 261855 20190704094024
167.71.178.93 1 1 32479 20190704195718
112.135.237.190 1 1 25243 20190703124029
162.158.162.213 3 3 102790 20190707012421
144.52.169.153 3 3 125619 20190701055633
112.134.38.219 1 6 1833623 20190701192930
123.231.126.138 7 171 12321641 20190703165003
2400:cb00:36:1013::a29e:4794 1 1 0 20190712063635
4.53.111.73 1 1 32466 20190713095214
123.176.28.34 13 13 354391 20190702101118
172.68.144.168 1 2 35457 20190711065123
113.59.210.17 6 6 171789 20190704163745
106.45.0.60 1 1 32480 20190712004030
2a02:1812:1716:1900:2482:2f5:b8c0:fa9e 2 2 64932 20190714181318
112.134.210.106 1 1 32466 20190713110413
4.53.111.79 1 1 32466 20190712090133
2402:4000:2182:7a24:5c09:c538:3b8e:ac85 2 2 64944 20190701095304
203.202.254.51 16 16 341029 20190703165021
172.68.146.91 1 1 28469 20190705111328
162.158.92.213 2 2 58665 20190705234847
2402:4000:2080:5d20:84a:875a:fb1b:a8b2 4 6 128423 20190715114621
112.135.44.4 15 17 664243 20190701085833
172.68.255.49 1 1 24617 20190711032225
66.249.93.91 1 1 32479 20190702212753
112.134.49.136 4 4 127905 20190704110806
172.68.144.138 1 6 40090 20190711124216
77.67.54.62 4 4 129864 20190713095338
172.69.135.27 2 2 50386 20190708070327
46.17.84.8 2 2 57722 20190703151239
2402:4000:1080:2fc0:c064:77dc:ece9:11f2 1 1 32466 20190714163645
216.113.192.36 1 1 32465 20190715114321
222.94.212.44 1 1 32480 20190713164956
162.158.167.47 3 6 326559 20190711151925
2601:84:8900:d34f:544a:3e40:7acc:17fc 1 1 32466 20190714210022
172.68.144.102 1 1 38233 20190711091914
86.96.201.90 1 1 32465 20190702133626
172.69.135.111 4 6 343409 20190710154849
172.68.146.175 0 6 20697 
162.158.166.162 0 2 42894 
35.167.252.199 1 1 32460 20190711191023
2400:cb00:36:1033::a29e:4495 0 1 0 
124.43.26.5 5 5 159429 20190704161637
209.222.82.158 1 1 32465 20190703180704
162.158.165.5 0 1 1035 
2a03:b0c0:1:d0::bb8:e001 1 1 32461 20190713041823
188.166.116.151 3 3 102835 20190701060038
2402:4000:2181:90c5:8d23:10b4:1b6a:440e 11 11 318225 20190714210232
197.210.62.38 2 2 83746 20190703131855
162.158.164.43 1 1 32460 20190711092402
162.158.166.120 0 1 160781 
2402:4000:2080:f9a4:bd08:c38a:d33f:bc4 1 1 32460 20190714124808
103.21.167.28 5 5 143053 20190702110321
172.68.146.55 1 1 25509 20190708070351
162.158.167.5 0 1 3783 
77.67.54.51 1 1 32466 20190712090114
103.247.48.5 3 3 93558 20190712072153
175.157.127.2 1 1 41873 20190703085029
120.17.105.179 2 5 116649 20190704040158
178.153.235.253 1 1 32466 20190714222747
3.9.117.157 1 1 32480 20190715095758
112.134.6.222 1 1 32460 20190711214215
61.129.6.251 0 5 85702 
112.134.65.169 10 10 274120 20190703192016
175.157.41.13 2 2 74333 20190701134054
104.248.12.44 1 1 32461 20190715132533
112.134.2.153 13 13 376964 20190701162250
162.158.166.100 2 2 85388 20190711073058
2402:4000:2381:9b8:8dcc:bf4d:d951:a19 5 5 129352 20190701131528
112.135.251.81 1 1 25601 20190704152840
125.209.235.176 1 1 24290 20190714015935
2001:1c05:3207:3c00:48c2:ed9f:fac6:dd83 2 2 64930 20190701011546
112.135.196.9 1 1 32465 20190704162021
118.148.186.241 6 6 187116 20190712140740
54.189.174.115 1 1 32460 20190714181947
112.134.47.54 12 12 349620 20190701090640
180.97.35.218 1 1 32465 20190703000645
2402:4000:2081:2078:a06f:dec:7bd0:4c77 4 5 360580 20190702182609
54.218.43.176 1 1 32461 20190712163529
167.99.212.214 2 2 60924 20190703202846
162.158.165.123 0 2 135614 
172.69.134.218 8 9 344839 20190710181556
77.67.54.53 1 1 32466 20190711231907
175.157.49.63 1 1 24631 20190703211445
18.237.172.140 20 20 585425 20190712102028
2a02:13f0:8100:1:709e:a23d:6c80:a4e0 3 3 97395 20190704165029
162.158.167.15 0 2 408795 
162.158.162.84 9 9 292141 20190710092439
34.217.195.234 12 13 317693 20190712111215
203.189.247.200 5 5 132282 20190712153708
172.69.135.9 1 1 25269 20190708070354
172.68.146.169 5 5 137053 20190711173509
172.68.144.216 2 4 227909 20190711150308
175.157.245.28 1 1 32465 20190703122154
162.158.166.118 0 1 3932 
221.229.204.71 4 4 97395 20190711220750
162.158.178.22 2 2 64922 20190711035143
172.68.146.253 0 1 2920 
2402:4000:13c3:dc08:1:0:3e1a:67ce 1 1 38233 20190715120236
162.158.165.15 3 3 52657 20190711164607
172.69.135.99 1 1 28413 20190711100908
172.68.144.156 5 6 231774 20190711170754
172.69.134.206 1 1 32466 20190711115837
43.250.241.171 2 2 70699 20190714152517
173.205.33.20 1 1 32466 20190713065721
34.222.130.218 1 1 32465 20190703105319
119.235.6.51 9 10 260261 20190713091311
209.97.168.3 3 3 108929 20190701152537
34.209.1.185 1 1 32462 20190714145941
86.98.64.83 3 3 82270 20190701145307
162.158.178.94 2 2 54483 20190711032224
2400:cb00:36:1049::a29e:409c 1 1 0 20190715051318
162.158.167.95 0 2 199712 
123.231.51.250 3 3 86663 20190701160754
162.158.166.54 2 2 35707 20190711084816
162.158.166.64 0 1 130523 
112.134.102.238 1 1 26184 20190703110035
123.231.61.146 4 4 117006 20190715133555
175.42.86.218 2 2 64958 20190702101757
209.212.213.12 5 6 133132 20190701003309
61.69.252.214 1 1 32466 20190715072313
178.159.127.39 2 2 64921 20190714091731
114.230.174.44 2 2 64930 20190712105302
112.135.245.100 4 4 96799 20190715155852
203.115.28.195 2 2 57194 20190704094450
77.67.54.60 1 1 32466 20190712001552
2001:b07:6463:911:5835:9a46:566d:2bb2 1 1 38233 20190715001906
61.245.161.136 1 1 28598 20190712222927
104.222.43.12 1 1 32461 20190712095825
175.157.12.113 3 3 101095 20190703171145
180.101.52.35 1 1 32465 20190702165520
172.68.146.19 4 4 110038 20190711120624
113.59.209.65 1 1 32466 20190713131742
172.68.46.148 1 1 32465 20190709173112
2400:cb00:36:1043::a29e:4313 1 1 0 20190715051319
46.32.127.73 1 2 46422 20190702164454
2402:4000:1181:bc99:ed3c:a983:7ef:5ca7 3 3 125619 20190702123346
173.66.182.15 2 3 58068 20190713070315
64.233.173.132 2 2 64920 20190703170916
23.228.101.194 2 2 64928 20190715121917
172.68.146.247 3 3 64922 20190709134816
220.247.235.72 1 1 32465 20190703141517
43.250.243.249 1 1 32465 20190703140037
2402:4000:10c2:2b1:2:2:8985:f5be 5 6 124440 20190712122814
172.69.135.57 0 3 126028 
162.158.68.98 0 1 137536 
36.47.161.232 1 1 32480 20190714192519
162.158.164.118 9 9 292140 20190710123043
162.158.166.136 6 7 195142 20190711170858
123.231.64.130 1 1 28597 20190704100659
111.206.36.143 0 1 0 
162.158.162.40 19 19 616740 20190710222851
172.68.144.78 0 2 142108 
113.59.210.212 2 2 64930 20190703170930
64.233.173.130 1 1 32460 20190701195114
162.158.165.159 0 1 123395 
78.22.132.78 1 1 32466 20190714202620
162.158.165.197 13 13 397383 20190711130129
120.92.33.226 1 1 32465 20190712003254
190.2.149.75 2 2 64939 20190704082030
172.69.134.128 7 8 227851 20190710125347
123.231.122.162 5 5 160656 20190711204606
2402:4000:1080:7a41:bcec:c1f5:1433:8fa 1 1 32466 20190713193257
109.135.8.148 1 1 32460 20190703140025
64.233.173.144 4 4 129840 20190703185619
172.68.146.25 0 2 175148 
2400:cb00:36:1039::a29e:4714 1 1 32479 20190701042429
118.25.17.135 1 1 32465 20190701085409
64.62.252.162 1 1 32465 20190701065116
65.94.104.97 1 1 38232 20190701105307
2402:4000:2080:938b:4045:485f:bbf9:cc08 4 4 122156 20190711192300
162.158.167.215 1 4 168215 20190707155306
104.219.55.179 1 1 32461 20190703223512
172.68.146.61 8 9 298332 20190710195934
34.210.133.173 1 1 32465 20190703021323
34.222.51.97 1 1 32461 20190714175935
162.158.166.36 0 1 3007 
2402:4000:11c5:59a8:d156:1f3e:156e:395b 1 1 38233 20190714094515
172.69.135.165 0 2 4504 
112.134.102.201 2 2 70287 20190711202204
91.242.162.49 3 3 77551 20190703233321
112.134.65.129 6 6 205810 20190702162947
2402:d000:a000:77bb:24b3:89eb:6e35:6e7d 2 2 57686 20190712181952
35.178.138.154 1 1 32460 20190713104106
54.71.187.124 1 1 32466 20190712092759
54.184.13.192 1 1 32460 20190714174047
222.186.46.59 1 1 32465 20190714200252
172.68.249.220 1 1 32460 20190709054954
121.57.8.130 1 1 32480 20190715013342
125.209.235.169 0 1 406470 
172.68.146.85 19 20 711785 20190711084935
111.224.249.219 1 1 32479 20190704064433
112.135.243.206 3 3 116211 20190702212744
162.158.179.81 1 1 24803 20190711032224
172.68.144.42 0 4 25729 
172.69.135.45 1 3 171773 20190708070339
90.252.246.154 5 6 328085 20190701041246
116.12.88.226 2 2 50967 20190704084229
175.157.41.50 1 1 32466 20190712154224
162.158.167.19 0 1 3589 
54.218.230.156 1 1 32460 20190712181307
172.68.144.30 3 3 75272 20190711081250
220.247.214.18 1 1 32465 20190704171703
124.43.16.250 2 2 57091 20190703192703
203.133.168.51 2 2 57505 20190714160516
162.158.167.155 17 18 624257 20190710233649
2402:4000:2080:ad1b:45ce:65aa:530f:e36f 9 12 240170 20190715095450
220.247.240.149 1 1 32466 20190713212130
172.69.135.69 1 9 311851 20190708070318
60.191.38.77 9 9 292158 20190713142512
162.158.166.58 1 1 26185 20190707182219
104.222.33.24 1 1 32461 20190713001328
175.157.74.168 2 3 258992 20190712204952
172.68.253.220 1 1 35082 20190711032222
162.158.165.51 0 2 134534 
112.135.229.209 3 3 82273 20190713115328
2402:4000:2181:3928:1c62:a9ef:c8f8:56e9 4 4 122138 20190702105349
162.158.161.100 4 4 129840 20190711171123
175.157.116.143 8 8 224072 20190704141149
112.135.35.2 10 10 394772 20190702212738
2402:4000:1381:d00f:a073:3774:d9ae:9e94 6 6 216838 20190702124846
175.157.171.190 4 4 122136 20190711212320
162.158.165.61 14 14 408764 20190711103127
173.205.33.18 1 1 32466 20190713145714
175.157.35.202 1 1 32465 20190702181046
66.240.192.138 1 1 32461 20190703165754
209.222.82.167 1 1 32465 20190704050806
77.67.54.49 4 4 129864 20190714022402
172.68.144.204 0 2 46638 
162.158.165.165 0 1 73536 
43.250.241.87 1 1 32480 20190714071501
23.239.180.170 1 1 32461 20190711201916
66.102.6.223 1 1 32479 20190701140920
162.158.166.140 1 1 32466 20190711093520
162.158.165.13 0 5 12409 
172.69.134.146 8 8 259728 20190710154630
172.69.135.171 0 4 168998 
175.157.110.98 5 14 294704 20190703085404
172.68.145.152 1 1 32460 20190710151949
18.130.200.147 1 1 32480 20190713100844
12.97.157.202 2 2 62381 20190703205734
203.143.13.131 1 1 32479 20190701131214
101.89.239.230 0 4 499733 
172.68.145.98 1 1 32460 20190711093201
180.191.183.107 1 1 32465 20190704144337
209.222.82.131 1 1 32465 20190704030756
112.134.101.69 1 1 32466 20190712155752
112.134.1.152 1 1 32480 20190712155212
2402:4000:10c1:a737:fd8b:f6e2:b4e6:82d 2 2 56088 20190711180657
175.157.98.169 1 1 25243 20190703163751
104.222.43.87 1 1 32461 20190712102158
172.69.135.123 0 1 3088 
220.247.200.246 1 1 32466 20190715151028
2400:cb00:36:1003::a29e:4052 1 1 0 20190712063635
52.32.223.140 1 1 32466 20190714071108
175.157.154.155 2 2 57091 20190704103610
172.68.134.114 1 1 32460 20190710214012
172.68.144.12 0 6 188562 
172.69.135.15 0 1 406470 
124.43.16.61 2 2 41474 20190715080857
18.130.221.45 1 1 32465 20190715102240
93.138.53.4 1 1 32465 20190714133718
162.158.166.254 0 1 3096 
111.223.160.250 5 5 183322 20190704202538
162.158.167.173 1 1 3247 20190711142421
162.158.165.11 10 10 309313 20190710231340
162.158.166.18 3 3 92697 20190711171200
213.193.193.34 2 2 62383 20190712164009
172.69.134.170 7 8 214201 20190711100912
4.53.111.64 2 2 64932 20190712095820
112.134.1.0 6 6 155418 20190701212309
35.178.79.143 1 1 32479 20190704105920
130.203.136.75 1 1 29583 20190701042723
172.68.134.36 1 1 32460 20190705143004
175.157.44.27 1 1 26185 20190713232924
162.158.163.141 4 4 129840 20190709224950
124.43.11.193 1 1 32466 20190714140401
103.217.84.214 1 1 32466 20190712183951
162.158.165.93 0 2 6114 
2402:4000:1080:e1ad:e57d:b82a:95b8:a31b 3 12 97412 20190712095255
172.69.134.194 1 1 26185 20190708070329
176.159.122.85 2 2 70692 20190704172836
162.158.162.228 3 3 97380 20190710191423
112.134.0.33 4 4 122156 20190713143302
61.245.161.106 1 1 32460 20190704185735
175.157.170.68 1 1 25243 20190703225532
172.69.135.147 0 1 137536 
173.205.33.28 2 2 64932 20190713222601
123.231.94.209 1 1 32465 20190703125828
162.158.165.75 1 1 32466 20190711083503
2403:6200:88a2:cca9:e5b4:372:9a43:265b 1 1 32466 20190711205505
167.71.186.209 1 1 32464 20190704194117
2402:4000:1080:a3:2:1:8644:a60 6 7 227298 20190711184229
172.68.144.234 0 2 176125 
61.245.169.106 6 6 175386 20190713192438
35.192.48.247 1 1 32461 20190704051000
35.178.184.85 1 1 32479 20190702112145
220.247.194.146 14 14 386859 20190713142953
162.158.166.52 0 4 211388 
103.247.48.11 7 7 172417 20190703130713
2402:4000:1181:34e3:fc2e:14ec:e7e8:db15 1 1 24632 20190714095456
112.135.10.198 2 2 49566 20190701200013
2402:4000:1380:d7aa:2101:2618:e76:2cf5 5 5 165950 20190704215947
162.158.162.210 1 1 32464 20190710143034
154.216.1.58 1 1 32465 20190714214209
172.69.134.50 15 21 627088 20190710193840
162.158.165.117 1 1 22324 20190708070337
172.68.144.96 0 2 324897 
172.68.255.175 3 3 97395 20190711033418
78.31.71.37 1 1 32460 20190713184956
18.237.169.28 1 1 32460 20190702180934
162.158.166.238 0 2 69970 
104.222.33.220 1 1 32461 20190712171743
123.231.125.28 1 1 25243 20190701234854
172.69.135.195 0 3 190270 
2402:4000:13c4:f0a5:a840:480a:5d3f:1d71 1 1 32460 20190714080303
113.193.145.235 2 2 74333 20190703185333
2402:4000:11c6:a11a:fcc7:73f5:cd0b:c248 0 1 7322 
220.247.211.194 1 1 32465 20190703120135
2400:cb00:36:1003::a29e:4050 0 6 415980 
140.82.28.187 1 1 32461 20190712080403
64.71.32.81 1 1 26802 20190714094735
220.247.228.74 5 5 154405 20190703161604
77.38.40.231 1 1 32465 20190702103344
172.68.144.240 0 2 137300 
125.209.235.173 2 2 56754 20190713114806
172.68.146.229 2 3 76785 20190705172536
122.255.37.220 19 19 516600 20190702121302
2402:4000:2080:f5de:f06f:36c7:ec8:610c 2 2 57703 20190701212949
23.239.180.68 1 1 32461 20190713044529
123.231.13.90 4 4 136731 20190702151501
212.72.17.154 3 10 1246467 20190703140313
162.158.179.153 1 1 32466 20190708085410
66.249.81.190 1 1 32460 20190702162923
162.158.165.203 2 2 64922 20190708125349
172.69.135.81 0 1 30497 
112.134.176.104 2 2 70699 20190713074757
2600:1f14:b62:9e02:419a:5a09:3913:eeeb 1 1 32480 20190715153935
162.158.178.12 1 1 35086 20190711032224
100.38.58.140 1 1 25243 20190703205231
162.158.166.114 5 6 133444 20190710194111
162.158.167.203 0 5 383477 
162.158.166.112 0 1 2930 
111.206.36.133 0 2 0 
162.158.166.70 5 7 283930 20190709150550
58.182.155.29 1 1 32460 20190713181858
43.250.241.1 1 1 28597 20190701204629
175.157.25.204 3 3 97395 20190704074901
165.227.177.24 1 1 32461 20190703211540
23.226.211.125 1 1 32461 20190713190808
172.69.135.51 1 6 61593 20190711103237
2400:cb00:36:1048::a29e:4123 0 1 0 
112.134.66.114 1 1 32480 20190714091458
182.161.17.188 1 1 32479 20190703105832
112.135.255.15 1 1 32460 20190704135155
172.69.135.33 0 3 80235 
172.68.146.163 0 3 0 
172.69.132.32 1 1 32460 20190709071208
112.134.210.178 2 2 70713 20190713222409
112.134.99.170 1 2 41883 20190703132002
123.231.46.10 2 2 64932 20190712200619
112.134.128.91 10 10 362307 20190713223353
2402:4000:1180:181c:edc3:e269:61ba:acbb 1 1 41873 20190704164044
172.68.255.85 1 1 25228 20190711032224
81.183.210.46 1 2 169996 20190715082431
2601:143:4202:58b0:9143:bd3b:e2b3:f8e2 8 8 218137 20190701065351
23.226.211.82 1 1 32461 20190715093552
162.158.161.170 4 4 97380 20190710230022
185.17.149.136 1 1 41874 20190713001234
2402:4000:2182:a73:c4d2:3853:8c64:f2e1 1 1 32465 20190704171705
175.157.48.191 3 3 78552 20190703185744
123.231.111.60 1 1 32466 20190714131318
172.69.132.212 1 1 32460 20190711084857
2402:4000:2081:1acc:912b:4dc9:d122:caff 15 15 511001 20190703151536
203.115.27.18 1 1 32465 20190704154853
35.160.124.87 1 1 32461 20190704125447
172.68.144.132 5 5 133142 20190711101026
2402:4000:2081:9279:70d8:db34:75ae:17e3 1 2 38233 20190715080122
172.69.134.80 13 13 421993 20190710101912
86.7.102.17 4 9 510138 20190703000416
54.186.238.16 1 1 32462 20190712131620
34.222.63.186 1 1 32461 20190713135618
162.158.166.20 0 2 26540 
172.68.146.199 2 4 561005 20190711115025
203.115.12.114 1 1 32460 20190712142456
172.68.144.108 1 1 32465 20190711161917
172.68.146.211 0 1 2992 
162.158.165.135 1 2 69851 20190708070338
66.249.93.24 1 1 32465 20190702212803
43.250.242.124 1 1 28484 20190714172642
172.68.253.118 1 1 32461 20190709215834
112.134.102.10 1 1 25244 20190714205401
91.242.162.9 3 3 105385 20190702093204
165.227.184.78 1 1 32460 20190703230904
192.248.32.233 2 2 59280 20190702092944
61.245.170.39 3 3 97440 20190714000713
175.157.150.200 2 2 64930 20190704064741
51.254.181.232 1 1 24610 20190713020750
124.43.19.89 1 1 41873 20190702094125
43.250.243.254 4 4 129864 20190715141735
220.247.216.68 3 3 93544 20190715113158
112.135.229.109 3 3 89572 20190715095507
172.69.134.32 0 1 0 
123.231.8.109 7 7 203570 20190702165332
112.134.176.96 1 1 32480 20190714183627
119.86.29.81 1 1 32465 20190704125347
91.242.162.42 1 1 24633 20190703172136
2a02:13f0:8100:1:195a:674:ad2e:f2ed 5 5 162317 20190704211220
2402:d000:a000:a3db:c972:6fde:6665:d50d 4 4 102858 20190714205644
2400:cb00:36:1033::a29e:4485 0 3 119869 
162.158.71.148 1 2 170000 20190712063636
112.135.199.22 7 7 208779 20190702125947
202.124.179.163 11 11 283875 20190704172046
125.239.194.117 3 4 97412 20190714113542
2a02:c7d:6200:e800:3d2c:43cb:ab22:b7f6 1 1 29903 20190714222434
123.231.125.24 14 14 451767 20190713224651
111.206.36.146 0 3 852 
173.205.33.23 2 2 64932 20190714022421
172.69.134.236 0 5 465075 
162.158.165.9 14 15 454516 20190710095246
108.162.215.159 1 1 32480 20190711121611
172.68.141.63 1 1 32465 20190706025548
178.153.21.47 2 2 61064 20190714185751
172.69.134.152 0 2 180742 
112.135.237.74 3 3 68161 20190702105553
52.64.156.81 10 10 324800 20190715112231
4.53.111.66 1 1 32466 20190713095152
172.69.134.212 3 3 81780 20190710231343
172.68.144.66 0 1 135431 
162.158.165.183 0 3 114375 
82.102.18.145 1 1 41874 20190713102544
112.134.2.136 1 1 39544 20190712101814
2402:4000:2181:603f:1c8:1a9:2f6e:7643 2 2 64960 20190713194259
109.103.132.113 1 1 32465 20190701073635
162.158.167.29 0 1 69476 
175.157.17.127 4 4 133092 20190704181742
172.68.253.40 1 1 24619 20190711032224
172.69.135.153 2 4 236255 20190708070347
2a02:13f0:8100:0:2438:973:bf56:ce5f 3 3 97386 20190715154140
59.163.255.178 6 8 185488 20190703115930
162.158.161.18 4 4 129840 20190708101945
14.215.176.21 2 2 64930 20190715053339
193.56.28.156 2 2 64930 20190714043252
112.134.176.229 1 1 32480 20190713124649
43.250.242.61 2 2 74352 20190703101515
172.69.134.92 0 2 8311 
124.43.17.136 1 1 32466 20190715110147
124.235.138.123 1 1 32480 20190713022124
185.2.196.196 1 1 32479 20190704155452
162.158.166.148 2 2 64932 20190711142424
124.43.18.87 3 3 87877 20190702091820
2002:6894:577a::6894:577a 1 1 32464 20190715061408
175.157.209.10 1 1 28598 20190711190151
172.69.135.117 1 1 24610 20190708070322
112.134.70.190 2 2 64946 20190712083358
112.134.193.234 2 2 61076 20190701153931
82.145.223.42 1 1 32465 20190703162334
203.115.11.254 5 5 181155 20190703092440
52.32.93.59 1 1 32460 20190701165019
167.71.178.185 1 1 32479 20190703221910
185.93.3.114 1 1 32480 20190713141718
168.159.160.203 1 1 26184 20190701102951
202.129.235.248 1 1 32466 20190712075802
162.158.167.89 2 3 138116 20190708070306
112.134.195.148 1 1 32465 20190701212712
162.158.166.104 3 5 100486 20190710214454
123.231.105.118 1 1 32465 20190702184558
2402:4000:2382:1af:6880:d6da:e483:5117 2 2 64926 20190715112805
162.158.166.208 0 3 64409 
2402:4000:2381:9b8:cdcb:245f:834c:309b 1 1 29902 20190701145030
2a01:e0a:28b:e3a0:7cc8:8370:46a4:9428 1 1 32460 20190714162925
172.68.144.198 0 1 187548 
50.7.93.83 5 5 145060 20190701183512
126.80.140.30 7 13 228762 20190715133351
77.67.54.55 1 1 32466 20190712080811
85.254.72.27 1 1 41873 20190701122238
162.158.165.247 0 3 0 
112.135.6.228 10 10 284154 20190702072512
162.158.167.77 4 6 210234 20190711090546
172.69.134.38 10 10 306566 20190710231341
112.135.110.7 2 2 64930 20190701110130
123.231.38.250 5 5 128740 20190712101559
185.130.184.242 1 1 41873 20190702121954
64.233.173.128 2 2 64920 20190711192209
112.134.67.60 3 4 103537 20190703081228
202.21.180.18 5 5 145571 20190703093013
77.67.54.57 1 1 32466 20190713063016
162.158.166.160 1 1 32466 20190711121323
173.205.33.25 1 1 32466 20190711230824
172.68.146.145 0 1 54977 
112.134.37.250 4 4 107569 20190713222840
106.47.42.245 1 1 32480 20190713150742
112.134.47.46 6 6 176832 20190702013226
2a01:e35:2f7d:d420:9c41:47db:a9a7:2a1a 1 7 371012 20190712172656
123.231.125.172 2 2 74338 20190701193813
216.119.148.91 1 1 32465 20190703201143
172.69.134.116 13 15 548381 20190710140010
162.158.64.156 1 2 169997 20190715051319
175.157.224.67 1 1 32466 20190712065016
168.235.91.225 1 1 32466 20190715025307
162.158.166.82 0 1 53511 
171.12.10.20 1 1 32480 20190714062907
41.223.195.3 1 2 457913 20190701223639
172.69.132.8 1 1 32460 20190708120341
43.249.130.206 2 2 64930 20190702040358
162.158.166.178 0 4 65857 
112.134.0.57 2 2 64944 20190701140656
172.69.135.93 1 2 116929 20190708070353
172.69.135.201 3 12 224870 20190710231339
203.115.9.122 8 8 232889 20190701173238
2a02:1812:1716:1900:51f2:163a:57c5:fd7f 1 1 32466 20190714210819
123.231.73.178 11 11 290239 20190704140145
68.183.149.26 1 1 32465 20190704175744
175.157.195.40 4 5 151233 20190713113402
124.43.18.254 3 3 89659 20190704140832
162.158.161.188 7 7 227221 20190710150533
172.68.253.238 1 1 32465 20190708090011
34.219.178.75 1 1 32461 20190704142958
3.8.118.157 1 1 32460 20190712111227
172.68.144.210 2 2 62383 20190711084802
80.89.33.142 2 3 90189 20190703134734
43.250.243.104 5 6 159381 20190702094706
54.184.101.240 2 2 64921 20190713194622
104.222.43.249 1 1 32461 20190714201044
162.158.167.101 0 1 320855 
222.94.212.55 1 1 32479 20190703000710
18.206.64.56 2 2 64930 20190712182430
2600:1f14:b62:9e03:d02b:97df:d0b6:db0a 1 1 32480 20190715153911
162.158.162.132 6 6 194760 20190709101135
112.134.46.197 4 6 42219 20190713194151
175.157.237.248 9 9 297970 20190702140926
61.245.161.59 1 1 32465 20190704130330
218.157.166.40 2 2 64930 20190715040813
103.28.159.84 5 5 166766 20190715173732 20190715173452 /contact-us
162.158.179.75 0 1 2430 
112.134.68.33 5 5 142562 20190703104438
34.219.154.72 1 1 32460 20190701174158
123.179.13.171 1 1 32480 20190713111440
2402:4000:10c0:1fda:60fe:79cf:a7e8:5413 1 1 26184 20190701182731
220.247.252.27 1 1 32465 20190702144542
66.160.140.183 1 1 32465 20190713100837
46.235.158.196 2 2 64958 20190702173154
172.68.146.133 3 4 138209 20190711091101
162.158.167.35 1 1 3241 20190705155839
36.110.199.243 1 1 32465 20190715161017
162.158.178.34 1 1 26170 20190710231340
162.158.166.188 1 1 32466 20190711163555
167.71.178.23 1 1 32479 20190703205246
2600:1f18:65b9:df01:3f84:9c02:6483:29c4 1 1 32480 20190715154325
185.76.10.84 1 1 32465 20190715041724
96.9.67.188 1 2 170002 20190715134706
82.4.151.216 5 6 137456 20190704182820
2a02:13f0:8100:0:91a5:55ff:e66e:6a6e 5 5 162311 20190715042530
203.143.27.52 4 4 135645 20190711215729
2001:4ca0:108:42::5 2 2 32460 20190711203557
43.250.242.140 0 1 0 
172.68.146.13 7 7 204663 20190711171241
192.248.40.9 8 8 263972 20190713131444
108.162.223.58 1 1 32460 20190706122934
172.69.134.104 10 10 324657 20190710200338
172.68.144.36 0 2 6007 
124.43.28.195 1 1 41873 20190704153247
162.158.166.16 17 19 935824 20190710222741
162.158.165.249 0 2 0 
203.115.19.224 3 3 102949 20190704090038
123.231.123.14 1 1 32466 20190712163240
112.134.106.74 4 4 106365 20190704221627
64.62.202.73 2 2 62381 20190704114410
2402:4000:1180:e532:5468:79e0:76f7:a6b3 1 1 32465 20190703171835
138.201.246.6 1 1 1615 20190704172915
172.68.144.114 3 4 235961 20190710231342
4.53.111.69 1 1 32466 20190713222516
178.62.74.6 4 4 111703 20190712034150
54.184.191.112 1 1 32460 20190702213615
172.68.145.229 1 1 32460 20190705025306
112.134.82.101 1 1 32466 20190715133731
104.222.33.134 1 1 32461 20190712001710
34.214.158.40 1 1 32461 20190712123203
182.161.17.127 2 2 61064 20190714130119
162.158.178.56 0 1 0 
172.68.144.84 2 2 59268 20190711055613
112.135.40.46 10 10 263256 20190713220227
112.135.34.159 1 1 32465 20190703215741
91.242.162.83 7 7 175996 20190703070250
35.163.115.78 12 12 308391 20190712102113
106.220.72.107 5 5 141403 20190701232124
2405:201:800:ab0a:1549:5cc9:1da3:db21 3 3 97398 20190714120758
93.224.126.212 5 5 142717 20190714225026
82.102.18.43 1 1 41874 20190715135324
124.43.11.224 2 4 592277 20190701122047
27.224.137.37 1 1 32480 20190711205212
110.54.238.106 0 2 130465 
176.31.65.29 12 12 389526 20190715115832
172.68.146.181 0 2 166075 
112.134.16.83 12 12 350203 20190704120444
89.208.244.162 2 2 70318 20190701171620
112.134.70.222 5 5 144649 20190701204653
61.245.169.115 8 16 2615994 20190713170448
1.202.112.205 1 1 32480 20190715053346
172.68.144.228 2 2 74340 20190711093754
2600:1f18:65b9:df01:b564:61f8:df3:b03c 1 1 32466 20190715154354
112.134.68.202 4 4 134530 20190702083503
66.102.6.193 2 2 61078 20190711223014
172.68.144.24 2 16 240921 20190710202405
112.134.64.240 7 7 196473 20190704083829
64.233.173.143 3 3 97380 20190703190638
203.143.7.58 0 3 0 
162.158.178.248 1 1 32465 20190708005408
162.158.161.124 8 8 243703 20190709115011
87.91.81.46 0 1 76907 
122.255.11.154 1 1 38232 20190704113600
89.107.180.75 1 1 24783 20190704193003
202.124.179.76 1 1 24631 20190703103319
119.235.0.197 1 1 32465 20190701023122
49.83.18.22 1 1 41874 20190715170428 20190715170428 /contact-us
112.134.225.29 4 4 150806 20190713181519
203.94.74.218 2 2 59266 20190703133046
175.157.35.249 1 1 32466 20190714220809
172.68.146.37 0 2 22645 
192.248.84.13 1 1 32466 20190712105102
104.222.33.191 1 1 32461 20190712204122
112.135.239.150 1 1 32466 20190714180638
162.158.167.245 0 1 3057 
112.134.103.249 2 2 57110 20190702080519
172.68.146.235 1 1 41874 20190708070343
2402:4000:2381:8a67:a5af:cd47:df4c:1627 1 1 32465 20190704075013
209.222.82.161 1 1 32465 20190704100838
162.158.167.125 0 1 59203 
23.226.211.206 1 1 32461 20190712140902
162.158.166.226 1 8 119256 20190711090449
162.158.165.245 0 5 1847 
173.205.33.27 2 2 64932 20190714022500
172.68.146.7 0 1 34950 
43.250.242.169 1 1 32479 20190703170530
2402:4000:1081:b340:6400:f3e2:8040:7d85 2 2 64930 20190702150117
2a01:4f8:120:12ad::2 1 1 0 20190712131344
192.248.32.230 1 1 28597 20190703140259
2402:4000:1080:ac3a:79fe:c3ff:52df:4212 1 1 32461 20190713132341
175.157.167.152 3 3 86319 20190701195239
162.158.165.57 0 2 184894 
112.135.47.213 2 2 83746 20190703093652
162.158.165.105 6 8 162306 20190711160042
43.250.243.81 5 5 150749 20190703204627
172.69.135.105 2 2 66831 20190708090127
112.134.232.26 1 1 38232 20190702222952
172.69.135.63 14 16 567780 20190711061549
182.161.12.41 1 1 38232 20190703212124
188.40.100.144 1 1 32461 20190702150539
23.226.211.23 1 1 32461 20190715172658 20190715172658 /
112.134.209.141 1 1 41873 20190702142002
112.135.240.87 2 2 61076 20190704090210
34.209.196.6 1 1 32460 20190712160054
122.255.14.126 10 10 325454 20190703171453
172.68.144.18 0 4 60368 
193.201.224.230 3 3 111209 20190713161421
END_VISITOR

# Date - Pages - Hits - Bandwidth - Visits
BEGIN_DAY 15
20190701 240 298 12488975 83
20190702 218 222 7051044 76
20190703 224 425 22037127 99
20190704 240 245 7314315 103
20190705 299 345 10944831 142
20190706 113 113 3455489 70
20190707 126 156 4314809 79
20190708 206 292 9090977 123
20190709 248 363 15810816 121
20190710 224 261 7826240 124
20190711 267 291 9108518 129
20190712 261 292 8906278 86
20190713 182 197 8160316 79
20190714 127 153 5118090 73
20190715 161 237 7016336 68
END_DAY

# Session range - Number of visits
BEGIN_SESSION 7
15mn-30mn 46
5mn-15mn 53
2mn-5mn 74
0s-30s 1092
1h+ 11
30mn-1h 53
30s-2mn 122
END_SESSION

# URL - Pages - Bandwidth - Entry - Exit
# The 25 first Pages must be first (order not required for others)
BEGIN_SIDER 72
/ 1263 40229893 915 838
/contact-us 205 8628315 68 104
/accommodation/super-deluxe 170 4451327 35 45
/promotions.php 167 4775782 46 48
/manage-gallery 160 6103508 61 82
/accommodation/standard 159 3940533 37 43
/accommodation/delux-mountain-view 104 2787337 18 22
/promotions 88 2516595 32 23
/cuisine/buffet 79 2009931 14 19
/infinity-pool 66 1625694 27 18
/honeymoon.php 63 1590333 18 19
/accommodation 53 1584796 22 7
/index.php 46 1493417 25 13
/about-us 45 1281646 9 14
/assets/360/poolview.html 40 123158 12 9
/cuisine/signature-dinning 31 801820 2 7
/cuisine/bar 28 689026 3 4
/facilities/spa 27 682240 8 6
/facilities/infinity-pool 27 665004 7 9
/honeymoon 23 580602 9 9
/cuisine.php 22 625048 4 6
/index.php/api/Uploadify/preview 19 616804 5 19
/facilities 17 596683 7 5
/facilities/shopping-boutique 16 394060 5 5
/facilities/fitness-centre 16 401616 4 5
/infinity-pool.php 3 75060 0 1
/wedding.php 5 164774 2 2
/home 1 29607 0 0
/fitness-centre.php 2 42585 0 0
/assets/fonts/itcedscr_0-webfont.eot 1 39544 1 1
/badminton-and-table-tennis.php 6 153267 5 2
/facilities/terms-and-conditions 1 31937 0 0
/assets/360/poolview.swf 2 241490 1 1
/shopping-boutique.php 2 50263 0 0
/assets/360/restaurantview.html 8 26096 0 2
/contact-us.php 13 544346 8 6
//index.php/api/Uploadify/preview 1 32465 1 1
/conferences-and-workshops.php 2 51361 0 0
/assets/360/gymview.html 12 38964 1 4
/facilities/business-centre 8 197649 2 2
/facilities/privacy-policy 1 29569 0 0
/facilities/badminton-n-table-tennis 11 277626 3 3
/accommodation/about-us 1 28438 0 0
/facilities/squash-court 12 297752 5 7
/bar.php 1 25294 0 0
/about-us.php 3 85437 1 2
/map_pop.html 3 4845 2 2
/accommodation/facilities 1 34642 0 0
/accommodation/accommodation 1 28516 0 0
/deluxe.php 2 52357 0 1
/assets/360/lobbyview.html 10 32510 0 1
/privacy-policy 9 266239 4 5
/downloads 13 290192 3 5
/business-centre.php 2 49553 0 0
/accommodation/privacy-policy 1 29569 0 0
/spa.php 2 51271 0 0
/squash-court.php 1 25233 0 0
/facilities/facilities 1 34642 0 1
/buffet.php 2 51535 0 0
/assets/360/gymview.swf 1 120734 1 0
/deluxe_m_view.php 2 54421 0 0
/accommodation/downloads 1 24009 0 0
/facilities/about-us 1 28438 0 0
/assets/360/restaurantview.swf 3 362196 1 2
/accommodation/terms-and-conditions 1 31937 0 0
/index.php/Home/AppUpload/commentUpload 1 32465 0 0
//index.php 14 454675 6 6
/facilities/conferences-and-workshops 12 306074 5 6
/terms-and-conditions 9 288740 4 3
/facilities.php 1 35082 1 1
/signature_dining.php 1 26336 0 0
/site-map 11 267158 5 5
END_SIDER
