AWSTATS DATA FILE 7.6 (build 20161204)
# If you remove this file, all statistics for date 201807 will be lost/reset.
# Last config file used to build this data file was /home2/fyfxamvcmvss/tmp/awstats/awstats.ellensplace.freudenbergleisure.lk.conf.

# Position (offset in bytes) in this file for beginning of each section for
# direct I/O access. If you made changes somewhere in this file, you should
# also remove completely the MAP section (AWStats will rewrite it at next
# update).
BEGIN_MAP 28
POS_GENERAL 2035                
POS_TIME 2693                
POS_VISITOR 6605                
POS_DAY 6973                
POS_DOMAIN 3303                
POS_LOGIN 3530                
POS_ROBOT 3685                
POS_WORMS 4033                
POS_EMAILSENDER 4164                
POS_EMAILRECEIVER 4307                
POS_SESSION 7172                
POS_SIDER 7318                
POS_FILETYPES 4442                
POS_DOWNLOADS 4541                
POS_OS 4589                
POS_BROWSER 4686                
POS_SCREENSIZE 4825                
POS_UNKNOWNREFERER 4899                
POS_UNKNOWNREFERERBROWSER 5450                
POS_ORIGIN 5570                
POS_SEREFERRALS 5702                
POS_PAGEREFS 5846                
POS_SEARCHWORDS 5994                
POS_KEYWORDS 6146                
POS_MISC 2357                
POS_ERRORS 6205                
POS_CLUSTER 3386                
POS_SIDER_404 6296                
END_MAP

# LastLine    = Date of last record processed - Last record line number in last log - Last record offset in last log - Last record signature value
# FirstTime   = Date of first visit for history file
# LastTime    = Date of last visit for history file
# LastUpdate  = Date of last update - Nb of parsed records - Nb of parsed old records - Nb of parsed new records - Nb of parsed corrupted - Nb of parsed dropped
# TotalVisits = Number of visits
# TotalUnique = Number of unique visitors
# MonthHostsKnown   = Number of hosts known
# MonthHostsUnKnown = Number of hosts unknown
BEGIN_GENERAL 8
LastLine 20180802195519 1 0 9458206535566
FirstTime 0
LastTime 20180731071106
LastUpdate 20180803174830 1 0 0 0 0
TotalVisits 9                   
TotalUnique 7                   
MonthHostsKnown 0                   
MonthHostsUnknown 8                   
END_GENERAL

# Misc ID - Pages - Hits - Bandwidth
BEGIN_MISC 10
FlashSupport 0 0 0
JavaEnabled 0 0 0
TotalMisc 0 0 0
JavascriptDisabled 0 0 0
AddToFavourites 0 5 0
QuickTimeSupport 0 0 0
RealPlayerSupport 0 0 0
DirectorSupport 0 0 0
WindowsMediaPlayerSupport 0 0 0
PDFSupport 0 0 0
END_MISC

# Hour - Pages - Hits - Bandwidth - Not viewed Pages - Not viewed Hits - Not viewed Bandwidth
BEGIN_TIME 24
0 0 0 0 3 5 136778
1 2 3 38671 1 3 73974
2 0 0 0 2 4 105006
3 0 0 0 1 7 187735
4 1 1 31402 1 1 31402
5 0 0 0 1 2 42572
6 2 2 62064 1 7 156898
7 1 2 38671 2 4 104636
8 0 0 0 3 3 93836
9 0 0 0 1 1 31402
10 0 0 0 1 3 72864
11 0 0 0 4 7 169234
12 0 0 0 1 5 116176
13 0 0 0 0 1 21286
14 1 1 31032 1 3 73974
15 0 0 0 1 3 73974
16 1 1 0 0 0 0
17 0 0 0 2 4 105376
18 0 0 0 1 2 52688
19 2 2 62804 4 11 273130
20 0 0 0 3 6 158064
21 0 0 0 3 5 129003
22 0 0 0 2 7 157268
23 1 2 38301 1 1 24749
END_TIME

# Domain - Pages - Hits - Bandwidth
# The 25 first Pages must be first (order not required for others)
BEGIN_DOMAIN 1
us 11 14 302945
END_DOMAIN

# Cluster ID - Pages - Hits - Bandwidth
BEGIN_CLUSTER 0
END_CLUSTER

# Login - Pages - Hits - Bandwidth - Last visit
# The 10 first Pages must be first (order not required for others)
BEGIN_LOGIN 0
END_LOGIN

# Robot ID - Hits - Bandwidth - Last visit - Hits on robots.txt
# The 25 first Hits must be first (order not required for others)
BEGIN_ROBOT 6
Googlebot/ 24 722800 20180730152408 0
YandexBot/ 11 345052 20180726143336 0
bingbot/ 2 62804 20180727022412 0
AhrefsBot/ 1 31402 20180728074626 0
DotBot/ 1 31032 20180709193146 0
SemrushBot/ 1 31402 20180724110247 0
END_ROBOT

# Worm ID - Hits - Bandwidth - Last visit
# The 5 first Hits must be first (order not required for others)
BEGIN_WORMS 0
END_WORMS

# EMail - Hits - Bandwidth - Last visit
# The 20 first Hits must be first (order not required for others)
BEGIN_EMAILSENDER 0
END_EMAILSENDER

# EMail - Hits - Bandwidth - Last visit
# The 20 first hits must be first (order not required for others)
BEGIN_EMAILRECEIVER 0
END_EMAILRECEIVER

# Files type - Hits - Bandwidth - Bandwidth without compression - Bandwidth after compression
BEGIN_FILETYPES 2
png 3 21807 0 0
html 11 281138 0 0
END_FILETYPES

# Downloads - Hits - Bandwidth
BEGIN_DOWNLOADS 0
END_DOWNLOADS

# OS ID - Hits
BEGIN_OS ID - Hits - Pages 3
win7 2 2
Unknown 11 8
linux 1 1
END_OS

# Browser ID - Hits - Pages
BEGIN_BROWSER 6
firefox45.0 1 1
chrome55.0.2883.87 1 1
Unknown 1 1
mozilla 2 2
cloudflare 8 5
safari 1 1
END_BROWSER

# Screen size - Hits
BEGIN_SCREENSIZE 0
END_SCREENSIZE

# Unknown referer OS - Last visit date
BEGIN_UNKNOWNREFERER 5
Mozilla/5.0_(compatible;_Daum/4.1;__http://cs.daum.net/faq/15/4118.html?faqId=28966) 20180722193516
Mozilla/5.0_(compatible;_NetcraftSurveyAgent/1.0;__info@netcraft.com) 20180709142727
python-requests/2.13.0 20180725045357
Mozilla/5.0_(compatible;_CloudFlare-AlwaysOnline/1.0;__http://www.cloudflare.com/always-online) 20180717015427
Mozilla/5.0_(compatible;_CloudFlare-AlwaysOnline/1.0;__http://www.cloudflare.com/always-online)_AppleWebKit/534.34 20180731071107
END_UNKNOWNREFERER

# Unknown referer Browser - Last visit date
BEGIN_UNKNOWNREFERERBROWSER 1
python-requests/2.13.0 20180725045357
END_UNKNOWNREFERERBROWSER

# Origin - Pages - Hits 
BEGIN_ORIGIN 6
From0 11 11
From1 0 0
From2 0 0
From3 0 0
From4 0 3
From5 0 0
END_ORIGIN

# Search engine referers ID - Pages - Hits
BEGIN_SEREFERRALS 0
END_SEREFERRALS

# External page referers - Pages - Hits
# The 25 first Pages must be first (order not required for others)
BEGIN_PAGEREFS 0
END_PAGEREFS

# Search keyphrases - Number of search
# The 10 first number of search must be first (order not required for others)
BEGIN_SEARCHWORDS 0
END_SEARCHWORDS

# Search keywords - Number of search
# The 25 first number of search must be first (order not required for others)
BEGIN_KEYWORDS 0
END_KEYWORDS

# Errors - Hits - Bandwidth
BEGIN_ERRORS 1
302 50 1062953
END_ERRORS

# URL with 404 errors - Hits - Last URL referrer
BEGIN_SIDER_404 0
END_SIDER_404

# Host - Pages - Hits - Bandwidth - Last visit date - [Start date of last visit] - [Last page of last visit]
# [Start date of last visit] and [Last page of last visit] are saved only if session is not finished
# The 25 first Hits must be first (order not required for others)
BEGIN_VISITOR 8
162.158.78.213 3 3 93836 20180731071106
108.162.226.202 2 2 62804 20180722193516
162.158.59.225 2 2 62064 20180707060317
172.69.22.247 1 1 0 20180702163124
108.162.246.22 1 1 0 20180717015427
162.158.166.70 1 1 31402 20180725045357
162.158.62.254 1 1 31032 20180709142727
172.69.62.93 0 3 21807 
END_VISITOR

# Date - Pages - Hits - Bandwidth - Visits
BEGIN_DAY 7
20180702 1 1 0 1
20180707 2 2 62064 1
20180709 2 3 69333 2
20180717 2 3 38671 2
20180722 2 2 62804 1
20180725 1 1 31402 1
20180731 1 2 38671 1
END_DAY

# Session range - Number of visits
BEGIN_SESSION 1
0s-30s 9
END_SESSION

# URL - Pages - Bandwidth - Entry - Exit
# The 25 first Pages must be first (order not required for others)
BEGIN_SIDER 1
/ 11 281138 9 9
END_SIDER
