AWSTATS DATA FILE 7.7 (build 20180105)
# If you remove this file, all statistics for date 201811 will be lost/reset.
# Last config file used to build this data file was /home2/fyfxamvcmvss/tmp/awstats/awstats.firs.freudenbergleisure.com.conf.

# Position (offset in bytes) in this file for beginning of each section for
# direct I/O access. If you made changes somewhere in this file, you should
# also remove completely the MAP section (AWStats will rewrite it at next
# update).
BEGIN_MAP 28
POS_GENERAL 2029                
POS_TIME 2708                
POS_VISITOR 16629               
POS_DAY 36116               
POS_DOMAIN 3601                
POS_LOGIN 3902                
POS_ROBOT 4057                
POS_WORMS 5603                
POS_EMAILSENDER 5734                
POS_EMAILRECEIVER 5877                
POS_SESSION 36952               
POS_SIDER 37165               
POS_FILETYPES 6012                
POS_DOWNLOADS 6274                
POS_OS 6322                
POS_BROWSER 6725                
POS_SCREENSIZE 11021               
POS_UNKNOWNREFERER 11095               
POS_UNKNOWNREFERERBROWSER 12800               
POS_ORIGIN 13413               
POS_SEREFERRALS 13560               
POS_PAGEREFS 14017               
POS_SEARCHWORDS 15989               
POS_KEYWORDS 16148               
POS_MISC 2370                
POS_ERRORS 16214               
POS_CLUSTER 3758                
POS_SIDER_404 16320               
END_MAP

# LastLine    = Date of last record processed - Last record line number in last log - Last record offset in last log - Last record signature value
# FirstTime   = Date of first visit for history file
# LastTime    = Date of last visit for history file
# LastUpdate  = Date of last update - Nb of parsed records - Nb of parsed old records - Nb of parsed new records - Nb of parsed corrupted - Nb of parsed dropped
# TotalVisits = Number of visits
# TotalUnique = Number of unique visitors
# MonthHostsKnown   = Number of hosts known
# MonthHostsUnKnown = Number of hosts unknown
BEGIN_GENERAL 8
LastLine 20181201000217 33 6069 9125370719871
FirstTime 20181101000708
LastTime 20181130234952
LastUpdate 20181201174511 33 0 32 0 0
TotalVisits 636                 
TotalUnique 246                 
MonthHostsKnown 0                   
MonthHostsUnknown 629                 
END_GENERAL

# Misc ID - Pages - Hits - Bandwidth
BEGIN_MISC 10
WindowsMediaPlayerSupport 0 0 0
QuickTimeSupport 0 0 0
JavaEnabled 0 0 0
DirectorSupport 0 0 0
TotalMisc 0 0 0
FlashSupport 0 0 0
RealPlayerSupport 0 0 0
PDFSupport 0 0 0
AddToFavourites 0 174 0
JavascriptDisabled 0 0 0
END_MISC

# Hour - Pages - Hits - Bandwidth - Not viewed Pages - Not viewed Hits - Not viewed Bandwidth
BEGIN_TIME 24
0 24 29 675787 49 112 2511586
1 40 73 1701557 54 102 2313651
2 26 30 779496 59 89 2031184
3 44 109 3318923 92 155 3364163
4 30 52 1312974 61 102 2683812
5 28 35 971325 60 97 2637322
6 24 45 1941281 57 122 2780669
7 99 120 3355501 81 130 2722265
8 61 127 3645645 51 121 2901239
9 86 131 3058464 77 128 3308659
10 71 238 12625302 50 105 2231918
11 67 117 3139525 61 111 2449876
12 93 137 5428642 55 113 3988262
13 87 205 4497145 59 138 3174381
14 88 136 3734654 57 111 2766892
15 56 142 4762525 60 117 2884342
16 60 126 3074956 69 114 2387752
17 55 80 2893520 101 165 4121061
18 32 105 3143594 54 83 2085536
19 48 95 1934960 42 85 1826506
20 53 124 3815823 68 124 3402018
21 81 151 3729116 68 157 3118346
22 58 84 2837901 60 119 3155254
23 46 82 2970347 54 95 2539477
END_TIME

# Domain - Pages - Hits - Bandwidth
# The 25 first Pages must be first (order not required for others)
BEGIN_DOMAIN 5
zz 720 1250 38083998
us 604 1195 36751208
eu 31 81 2527678
sc 2 37 1264671
hk 0 10 721408
END_DOMAIN

# Cluster ID - Pages - Hits - Bandwidth
BEGIN_CLUSTER 0
END_CLUSTER

# Login - Pages - Hits - Bandwidth - Last visit
# The 10 first Pages must be first (order not required for others)
BEGIN_LOGIN 0
END_LOGIN

# Robot ID - Hits - Bandwidth - Last visit - Hits on robots.txt
# The 25 first Hits must be first (order not required for others)
BEGIN_ROBOT 35
Googlebot/ 370 12441818 20181130223800 0
bingbot/ 247 8511158 20181130205909 0
YandexBot/ 84 2377089 20181130203431 0
Baiduspider/ 62 1663663 20181130093609 0
SeznamBot/ 36 2594300 20181130122045 0
Apache\-HttpClient/ 30 850590 20181120202049 0
no_user_agent 28 696140 20181129064002 0
bingpreview 24 404689 20181127032911 0
crawl 22 444099 20181121113924 0
baidu 19 202691 20181103060533 0
Exabot/ 15 405366 20181130190638 0
Sogou[\x20]web[\x20]spider/ 15 398038 20181130143445 0
360Spider 13 368666 20181129043650 0
CCBot/ 13 313517 20181118054811 0
AhrefsBot/ 12 241864 20181126061108 0
SemrushBot/ 12 332430 20181129144214 0
YandexMobileBot/ 10 158728 20181119014706 0
Uptimebot/ 9 28364 20181114044018 0
MJ12bot/ 8 188668 20181111175250 0
DotBot/ 8 150159 20181110054828 0
Mail\.RU_Bot/ 6 179360 20181130043103 0
Applebot/ 6 120408 20181124112727 0
YandexImages/ 6 613485 20181129152737 0
bot[\s_+:,\.\;\/\\-] 5 116398 20181125054806 0
Googlebot\-Image/ 5 492547 20181122040238 0
facebookexternalhit/ 1 28353 20181118082512 0
crawler4j 2 56728 20181110011330 0
Deepnet[\x20]Explorer 4 113412 20181114073545 0
MojeekBot/ 3 75555 20181130000728 0
BLEXBot/ 4 13564 20181114074950 0
(firefox/)([0-9]\.|[0-1][0]\.) 3 72378 20181124105338 0
aiHitBot/ 1 20219 20181115060859 0
Google[\x20]Web[\x20]Preview 3 30485 20181106141706 0
Babya[\x20]Discoverer 1 28353 20181110094116 0
YisouSpider 2 60264 20181119120057 0
END_ROBOT

# Worm ID - Hits - Bandwidth - Last visit
# The 5 first Hits must be first (order not required for others)
BEGIN_WORMS 0
END_WORMS

# EMail - Hits - Bandwidth - Last visit
# The 20 first Hits must be first (order not required for others)
BEGIN_EMAILSENDER 0
END_EMAILSENDER

# EMail - Hits - Bandwidth - Last visit
# The 20 first hits must be first (order not required for others)
BEGIN_EMAILRECEIVER 0
END_EMAILRECEIVER

# Files type - Hits - Bandwidth - Bandwidth without compression - Bandwidth after compression
BEGIN_FILETYPES 10
Unknown 509 13901339 0 0
gif 16 29359 0 0
js 605 25571220 0 0
php 74 1990978 0 0
xml 7 24225 0 0
jpg 108 11254692 0 0
png 273 1978526 0 0
css 214 3939781 0 0
html 764 20301858 0 0
swf 3 356985 0 0
END_FILETYPES

# Downloads - Hits - Bandwidth
BEGIN_DOWNLOADS 0
END_DOWNLOADS

# OS ID - Hits
BEGIN_OS ID - Hits - Pages 26
win8 9 6
macosx11 39 29
unix 2 2
win7 336 259
winnt 14 14
macosx 70 28
winme 3 3
macosx9 7 5
winxp 57 56
macosx12 48 36
Unknown 338 152
win95 2 2
win8.1 90 21
linuxandroid 236 97
macosx6 3 1
linux 419 199
macosx10 9 7
macosx8 3 1
win10 617 327
win2003 8 8
win16 2 2
win98 5 5
ios_iphone 148 48
winlong 22 12
ios_ipad 76 27
win2000 10 10
END_OS

# Browser ID - Hits - Pages
BEGIN_BROWSER 202
netscape 2 2
chrome59.0.3071.125 39 5
opera11.10 1 1
chrome33.0.1750.154 1 1
chrome50.0.3243.62 2 0
chrome56.0.6646.293 1 1
chrome47.0.4179.840 1 1
opera49.0.2711.0 2 2
chrome37.0.0.0 1 0
chrome41.0.2697.465 1 1
chrome53.0.7373.297 1 1
chrome40.0.2214.93 1 1
safari11.0 86 37
chrome34.0.1847.116 8 8
chrome49.0.6978.667 1 1
firefox43.0 1 1
chrome48.0.7940.326 1 1
chrome41.0.2228.0 5 5
chrome40.0.2214.85 20 20
chrome69.0.3497.81 1 1
safari11.1.2 22 12
edge13 1 1
Unknown 70 56
chrome45.0.7110.220 1 1
chrome42.0.2311.90 5 5
chrome70.0.3538.64 1 1
chrome54.0.6552.981 1 1
chrome44.0.7126.25 1 1
opera6.01 1 1
chrome52.0.5040.652 1 1
chrome60.0.3112.90 6 6
chrome53.0.2785.143 1 1
firefox24.0 1 1
chrome46.0.5459.951 1 1
msie5.5 7 7
msie5.01 3 3
chrome42.0.9681.541 1 1
chrome60.0.3112.101 1 1
chrome60.0.9706.722 1 1
safari10.1.2 4 2
msie6.0 59 59
chrome42.0.6323.461 1 1
chrome41.0.4179.869 1 1
chrome50.0.9471.257 1 1
firefox15.0 66 66
chrome42.0.2142.504 1 1
chrome52.0.7563.127 1 1
chrome61.0.3163.100 36 36
firefox45.0 19 19
firefox51.0 2 2
chrome46.0.2490.11 1 1
chrome67.0.2526.73 1 1
chrome58.0.3845.523 1 1
chrome57.0.2987.98 1 1
chrome32.0.1700.68 1 1
opera54.0.2952.71 1 1
chrome43.0.1015.960 1 1
chrome65.0.3325.181 335 162
firefox27.0 2 2
chrome40.0.4913.741 1 1
chrome60.0.3112.113 29 15
cloudflare 228 56
chrome70.0.3538.110 49 28
firefox59.0 2 2
opera9.0 1 1
chrome34.0.1847.114 15 15
chrome51.0.2196.3 12 0
firefox44.0 1 1
chrome38.0.0.0 3 0
chrome70.0.3538.77 464 148
opera8.01 1 1
chrome66.0.3359.181 27 27
chrome54.0.1474.900 1 1
chrome69.0.3497.100 7 6
chrome60.0.3112.50 2 2
chrome40.0.8763.797 1 1
safari9.0 2 2
chrome48.0.3651.560 2 1
firefox25.0 2 0
firefox18.0 1 1
firefox57.0 2 2
chrome40.0.5322.790 1 1
chrome48.0.8699.155 1 1
chrome70.0.3538.80 11 10
firefox53.0 2 2
msie4.01 2 2
chrome44.0.5318.924 1 1
chrome49.0.2623.112 4 3
opera54.0.2952.64 1 1
chrome50.0.9803.10 1 1
chrome66.0.3359.117 7 7
safari10.0 13 5
chrome57.0.8036.984 1 1
firefox47.0 1 1
chrome48.0.2689.28 1 1
chrome50.0.2661.102 31 28
safari10.0.3 1 1
chrome54.0.8868.976 1 1
chrome28.0.1500.94 6 1
chrome58.0.3029.110 6 6
chrome41.0.7928.304 2 1
safari12.0 60 15
chrome47.0.2943.467 1 1
chrome40.0.7612.989 1 1
chrome26.0.1410.63 2 2
mozilla 38 38
chrome58.0.3509.504 1 1
netscape4.61 2 2
firefox40.1 7 7
android 1 0
edge17 11 7
chrome67.0.3396.87 11 2
chrome70.0.3538.102 110 89
chrome48.0.8979.706 1 1
opera36.0.2130.32 3 3
chrome57.0.3269.147 1 1
msie7.0 14 13
chrome43.0.6135.97 1 1
chrome58.0.2225.814 1 1
chrome39.0.6434.609 1 1
chrome44.0.2403.89 1 1
chrome59.0.7921.25 1 1
chrome40.0.8251.188 1 1
opera7.11 1 1
chrome58.0.7145.699 1 1
chrome45.0.8111.64 1 1
chrome49.0.2623.75 18 15
firefox55.0 2 2
chrome60.0.5362.553 1 1
chrome49.0.5081.429 1 1
chrome34.0.1847.137 3 3
chrome62.0.3202.94 8 4
msie11.0 42 16
firefox56.0 6 6
chrome39.0.7780.494 1 1
chrome56.0.2924.87 1 0
msie5.0 2 2
chrome34.0.1847.131 1 1
safari 40 6
firefox28.0 1 1
safari6.1 2 1
chrome55.0.2883.87 10 10
chrome51.0.2704.106 8 0
chrome12.0.742.91 3 1
chrome71.0.3578.64 1 1
chrome52.0.9306.988 1 1
firefox32.1 3 3
chrome31.0.1650.57 3 0
firefox26.0 3 1
chrome45.0.6726.989 1 1
chrome45.0.2454.101 8 8
chrome36.0.1985.125 6 1
chrome67.0.3396.99 7 7
chrome60.0.3112.116 1 1
chrome49.0.7330.37 1 1
chrome32.0.1700.41 1 0
firefox63.0 22 10
msie8.0 1 1
opera7.54 2 2
chrome63.0.3239.132 9 9
firefox27.3 1 1
chrome56.0.7950.507 1 1
chrome60.0.1666.465 1 1
opera54.0.2952.54 9 9
chrome48.0.8176.730 1 1
chrome39.0.1218.220 1 1
chrome47.0.6232.408 1 1
firefox50.0 36 4
chrome52.0.2743.116 15 7
chrome71.0.3563.0 1 1
chrome44.0.1692.236 1 1
firefox48.0 1 1
chrome38.0.2125.111 2 2
firefox61.0 14 14
opera7.60 1 1
safari12.0.1 59 11
chrome63.0.3239.84 1 1
chrome31.0.1650.63 5 1
chrome68.0.3440.106 7 7
msie10.0 2 2
msie9.0 12 4
firefox33.1 3 3
chrome54.12.2840.71 3 3
firefox64.0 1 1
chrome49.0.8996.554 1 1
chrome64.0.3282.137 1 1
chrome42.0.8020.349 1 1
chrome54.0.3654.316 1 1
chrome38.0.1025.166 76 7
chrome42.0.6733.463 8 1
safari11.1.1 2 2
chrome51.0.7288.986 1 1
firefox36.0 1 0
chrome70.0.3538.67 1 1
chrome68.0.3440.84 13 8
opera53.0.2907.99 1 1
chrome55.0.8328.508 1 1
opera55.0.2994.44 1 1
firefox31.0 3 1
chrome54.0.9438.88 1 1
firefox54.0 1 1
chrome63.0.3205.0 3 0
END_BROWSER

# Screen size - Hits
BEGIN_SCREENSIZE 0
END_SCREENSIZE

# Unknown referer OS - Last visit date
BEGIN_UNKNOWNREFERER 26
python-requests/2.20.1 20181127112142
Mozilla/5.0_(compatible;_Yeti/1.1;__http://naver.me/spd) 20181122104701
Mozilla/5.0_zgrab/0.x_(compatible;_Researchscan/t13rl;__http://researchscan.comsys.rwth-aachen.de) 20181126084232
ia_archiver 20181118093409
WhatsApp/2.18.327_A 20181126120330
Mozilla/5.0_zgrab/0.x_(compatible;_Researchscan/t12ca;__http://researchscan.comsys.rwth-aachen.de) 20181127001011
Mozilla 20181120042310
Mozilla/5.0_(compatible;_CloudFlare-AlwaysOnline/1.0;__http://www.cloudflare.com/always-online)_AppleWebKit/534.34 20181129081824
Ruby 20181121023416
Mozilla/6.0_(compatible) 20181111122823
python-requests/2.19.1 20181109073610
python-requests/2.18.4 20181129023634
R_(3.4.3_x86_64-w64-mingw32_x86_64_mingw32) 20181128123638
HoneyBee_6.1_x64 20181121093243
WhatsApp/2.18.93_i 20181107191451
python-requests/2.20.0 20181107181509
UCWEB/2.0_(MIDP-2.0;_U;_Adr_6.0.1;_en-US;_SM-J106H)_U2/1.0.0_UCBrowser/11.1.3.1128_U2/1.0.0_Mobile 20181106210433
Mozilla/5.0_(compatible;_Dataprovider.com) 20181114092543
Go-http-client/1.1 20181127065412
Mozilla/5.0_(SIMON_SMITH_NT_10.0;_WOW64;_forensic@evestigator.com.au)_AppleWebKit/537.36_(KHTML,_like_Gecko)_Chrome/67.0.2526.73_Safari/537.36 20181124114955
Gigabot 20181129102112
Mozilla/5.0_(compatible;_CloudFlare-AlwaysOnline/1.0;__http://www.cloudflare.com/always-online) 20181126102822
Mozilla/5.0_(compatible;_Google-Site-Verification/1.0) 20181113023617
Mozilla/5.0_(compatible;_Qwantify/2.4w;__https://www.qwant.com/)/2.4w 20181120003909
Mozilla/5.0_(compatible;_NetcraftSurveyAgent/1.0;__info@netcraft.com) 20181108035419
Mozilla_5.0 20181104175656
END_UNKNOWNREFERER

# Unknown referer Browser - Last visit date
BEGIN_UNKNOWNREFERERBROWSER 13
Ruby 20181121023416
Gigabot 20181129102112
python-requests/2.18.4 20181129023634
python-requests/2.19.1 20181109073610
R_(3.4.3_x86_64-w64-mingw32_x86_64_mingw32) 20181128123638
WhatsApp/2.18.93_i 20181107191451
HoneyBee_6.1_x64 20181121093243
python-requests/2.20.0 20181107181509
python-requests/2.20.1 20181127112142
UCWEB/2.0_(MIDP-2.0;_U;_Adr_6.0.1;_en-US;_SM-J106H)_U2/1.0.0_UCBrowser/11.1.3.1128_U2/1.0.0_Mobile 20181106210433
WhatsApp/2.18.327_A 20181126120330
ia_archiver 20181118093409
Go-http-client/1.1 20181127065412
END_UNKNOWNREFERERBROWSER

# Origin - Pages - Hits 
BEGIN_ORIGIN 6
From0 680 869
From1 1 1
From2 192 192
From3 118 141
From4 366 1370
From5 0 0
END_ORIGIN

# Search engine referers ID - Pages - Hits
BEGIN_SEREFERRALS 16
www_google_com_eg 1 1
www_google_com 43 43
yandexru 1 1
www_google_com_au 4 4
www_google_de 1 1
www_google_nl 3 3
www_google_com_hk 1 1
r_search_yahoo_com 1 1
www_google_ca 1 1
www_google_ch 1 1
www_google_co_uk 5 5
www_google_co_in 4 4
www_google_com_tr 1 1
www_google_com_ph 1 1
www_google_lk 117 117
bing 7 7
END_SEREFERRALS

# External page referers - Pages - Hits
# The 25 first Pages must be first (order not required for others)
BEGIN_PAGEREFS 55
https://www.facebook.com 16 16
https://uptime.com/firs.lk 7 7
http://rumamba.com 5 5
http://zameskino.ru 4 4
http://infra-e.ru 4 4
https://sucuri.net 4 27
http://pospektr.ru 4 4
http://8xv8.com 4 4
http://skinali.photo-clip.ru 3 3
https://migronis.com 3 3
http://www.stroi-24.ru 3 3
http://komputers-best.ru 3 3
http://5elementov.ru 3 3
http://vector.peskostryi.ru 3 3
https://gcup.ru 2 2
http://rxshop.md 2 2
https://elonm.ru 2 2
https://jav-fetish.com 2 2
https://nakozhe.com 2 2
https://www.blogping.xyz/increase-traffic-to-your-website-with-seo/16684716/ 2 2
https://komp-pomosch.ru 2 2
http://magnetic-bracelets.ru 2 2
https://videotop.biz 2 2
https://www.ecblog.xyz/search-engine-internet-marketing-to-extend-your-website-s-visibility-on-the-internet/16684716/ 2 2
https://sowhoz.ru 2 2
https://pills24h.com 1 1
https://vykup-avto-krasnodar.ru 1 1
http://dojki-devki.ru 1 1
https://spinanebolit.com 1 1
https://s-forum.biz 1 1
http://vanrise.com.ua 1 1
https://buyclomidonlaine.com 1 1
https://pornhive.org 1 1
http://resa.monsrilanka.com/DATA/html/proposal.php 1 1
https://xn--e1aaajzchnkg.ru.com 1 1
http://mnogabukaff.net 1 1
http://artclipart.ru 1 1
http://www.tsatu.edu.ua 1 1
https://www.facebook.com 1 1
http://discountegift.store 1 1
http://sta-grand.ru 1 1
https://porndl.org 1 1
http://smart-way.space 1 1
http://sweet.tv 1 1
http://kinostar.online 1 1
https://iskussnica.ru 1 1
http://www.free-website-traffic.com/firs.lk 1 1
https://bpro1.top 1 1
http://www.free-website-traffic.com/firs.freudenbergleisure.com 1 1
https://xn----7sbbahaq9bb5afgiqfliv4m.xn--p1ai 1 1
https://www.ecblog.xyz/search-engine-internet-marketing-to-extend-your-website-s-visibility-on-the-internet/19396191/ 1 1
http://doxysexy.com 1 1
http://www.bo-mietours.com/hotels.html 1 1
http://pornoslave.net 1 1
http://pornobest.su 1 1
END_PAGEREFS

# Search keyphrases - Number of search
# The 10 first number of search must be first (order not required for others)
BEGIN_SEARCHWORDS 1
bing 7
END_SEARCHWORDS

# Search keywords - Number of search
# The 25 first number of search must be first (order not required for others)
BEGIN_KEYWORDS 1
bing 7
END_KEYWORDS

# Errors - Hits - Bandwidth
BEGIN_ERRORS 2
301 18 4860
302 1514 29235974
END_ERRORS

# URL with 404 errors - Hits - Last URL referrer
BEGIN_SIDER_404 0
END_SIDER_404

# Host - Pages - Hits - Bandwidth - Last visit date - [Start date of last visit] - [Last page of last visit]
# [Start date of last visit] and [Last page of last visit] are saved only if session is not finished
# The 25 first Hits must be first (order not required for others)
BEGIN_VISITOR 629
10.148.0.2 720 1250 38083998 20181130234952
172.68.202.39 20 28 1160254 20181112130607
172.68.202.33 20 24 655555 20181112114556
172.68.202.15 14 20 738108 20181109131218
172.68.238.81 14 14 396942 20181111013433
172.68.202.27 13 17 711292 20181112152057
172.68.202.45 13 22 800675 20181109132835
108.162.245.9 11 11 251547 20181109074110
162.158.107.48 11 11 264467 20181109074039
172.68.239.208 10 10 283530 20181108153750
162.158.79.166 9 9 231013 20181109092918
108.162.246.82 9 9 196974 20181111112907
162.158.166.202 8 12 114612 20181105105642
172.68.239.124 8 8 226824 20181112120352
172.69.130.27 8 9 176430 20181111122829
162.158.106.53 8 8 246042 20181109074122
108.162.245.207 7 7 196981 20181109073905
172.68.239.106 7 7 198471 20181112134432
172.68.65.65 6 6 138483 20181109092919
172.69.62.165 6 9 188993 20181109092919
172.69.135.159 6 8 91646 20181102105243
172.68.239.76 6 6 170118 20181111013432
108.162.246.178 6 9 177815 20181111093812
172.68.65.191 6 7 142286 20181109082207
162.158.106.41 5 5 128925 20181109073632
162.158.59.183 1 1 22506 20181109191305
162.158.118.117 0 1 1847 
162.158.186.47 0 1 3316 
172.68.46.106 0 1 0 
162.158.166.52 0 1 22480 
162.158.92.189 0 1 29113 
172.68.47.131 2 3 31995 20181110140512
172.68.132.226 1 1 28364 20181111160148
162.158.165.99 0 1 149081 
162.158.89.72 0 1 3007 
162.158.123.24 1 1 28353 20181101222314
162.158.106.149 3 3 85093 20181107103811
172.68.65.155 2 2 56737 20181111195345
188.114.102.9 0 2 32120 
172.68.144.114 0 1 88257 
162.158.106.191 4 4 115809 20181111165351
188.114.103.142 0 2 3394 
162.158.111.36 0 1 3007 
173.245.48.140 1 1 22517 20181107014222
162.158.107.12 4 4 98954 20181109074118
162.158.165.165 0 1 122205 
162.158.106.83 0 1 12409 
162.158.111.84 0 1 369 
172.68.90.105 0 1 465075 
108.162.241.219 1 1 28353 20181104223141
172.69.23.38 0 5 59908 
172.68.65.23 2 2 56740 20181108033204
172.68.146.91 0 1 87159 
172.68.90.57 0 1 5267 
172.69.54.98 1 1 28353 20181109185742
108.162.226.10 0 1 1743 
172.68.238.177 4 4 113412 20181110172548
172.68.47.23 0 1 1737 
162.158.178.140 0 1 2136 
172.69.62.63 1 4 64322 20181106130536
172.69.134.74 0 1 24910 
172.68.58.112 0 2 6962 
172.69.54.218 0 2 0 
162.158.167.191 0 4 255531 
172.69.62.69 3 3 57329 20181109082208
172.69.130.39 0 2 23382 
162.158.186.89 0 2 35957 
172.68.189.60 1 1 28364 20181110095425
172.68.58.100 0 2 71914 
172.69.134.104 0 1 122511 
172.68.146.103 4 4 113412 20181112175215
172.68.146.73 0 1 22261 
172.68.144.186 0 1 116634 
162.158.243.40 1 1 28370 20181101223824
172.68.143.185 1 2 8188 20181104115920
108.162.245.105 4 4 56728 20181111195344
162.158.75.189 0 1 92091 
172.68.189.138 0 2 0 
172.69.135.69 0 2 33683 
172.69.62.27 4 4 107528 20181107204455
188.114.103.82 0 2 32438 
172.68.189.78 1 1 28370 20181111160240
141.101.76.27 0 1 26540 
197.234.242.129 0 1 12409 
172.68.254.65 0 1 26540 
162.158.79.28 0 2 3694 
172.68.58.64 0 1 0 
162.158.93.38 0 1 465075 
162.158.155.181 1 1 28353 20181102123725
172.68.144.174 0 1 80588 
162.158.165.111 0 1 125706 
172.68.146.7 0 1 4030 
172.68.143.119 2 2 66715 20181109191304
188.114.103.136 0 1 465075 
162.158.106.23 0 2 38344 
172.69.23.44 3 3 85110 20181112130247
141.101.76.243 0 2 6934 
162.158.75.177 0 1 0 
108.162.245.225 1 1 28364 20181106160127
172.68.132.172 0 1 1547 
172.68.58.58 0 1 8188 
173.245.54.42 1 5 38084 20181110004905
172.68.254.167 0 2 4140 
172.68.47.41 0 1 26540 
172.69.134.152 3 4 89041 20181102105059
162.158.91.196 2 2 28349 20181110232548
162.158.186.233 0 1 2430 
162.158.90.29 0 1 856 
162.158.158.62 1 1 28353 20181101023150
162.158.111.120 0 4 37898 
172.68.65.5 2 3 66212 20181105073808
172.68.65.137 0 1 95933 
162.158.93.2 0 1 1847 
172.69.135.171 0 2 0 
108.162.241.195 0 1 2471 
188.114.103.94 0 1 92091 
162.158.186.131 1 1 28349 20181101151204
108.162.215.249 0 1 0 
162.158.178.206 0 1 95933 
162.158.88.151 0 1 92091 
162.158.92.39 0 1 7629 
172.69.62.9 1 1 28365 20181103125510
103.22.200.95 0 1 92091 
172.68.146.79 0 1 126337 
141.101.77.145 0 1 12409 
172.68.211.183 0 1 0 
141.101.69.26 2 2 56734 20181109073607
108.162.245.129 1 2 22872 20181111164424
172.68.65.227 2 2 45353 20181101082452
162.158.107.18 2 2 57461 20181109073528
162.158.255.39 1 1 28370 20181102055902
141.101.88.135 1 1 25222 20181106105014
172.68.254.95 0 1 13962 
172.68.46.196 0 1 3007 
108.162.226.214 0 1 26540 
162.158.165.39 0 3 125790 
173.245.48.62 3 3 85110 20181109113726
162.158.165.51 0 1 145078 
162.158.158.74 0 1 3481 
197.234.242.117 0 1 19172 
141.101.76.207 0 2 5267 
162.158.78.153 5 5 118991 20181109082208
172.68.144.66 0 2 0 
172.69.134.158 0 2 258693 
172.68.142.196 4 4 113480 20181107215837
172.68.202.9 0 4 105 
162.158.91.64 1 1 28353 20181106232839
162.158.210.33 1 1 28353 20181106232951
172.68.146.175 1 1 119031 20181102105131
108.162.226.112 0 1 278 
172.68.90.21 0 1 31900 
162.158.167.65 0 1 4872 
162.158.78.219 2 2 64710 20181104130251
162.158.78.249 3 8 1105738 20181105073808
172.69.130.51 0 1 19172 
162.158.78.177 0 2 29954 
141.101.77.67 0 1 7322 
172.68.143.167 1 1 28369 20181110075146
172.68.198.63 0 1 2136 
162.158.89.18 0 1 5267 
162.158.75.117 0 1 0 
162.158.59.57 0 1 16060 
172.69.62.207 3 3 84090 20181107220920
172.69.134.200 2 2 57574 20181108090210
172.69.62.219 1 1 22517 20181101125215
141.101.97.131 2 2 56728 20181112015253
188.114.103.88 1 1 25866 20181109130812
197.234.242.75 0 2 7010 
108.162.245.177 0 1 2136 
162.158.179.171 0 2 466812 
162.158.93.26 0 1 31900 
162.158.165.75 0 1 203359 
162.158.78.75 3 3 56541 20181109082208
162.158.78.63 3 5 117155 20181105073808
108.162.226.58 0 1 538 
108.162.238.22 1 1 28364 20181102160758
197.234.242.21 0 3 99910 
108.162.238.238 2 2 56728 20181102160756
162.158.186.155 1 1 28353 20181101164230
172.68.144.252 0 1 106331 
141.101.98.243 1 1 28353 20181107213743
172.68.65.113 1 1 28354 20181108033636
188.114.102.45 0 1 12409 
172.68.246.139 1 1 28353 20181104015140
172.68.143.155 0 1 16060 
172.68.142.202 0 1 0 
172.68.144.138 0 1 9807 
108.162.246.196 1 1 28365 20181111093812
162.158.186.185 0 1 2136 
162.158.106.125 3 3 73014 20181111165204
172.68.58.148 1 1 28353 20181104042926
188.114.102.51 0 2 24439 
108.162.237.21 1 1 28349 20181108104715
103.22.200.203 0 1 3481 
162.158.79.34 2 5 1450458 20181106133856
162.158.255.147 1 1 0 20181104115921
172.68.46.178 1 1 29119 20181107014222
172.69.134.68 0 1 149421 
162.158.78.15 4 4 109743 20181107130628
172.68.144.72 0 1 92090 
172.68.211.195 1 1 26861 20181107014222
172.68.90.63 0 2 10059 
188.114.103.184 0 1 824 
162.158.167.173 0 1 114661 
162.158.91.82 1 1 0 20181101160009
108.162.246.166 5 6 152449 20181109073923
162.158.58.80 1 1 28364 20181106115611
108.162.245.117 0 1 0 
162.158.111.198 0 1 31900 
162.158.165.183 0 1 107440 
162.158.89.240 1 2 7629 20181109180035
198.41.238.9 0 1 8188 
162.158.79.184 0 3 556 
172.69.54.68 0 1 674 
108.162.229.111 2 2 67830 20181108125422
188.114.102.165 0 1 2430 
172.68.144.12 2 2 56706 20181112092228
108.162.237.225 0 2 27924 
172.69.22.223 0 1 19172 
197.234.242.165 0 2 44145 
108.162.246.232 4 4 113457 20181112094727
162.158.179.81 0 1 35957 
141.101.88.105 1 1 28364 20181109073531
172.69.130.15 0 2 45994 
162.158.167.89 0 1 104265 
172.68.189.84 1 1 28368 20181106131142
162.158.78.147 0 3 12409 
162.158.154.54 1 1 28353 20181107191309
162.158.106.209 0 1 538 
162.158.165.225 0 1 111426 
172.68.255.97 3 3 82606 20181104131223
172.68.142.76 1 1 28370 20181112075730
172.69.22.211 1 1 28369 20181104091941
172.68.65.11 0 2 27924 
172.68.144.204 0 1 137395 
162.158.167.101 0 1 4307 
172.68.146.247 0 1 5015 
172.69.134.50 2 2 56706 20181111152818
141.101.69.164 1 1 38379 20181106035259
162.158.166.232 2 2 51732 20181105105649
172.68.150.81 1 1 28364 20181109120901
162.158.111.24 0 2 0 
162.158.179.249 0 1 1547 
172.68.144.180 0 1 4264 
162.158.106.233 0 2 0 
162.158.165.33 1 1 28353 20181101145423
172.69.135.39 3 4 88372 20181112175858
108.162.237.51 0 2 24818 
172.68.146.115 0 1 4944 
162.158.89.66 0 2 3009 
141.101.105.167 0 2 4272 
172.69.55.93 0 2 0 
197.234.242.39 0 1 2136 
141.101.104.178 0 1 35957 
197.234.242.135 0 4 126637 
162.158.255.21 0 1 13962 
197.234.242.99 1 2 57483 20181104190027
172.69.33.238 0 1 0 
172.68.146.181 0 1 4946 
162.158.118.129 0 2 38387 
162.158.92.129 1 1 0 20181103015228
103.22.200.197 0 2 14951 
141.101.69.92 2 2 76758 20181106035300
172.68.65.209 0 3 35957 
108.162.246.64 0 1 87940 
162.158.222.45 3 3 105809 20181102210516
172.69.62.111 1 1 28365 20181108023246
162.158.78.99 5 5 125852 20181106130535
108.162.229.201 1 1 38379 20181106035253
108.162.245.21 0 1 3316 
162.158.90.107 0 1 8188 
162.158.93.188 0 1 2136 
162.158.165.171 0 2 0 
108.162.216.99 0 1 2471 
108.162.245.87 0 3 107871 
108.162.216.189 4 4 113408 20181109163456
141.101.98.147 1 1 28353 20181107191451
172.69.22.199 1 2 35675 20181106174043
172.68.254.47 0 1 3007 
162.158.79.10 0 1 3007 
172.68.65.95 0 3 71808 
172.69.130.63 0 4 8564 
162.158.165.21 0 1 45206 
172.68.50.177 1 1 25866 20181101183913
172.68.253.154 0 1 856 
172.69.62.21 0 1 0 
197.234.242.27 0 4 472788 
172.69.22.79 1 1 28370 20181109114013
172.69.62.57 0 5 16689 
108.162.237.57 0 2 38344 
108.162.237.165 0 1 2471 
162.158.94.79 0 2 7403 
162.158.166.214 1 2 210081 20181102105242
172.69.135.117 0 1 5015 
188.114.102.15 1 1 28370 20181103170143
172.68.146.31 0 1 4168 
162.158.134.177 1 1 28353 20181106125638
162.158.178.20 0 2 4019 
162.158.78.87 1 1 6129 20181106012918
172.68.246.241 1 1 28364 20181103122604
162.158.78.81 3 3 73437 20181107204457
172.69.134.134 0 1 231142 
172.68.146.139 0 1 3858 
162.158.78.171 3 3 82711 20181107220920
172.68.142.220 0 1 0 
162.158.167.59 0 1 3858 
141.101.104.166 0 1 3316 
162.158.91.136 1 2 52306 20181107222353
172.69.134.26 0 1 51520 
103.22.200.71 0 1 29113 
162.158.167.221 1 2 191142 20181110173627
172.68.146.43 0 1 16060 
162.158.166.64 2 2 56706 20181110213410
197.234.242.51 0 2 30000 
162.158.118.27 0 1 1547 
162.158.186.101 0 1 95933 
172.68.46.136 3 3 73449 20181110140509
162.158.107.30 0 1 3007 
172.68.206.69 1 1 28353 20181112161844
162.158.92.141 0 1 3316 
162.158.186.125 0 2 23936 
188.114.103.58 0 1 13962 
141.101.88.249 2 2 56728 20181109073559
162.158.93.50 2 2 28369 20181105140722
108.162.237.171 0 1 538 
172.69.135.165 0 2 0 
162.158.165.81 0 1 90315 
188.114.102.207 0 1 2471 
172.69.135.195 0 2 228173 
162.158.166.130 3 4 196716 20181109144216
172.68.142.214 0 1 0 
162.158.58.116 0 1 538 
188.114.102.111 0 3 99350 
108.162.215.231 0 1 824 
172.69.54.86 0 1 157295 
108.162.237.231 0 2 36742 
172.68.65.167 2 2 66747 20181108035103
162.158.106.245 5 5 104531 20181109074057
162.158.79.172 0 2 29954 
162.158.167.41 0 1 66738 
108.162.215.87 4 4 110970 20181111024631
172.68.146.49 0 1 2471 
141.101.77.157 0 1 465075 
197.234.242.183 0 1 26540 
162.158.93.176 0 1 856 
108.162.246.16 2 3 53220 20181111165508
172.68.46.10 2 2 56728 20181109164450
141.101.69.230 1 1 22523 20181108143756
162.158.106.107 1 1 0 20181111195307
162.158.166.208 0 2 0 
141.101.88.165 2 2 55237 20181108140753
172.68.144.6 1 4 137910 20181105085210
108.162.226.70 0 1 3007 
108.162.238.226 1 3 38898 20181102160802
141.101.105.233 0 1 278 
172.68.198.111 1 1 28353 20181109130759
172.68.146.55 0 1 3708 
172.68.144.120 1 3 38379 20181108125056
162.158.92.207 1 2 2430 20181103012939
172.69.22.163 1 1 28353 20181109191259
162.158.78.141 3 3 74108 20181109092919
108.162.215.63 1 1 36345 20181107014222
172.69.134.182 0 1 147796 
173.245.48.170 0 1 0 
162.158.166.46 0 1 138130 
162.158.92.225 1 1 28353 20181108230007
162.158.167.239 0 1 75437 
172.68.144.108 0 1 4081 
172.68.254.252 0 1 19172 
162.158.165.93 0 1 153842 
162.158.166.250 0 1 18730 
172.68.46.4 2 2 49677 20181109164449
172.69.130.87 0 3 3865 
172.69.134.44 0 3 4023 
172.68.253.244 0 1 1847 
162.158.59.39 0 1 1547 
162.158.74.110 0 1 0 
172.68.65.17 0 3 22887 
141.101.77.163 0 1 95933 
162.158.167.233 0 1 127565 
172.69.194.9 1 1 28349 20181104175656
162.158.89.210 2 2 72702 20181106232951
141.101.76.135 1 1 28353 20181107121951
188.114.103.118 0 1 35957 
162.158.59.75 0 1 0 
162.158.167.227 0 1 4023 
172.68.144.144 0 2 176189 
162.158.166.4 0 1 105 
162.158.90.179 2 2 64721 20181101000739
172.68.143.149 0 1 0 
172.69.62.177 3 3 66302 20181109082207
162.158.166.70 0 1 116 
103.22.200.83 0 2 5787 
162.158.78.27 3 6 91225 20181108021757
108.162.246.28 0 2 58226 
172.69.226.142 2 2 51720 20181106085612
172.69.135.141 0 3 439899 
162.158.165.141 0 1 50431 
162.158.90.5 0 1 7322 
172.68.255.79 0 1 14977 
172.68.146.133 0 1 54795 
197.234.242.69 0 3 162906 
172.68.144.48 0 1 4192 
172.69.135.99 0 1 67902 
162.158.154.96 0 2 4272 
172.69.54.44 0 1 538 
172.68.211.135 1 1 28353 20181105015412
172.68.189.228 2 2 66715 20181108021936
162.158.89.126 1 1 28370 20181108203053
173.245.54.54 0 3 276273 
162.158.91.202 0 1 2430 
162.158.78.93 3 3 56221 20181106013620
162.158.165.219 0 1 149304 
162.158.91.226 1 2 51328 20181107001556
108.162.238.220 0 1 7322 
172.68.146.109 0 1 114081 
141.101.69.134 3 3 78041 20181109073610
162.158.79.226 2 2 53554 20181105062348
162.158.106.35 0 3 930150 
141.101.88.15 3 3 69755 20181108140953
162.158.179.69 0 1 92091 
172.68.255.13 0 1 8188 
188.114.103.160 0 1 856 
162.158.142.27 3 3 85092 20181107181450
172.69.135.129 0 2 0 
162.158.118.207 0 1 12409 
173.245.54.12 0 2 47872 
162.158.89.120 0 1 19172 
172.68.65.47 4 4 110494 20181108015447
162.158.90.215 0 1 1743 
172.69.22.133 2 2 50845 20181109191305
172.68.253.214 0 1 12409 
162.158.93.212 0 1 3316 
162.158.142.105 4 4 113456 20181107181509
103.22.200.233 0 1 14977 
172.68.90.69 0 2 50476 
162.158.94.55 1 2 0 20181109173235
172.69.135.57 0 1 3315 
162.158.106.179 0 2 0 
172.69.33.46 2 2 56698 20181106022711
162.158.92.147 0 2 3759 
172.69.226.118 2 2 45381 20181108150228
108.162.246.70 5 5 131962 20181109074106
162.158.90.173 0 1 35957 
173.245.54.36 0 4 8544 
172.68.142.118 2 2 56708 20181110140347
162.158.155.229 2 2 56706 20181103135546
162.158.106.11 0 3 60657 
162.158.166.76 0 1 108010 
172.68.238.141 4 4 113412 20181112150829
172.68.146.85 0 1 60667 
188.114.103.100 1 1 38379 20181103170146
172.68.27.173 1 1 28353 20181105223300
108.162.229.159 2 2 36961 20181106101006
188.114.102.21 0 1 3481 
198.41.238.99 0 1 538 
108.162.245.45 1 1 28370 20181111165313
162.158.59.93 0 1 105 
108.162.215.39 0 1 0 
141.101.105.41 0 4 44931 
172.68.211.87 0 1 2471 
172.69.62.159 1 1 23122 20181106013733
162.158.79.82 0 3 834 
162.158.93.170 0 1 29113 
162.158.166.172 0 3 126581 
162.158.79.238 0 2 0 
141.101.77.139 1 1 28353 20181110122127
172.69.33.154 4 4 105115 20181108134728
108.162.245.195 0 2 27924 
162.158.111.150 1 1 39097 20181107143502
162.158.165.231 0 2 131727 
172.69.33.202 0 1 0 
162.158.74.56 0 2 0 
108.162.246.136 2 4 31682 20181111174530
162.158.79.154 1 4 42326 20181105075406
172.68.144.96 0 1 4081 
188.114.102.189 0 2 34169 
108.162.226.178 0 2 45862 
141.101.69.86 1 1 28364 20181109073557
141.101.105.101 1 2 36552 20181103202601
162.158.79.148 3 3 85093 20181111195345
188.114.102.75 0 1 8188 
172.68.211.165 0 1 1281 
197.234.242.123 0 3 2698 
172.69.55.201 3 3 95119 20181110122157
162.158.91.118 0 1 26540 
172.69.33.190 2 2 56740 20181109020710
172.68.47.221 0 1 16038 
108.162.216.9 0 1 2136 
162.158.187.30 0 1 278 
108.162.226.52 0 1 856 
108.162.215.69 4 4 105117 20181108134726
162.158.255.93 2 4 28370 20181109071201
172.68.254.179 0 2 37167 
162.158.165.45 1 2 249381 20181102105230
172.68.146.61 0 1 131004 
108.162.246.106 0 1 1547 
162.158.79.46 1 1 28368 20181103064607
108.162.238.244 0 2 53080 
172.68.58.88 0 1 0 
172.69.135.51 4 6 311602 20181103103142
173.245.54.30 1 1 22855 20181106014857
162.158.74.194 0 1 3007 
172.68.65.131 0 2 58226 
172.69.54.14 1 1 38379 20181107143500
108.162.237.147 1 1 28364 20181102160751
108.162.226.172 0 1 23936 
108.162.237.15 0 2 29954 
162.158.106.65 3 5 131231 20181111165153
172.69.135.189 2 4 313218 20181107122308
172.68.255.127 0 1 2471 
172.68.255.139 0 1 1281 
108.162.216.177 0 1 0 
197.234.242.15 0 1 14977 
172.68.144.60 0 1 155028 
172.69.130.45 0 4 118551 
172.68.189.90 0 1 1847 
172.68.133.185 0 2 31900 
108.162.246.94 1 2 25404 20181111174342
172.68.143.209 0 1 0 
162.158.75.243 0 1 0 
172.68.144.90 0 1 88682 
172.68.141.117 0 2 0 
162.158.78.159 0 1 1847 
173.245.48.110 1 1 29108 20181109191304
172.68.144.150 1 1 28353 20181101174406
172.68.144.156 1 1 36351 20181101175707
172.69.134.242 1 1 28353 20181110085134
103.22.200.185 0 2 561008 
162.158.93.20 0 1 1547 
188.114.102.123 1 1 38705 20181103170147
162.158.111.210 0 1 1547 
162.158.89.138 0 1 13962 
162.158.167.137 0 2 0 
172.69.62.141 0 5 6840 
162.158.166.184 2 4 194741 20181108152344
108.162.237.189 0 1 92091 
172.68.65.239 3 3 85664 20181107204455
162.158.88.13 0 1 95933 
172.68.146.235 2 2 56706 20181110084545
172.69.33.160 0 4 59908 
162.158.79.196 1 1 28349 20181107204346
172.68.146.121 0 1 3923 
162.158.93.230 0 1 1547 
108.162.226.208 0 1 8188 
172.68.47.119 0 1 0 
162.158.50.183 1 1 28353 20181109144216
172.68.143.131 1 1 28369 20181107065908
162.158.78.105 0 2 5267 
172.69.134.164 0 1 107766 
188.114.102.225 0 1 23936 
108.162.237.93 1 2 493439 20181102160802
172.69.22.169 0 2 2430 
141.101.77.91 1 1 28364 20181101014957
172.68.211.129 1 2 36541 20181110212503
172.68.65.149 0 2 15258 
172.68.254.240 0 1 2430 
197.234.242.87 0 2 99413 
162.158.134.159 1 1 28370 20181105022817
197.234.242.105 0 3 34036 
162.158.89.78 2 2 0 20181108161919
162.158.90.47 0 1 3007 
172.68.141.99 1 1 28368 20181101235757
162.158.59.177 2 2 56706 20181107202627
172.68.202.21 0 7 75453 
172.68.254.77 0 1 7629 
162.158.167.29 0 1 3982 
172.69.134.80 0 1 38445 
162.158.78.189 0 3 191866 
172.68.143.95 1 1 28369 20181101114215
162.158.79.118 0 4 15258 
108.162.226.106 0 2 24439 
162.158.59.99 0 2 4272 
173.245.48.116 2 2 45079 20181108133602
172.69.130.33 0 1 4504 
162.158.93.182 0 1 14977 
162.158.75.87 0 1 0 
172.69.135.123 0 1 3952 
172.69.62.87 3 3 78134 20181108035419
162.158.88.193 0 1 31900 
162.158.167.203 0 2 1847 
162.158.255.243 0 2 16862 
172.68.239.40 5 5 141765 20181110065122
188.114.102.129 0 1 14977 
188.114.103.166 0 1 278 
108.162.241.117 0 1 2136 
162.158.179.147 0 1 23936 
162.158.167.215 0 1 4192 
172.69.135.9 0 2 9251 
172.68.141.147 0 1 1517 
108.162.245.81 0 7 104839 
172.68.47.203 2 3 35476 20181108133607
172.68.58.16 1 2 30096 20181102175857
108.162.215.195 0 1 0 
162.158.79.52 0 1 0 
172.69.130.21 4 6 69111 20181111123057
172.69.62.225 0 2 6014 
172.68.211.21 0 1 0 
108.162.238.130 0 2 16376 
198.41.238.93 0 1 2471 
162.158.165.135 0 1 72958 
162.158.111.162 0 1 30184 
108.162.238.184 0 2 3694 
162.158.186.35 0 1 3481 
172.69.134.230 0 1 110302 
162.158.166.82 2 2 56706 20181112142547
162.158.166.244 0 2 200403 
172.69.23.104 0 1 1281 
172.69.62.195 1 1 25864 20181101095952
188.114.103.130 0 1 1743 
162.158.88.37 0 1 12409 
172.69.130.9 0 1 1261 
162.158.179.111 0 1 2136 
172.68.253.232 1 1 28353 20181107145626
172.68.65.59 0 1 35957 
197.234.242.45 1 2 52411 20181104185725
162.158.89.108 1 2 189151 20181109031404
172.68.58.142 1 1 28353 20181102175856
188.114.103.10 0 3 12375 
172.68.65.83 1 1 36330 20181107204458
172.69.33.124 1 1 28370 20181112075739
172.68.90.45 0 1 3481 
172.68.141.123 1 1 28370 20181111031332
172.69.62.45 0 2 19172 
162.158.167.83 0 3 28480 
172.69.134.176 0 2 246876 
162.158.90.11 0 1 465075 
172.69.55.141 1 1 0 20181112084203
162.158.89.144 0 1 23936 
END_VISITOR

# Date - Pages - Hits - Bandwidth - Visits
BEGIN_DAY 30
20181101 74 155 3151711 64
20181102 60 184 10208774 44
20181103 27 31 1218198 22
20181104 26 107 3010290 24
20181105 46 102 2949292 42
20181106 58 131 5538990 45
20181107 70 121 2111896 59
20181108 54 59 1469595 41
20181109 126 245 6536851 62
20181110 32 58 1950350 27
20181111 44 90 2003942 25
20181112 24 61 1582463 20
20181113 70 128 4156083 10
20181114 54 111 3052542 11
20181115 32 63 1849927 9
20181116 50 77 2535184 9
20181117 36 62 1924667 9
20181118 24 27 767431 6
20181119 42 57 1953161 12
20181120 44 75 2055865 10
20181121 70 105 3504947 10
20181122 46 76 2944586 8
20181123 24 48 992814 9
20181124 27 53 1021351 9
20181125 11 26 581597 6
20181126 46 78 1990682 7
20181127 16 33 1758085 10
20181128 43 60 1740443 8
20181129 51 103 3179964 10
20181130 30 47 1607282 8
END_DAY

# Session range - Number of visits
BEGIN_SESSION 7
1h+ 35
5mn-15mn 21
0s-30s 498
2mn-5mn 21
30mn-1h 27
15mn-30mn 20
30s-2mn 14
END_SESSION

# URL - Pages - Bandwidth - Entry - Exit
# The 25 first Pages must be first (order not required for others)
BEGIN_SIDER 55
/ 721 19992712 453 414
/accommodation 64 1655237 19 23
/contact-us 64 2464223 25 33
/gallery 62 2238347 22 21
/promotions 42 945173 11 13
/facilities/restaurant 39 878093 14 11
/location 35 789693 7 10
/facilities 34 857319 7 8
/facilities/room-service 30 642024 8 9
/about-us 28 596703 6 8
/index.php 28 794212 11 12
/terms-and-conditions 27 786152 9 13
/privacy-policy 27 725162 7 11
/downloads 21 480153 6 11
/assets/360/lobby-home.html 17 98064 8 3
/facilities/about-us 7 146962 0 1
//index.php 7 198537 1 3
/assets/360/reinhart_room-home.html 5 30685 1 0
/about-us.php 5 106513 3 1
/accommodation.php 5 129267 2 3
/facilities/promotions 5 102874 1 1
/contact-us.php 5 192431 1 1
/map_pop.html 5 6645 0 1
/cont_pop.html 5 7340 1 2
/facilities/facilities 5 118795 0 1
/facilities/location 2 45106 0 1
/index.php/admin/ 1 28349 0 1
/bar.php 2 48784 0 0
/facilities/privacy-policy 4 105918 0 1
/index.php/login 1 28349 0 0
/location.php 3 36191 2 0
/restaurant.php 4 99527 0 3
/downloads.php 3 68557 2 2
/assets/360/stephan_suite-home.html 3 18417 0 0
/index.php/component/users/ 2 56728 0 0
/facilities/downloads 4 82914 0 0
/contact-us/ 1 38362 1 1
/assets/360/stephan_suite/build0.xml 1 2969 0 1
/facilities/accommodation 4 97210 0 1
/facilities/terms-and-conditions 4 114932 1 1
/assets/360/reinhart_room/build.xml 1 4201 0 0
/sitemap.xml 1 2475 0 0
/terms-and-conditions.php 1 29104 0 1
/assets/360/stephan_suite/build.xml 1 4208 0 0
/assets/360/lobby/Output.xml 1 4388 1 0
/facilities.php 4 100837 1 2
/assets/360/reinhart_room/build0.xml 1 2931 0 1
/assets/360/reinhart_room/build.swf 1 119092 1 1
/assets/360/molly_suite-home.html 4 24556 1 2
/assets/360/stephan_suite/build.swf 1 118862 1 1
/assets/360/lobby/Output.swf 1 119031 1 1
/promotions.php 2 44984 0 0
/assets/360/lobby/Output0.xml 1 3053 0 0
/gallery.php 2 72668 0 0
/room-services.php 3 69366 1 1
END_SIDER
