AWSTATS DATA FILE 7.7 (build 20180105)
# If you remove this file, all statistics for date 201905 will be lost/reset.
# Last config file used to build this data file was /home2/fyfxamvcmvss/tmp/awstats/awstats.ellensplace.freudenbergleisure.com.conf.

# Position (offset in bytes) in this file for beginning of each section for
# direct I/O access. If you made changes somewhere in this file, you should
# also remove completely the MAP section (AWStats will rewrite it at next
# update).
BEGIN_MAP 28
POS_GENERAL 2036                
POS_TIME 2717                
POS_VISITOR 14448               
POS_DAY 42033               
POS_DOMAIN 3642                
POS_LOGIN 4469                
POS_ROBOT 4624                
POS_WORMS 6058                
POS_EMAILSENDER 6189                
POS_EMAILRECEIVER 6332                
POS_SESSION 42911               
POS_SIDER 43122               
POS_FILETYPES 6467                
POS_DOWNLOADS 6711                
POS_OS 6759                
POS_BROWSER 7163                
POS_SCREENSIZE 10157               
POS_UNKNOWNREFERER 10231               
POS_UNKNOWNREFERERBROWSER 11970               
POS_ORIGIN 12638               
POS_SEREFERRALS 12786               
POS_PAGEREFS 13104               
POS_SEARCHWORDS 13826               
POS_KEYWORDS 13978               
POS_MISC 2379                
POS_ERRORS 14037               
POS_CLUSTER 4325                
POS_SIDER_404 14139               
END_MAP

# LastLine    = Date of last record processed - Last record line number in last log - Last record offset in last log - Last record signature value
# FirstTime   = Date of first visit for history file
# LastTime    = Date of last visit for history file
# LastUpdate  = Date of last update - Nb of parsed records - Nb of parsed old records - Nb of parsed new records - Nb of parsed corrupted - Nb of parsed dropped
# TotalVisits = Number of visits
# TotalUnique = Number of unique visitors
# MonthHostsKnown   = Number of hosts known
# MonthHostsUnKnown = Number of hosts unknown
BEGIN_GENERAL 8
LastLine 20190601002345 64 10733 34656556384383
FirstTime 20190501095942
LastTime 20190531203123
LastUpdate 20190601174652 64 0 63 0 0
TotalVisits 741                 
TotalUnique 608                 
MonthHostsKnown 0                   
MonthHostsUnknown 680                 
END_GENERAL

# Misc ID - Pages - Hits - Bandwidth
BEGIN_MISC 10
FlashSupport 0 0 0
TotalMisc 0 0 0
JavaEnabled 0 0 0
AddToFavourites 0 184 0
WindowsMediaPlayerSupport 0 0 0
DirectorSupport 0 0 0
RealPlayerSupport 0 0 0
PDFSupport 0 0 0
JavascriptDisabled 0 0 0
QuickTimeSupport 0 0 0
END_MISC

# Hour - Pages - Hits - Bandwidth - Not viewed Pages - Not viewed Hits - Not viewed Bandwidth
BEGIN_TIME 24
0 40 121 6652009 115 202 5271162
1 27 60 3019446 103 159 4336796
2 30 62 3274248 93 180 4398516
3 48 79 2942823 150 225 5280632
4 30 62 2576628 407 514 12151685
5 69 82 2775798 148 221 5279826
6 48 82 3365396 114 204 5283033
7 77 117 4802657 177 264 6660733
8 58 119 5555108 128 202 5276712
9 131 187 7928528 156 255 6759314
10 186 336 13480386 343 693 16669660
11 67 161 7338973 80 140 3451839
12 97 149 7718745 296 382 8589202
13 86 214 9790578 137 195 4588850
14 81 165 6315843 176 260 5991127
15 88 161 6849120 122 199 4791722
16 114 165 5909203 191 283 6960047
17 80 97 2968769 135 221 5196657
18 47 92 4504803 117 169 4239118
19 52 92 3492856 59 138 3399329
20 61 129 5655656 103 188 4326859
21 37 80 3593003 178 238 5393052
22 59 122 5918745 90 149 3628469
23 60 177 7413828 215 335 8118671
END_TIME

# Domain - Pages - Hits - Bandwidth
# The 25 first Pages must be first (order not required for others)
BEGIN_DOMAIN 40
us 751 1172 43051649
lk 307 734 37313404
ip 103 307 15747134
ru 101 118 4362405
cn 63 106 4288180
gb 61 83 2989465
ua 37 37 1161204
ca 31 52 1722886
fr 28 54 1930735
pa 27 27 847340
de 19 97 3834908
in 18 61 3906839
nl 16 16 505062
zz 12 12 475572
au 11 17 452252
es 11 46 2868252
hk 9 27 1682071
eu 9 9 284665
jp 7 18 1337838
cl 6 6 188302
gr 6 6 188328
kr 5 36 1654407
je 4 4 112548
it 4 4 125548
se 4 4 125534
il 0 4 25670
pk 2 11 262142
ir 1 1 31382
nz 2 5 89977
br 3 4 101437
co 2 2 67438
tr 1 1 31386
dk 1 18 1688274
ba 1 1 31386
mx 1 1 31382
vn 1 1 31382
by 1 1 31382
ph 1 2 57926
pl 4 4 142685
ge 2 2 62772
END_DOMAIN

# Cluster ID - Pages - Hits - Bandwidth
BEGIN_CLUSTER 0
END_CLUSTER

# Login - Pages - Hits - Bandwidth - Last visit
# The 10 first Pages must be first (order not required for others)
BEGIN_LOGIN 0
END_LOGIN

# Robot ID - Hits - Bandwidth - Last visit - Hits on robots.txt
# The 25 first Hits must be first (order not required for others)
BEGIN_ROBOT 33
Googlebot/ 386 12601669 20190531062356 0
bingbot/ 322 10837765 20190531215928 0
bot[\s_+:,\.\;\/\\-] 154 4833374 20190531123259 0
no_user_agent 80 2585463 20190531235932 0
YandexBot/ 72 2238159 20190530202454 0
Applebot/ 59 1653553 20190531152153 0
bingpreview 50 2767510 20190530190605 0
spider 47 1359168 20190529020813 0
Sogou[\x20]web[\x20]spider/ 46 1443942 20190531203606 0
Baiduspider/ 37 1112758 20190531113941 0
Apache\-HttpClient/ 36 1129772 20190524074301 0
SeznamBot/ 36 1509327 20190531215348 0
crawl 29 1157872 20190531190026 0
Uptimebot/ 28 878718 20190531231450 0
(firefox/)([0-9]\.|[0-1][0]\.) 24 1054039 20190518073548 0
Exabot/ 16 479886 20190531205921 0
SemrushBot/ 13 381043 20190530140415 0
facebookexternalhit/ 12 280152 20190529091457 0
CCBot/ 11 353186 20190525122239 0
PhantomJS 9 160313 20190506200338 0
YisouSpider 8 247142 20190524175117 0
Mail\.RU_Bot/ 5 156950 20190529061345 0
Googlebot\-Image/ 3 206288 20190522004343 0
MJ12bot/ 3 84428 20190522160630 0
DotBot/ 3 81022 20190510194511 0
SafeDNSBot 2 62772 20190520011755 0
aiHitBot/ 1 31388 20190526003726 0
YandexImages/ 1 53173 20190503013245 0
CMS[\x20]Crawler 2 62768 20190530222659 0
Jigsaw/ 1 1743 20190514023341 0
java 2 62766 20190530164506 0
baidu 1 31384 20190522045123 0
MojeekBot/ 2 62804 20190530092625 0
END_ROBOT

# Worm ID - Hits - Bandwidth - Last visit
# The 5 first Hits must be first (order not required for others)
BEGIN_WORMS 0
END_WORMS

# EMail - Hits - Bandwidth - Last visit
# The 20 first Hits must be first (order not required for others)
BEGIN_EMAILSENDER 0
END_EMAILSENDER

# EMail - Hits - Bandwidth - Last visit
# The 20 first hits must be first (order not required for others)
BEGIN_EMAILRECEIVER 0
END_EMAILRECEIVER

# Files type - Hits - Bandwidth - Bandwidth without compression - Bandwidth after compression
BEGIN_FILETYPES 9
png 261 5530200 0 0
xml 2 3918 0 0
css 251 4668153 0 0
js 623 36642114 0 0
php 269 8532233 0 0
html 790 24909466 0 0
Unknown 612 17733181 0 0
jpg 289 35799786 0 0
gif 14 24098 0 0
END_FILETYPES

# Downloads - Hits - Bandwidth
BEGIN_DOWNLOADS 0
END_DOWNLOADS

# OS ID - Hits
BEGIN_OS ID - Hits - Pages 25
winlong 18 15
macosx8 2 2
winnt 1 1
winxp 53 38
Unknown 478 286
macosx10 17 17
macosx12 76 28
win95 1 1
ios_iphone 251 81
macosx11 178 147
win2000 1 1
linuxubuntu 2 2
win7 378 241
macosx6 1 1
macosx 55 29
macosx9 6 6
win8.1 104 58
linuxandroid 302 59
linux 421 162
macosx7 1 1
win98 2 2
ios_ipad 39 4
win2003 4 4
win8 42 41
win10 678 446
END_OS

# Browser ID - Hits - Pages
BEGIN_BROWSER 143
firefox26.0 1 0
chrome13.0.782.41 1 1
firefox66.0 47 24
firefox42.0 16 16
chrome53.0.2785.104 1 0
chrome26.0.1410.63 3 3
opera51.0.2830.40 1 1
chrome73.0.3683.75 4 4
chrome72.0.3626.109 4 4
firefox55.0 1 1
chrome40.0.2214.93 1 1
wap 1 1
chrome60.0.3112.50 2 2
firefox58.0 5 5
chrome34.0.1847.116 12 12
chrome53.6.0969.5697 1 1
chrome12.0.742.100 1 1
chrome56.0.2924.87 2 0
msie6.0 32 18
opera53.0.2907.99 6 6
chrome45.0.2454.101 6 5
chrome38.0.0.0 3 0
chrome74.0.3729.136 21 4
firefox36.0 1 0
chrome67.0.3396.87 54 16
chrome65.0.3325.146 2 2
netscape5.0 1 1
opera9.01 1 1
chrome42.0.2311.152 9 9
chrome50.0.2661.102 42 42
chrome71.0.3578.80 11 11
firefox63.0 8 8
safari12.0.3 3 2
chrome49.0.2623.112 10 9
firefox62.0 1 1
chrome21.0.1180.89 2 2
opera54.0.2952.60 2 2
safari 90 15
chrome73.0.3683.86 22 11
chrome71.0.3542.0 8 8
chrome5.0.375.99 8 8
chrome43.0.2357.124 1 0
chrome63.0.3239.0 6 0
chrome44.0.2403.89 2 2
chrome69.0.3497.92 19 6
firefox64.0 49 49
chrome68.0.3440.106 8 8
chrome65.0.3325.181 271 127
firefox24.0 1 1
safari11.0.3 78 15
chrome41.0.2227.1 1 1
chrome55.0.2883.87 5 5
opera6.03 1 1
firefox50.0 78 3
chrome70.0.3538.102 2 2
chrome74.0.3729.157 98 49
chrome70.0.3538.77 25 10
msie11.0 30 12
chrome34.0.1847.131 3 3
opera55.0.2994.44 2 2
chrome53.0.2785.143 1 1
chrome69.0.3497.100 20 11
chrome74.0.3729.131 211 86
firefox41.0 1 1
chrome66.0.3359.117 9 8
msie9.0 26 5
chrome30.0.1599.82 8 0
chrome71.0.3578.98 1 1
Unknown 152 152
chrome41.0.2272.118 23 0
chrome64.0.3282.186 1 1
firefox54.0 4 4
chrome35.0.1916.47 5 5
chrome73.0.3679.0 1 0
firefox47.0 6 6
chrome73.0.3683.103 105 35
chrome63.0.3239.132 50 50
firefox37.0 1 1
sonyericsson 1 1
chrome40.0.2214.85 8 8
firefox60.0 5 2
chrome49.0.2623.75 19 19
edge16 4 4
msie7.0 8 5
firefox40.1 9 9
msie5.0 1 1
chrome34.0.1847.137 7 7
safari12.0 19 9
edge17 20 5
opera49.0.2725.64 3 2
chrome68.0.3440.91 33 2
cloudflare 270 79
firefox15.0 58 58
opera53.0.2907.68 8 8
chrome67.0.3396.99 8 8
chrome74.0.3729.169 151 85
chrome52.0.2743.116 7 7
chrome74.0.3729.112 14 1
chrome75.0.3770.39 3 3
chrome45.0.2454.93 1 1
chrome66.0.3359.181 61 61
chrome55.0.2883.95 2 0
chrome70.0.3538.110 7 2
chrome58.0.3029.110 15 8
msie5.5 1 1
chrome61.0.3163.100 9 9
chrome62.0.3202.84 2 1
safari10.0 22 7
opera54.0.2952.64 4 4
opera36.0.2130.32 4 4
firefox56.0 11 11
msie8.0 8 3
iphone 9 5
mozilla 49 44
android 12 7
chrome38.0.1025.166 35 1
firefox65.0 21 21
safari11.0 8 6
firefox59.0 1 1
chrome8.0.552.215 1 1
chrome46.0.2490.11 3 0
chrome71.0.3578.99 25 10
chrome14.0.835.202 1 1
msie10.0 24 24
chrome74.0.3729.108 7 4
chrome72.0.3626.121 5 3
firefox48.0 2 2
safari12.1.1 6 4
chrome68.0.3440.84 8 8
firefox45.0 8 8
chrome66.0.3359.139 1 1
chrome26.0.1410.65 1 1
chrome1.0.154.43 1 1
chrome74.0.3694.0 3 2
firefox53.0 4 4
firefox52.0 134 103
chrome40.0.2214.89 3 0
chrome57.0.2987.133 1 1
chrome16.0.912.77 1 1
opera54.0.2952.71 2 2
chrome37.0.0.0 1 0
chrome73.0.3683.90 24 7
safari12.1 155 44
END_BROWSER

# Screen size - Hits
BEGIN_SCREENSIZE 0
END_SCREENSIZE

# Unknown referer OS - Last visit date
BEGIN_UNKNOWNREFERER 28
Mozilla/5.0_zgrab/0.x_(compatible;_Researchscan/t12sns;__http://researchscan.comsys.rwth-aachen.de) 20190527084938
SEMrushBot 20190525142730
Go-http-client/1.1 20190531125504
Mozilla/5.0_(compatible;_CloudFlare-AlwaysOnline/1.0;__http://www.cloudflare.com/always-online)_AppleWebKit/534.34 20190529224030
Mozilla/5.0_(compatible;_CloudFlare-AlwaysOnline/1.0;_http://www.cloudflare.com/always-online) 20190529224029
Mozilla/5.0_(compatible;_ips-agent) 20190523064450
Mozilla/5.0_(compatible;_Yeti/1.1;__http://naver.me/spd) 20190503062813
Go-http-client/2.0 20190530115914
MixnodeCache/1.8(_https://cache.mixnode.com/) 20190521055610
python-requests/2.9.1 20190513053906
Grammarly/1.0_(http://www.grammarly.com) 20190528155117
python-requests/2.22.0 20190530153556
python-requests/2.21.0 20190531024821
Mozilla/5.0_(compatible;_Daum/4.1;__http://cs.daum.net/faq/15/4118.html?faqId=28966) 20190506143223
Python/3.6_aiohttp/3.5.4 20190523103231
python-requests/2.20.1 20190501203955
Mozilla/5.0_zgrab/0.x_(compatible;_Researchscan/t13rl;__http://researchscan.comsys.rwth-aachen.de) 20190526174743
Mozilla/5.0_(compatible;_Google-Site-Verification/1.0) 20190524024323
Ruby 20190510081136
Wappalyzer 20190529051243
Mozilla/5.0/Firefox/42.0_-_nbertaupete95(at)gmail.com 20190515174520
Mozilla/5.0_(compatible;_Dataprovider.com) 20190526092937
python-requests/2.19.1 20190529162904
8LEGS 20190529110321
Mozilla/5.0_(compatible;_NetcraftSurveyAgent/1.0;__info@netcraft.com) 20190507025753
Mozilla/5.0_zgrab/0.x_(compatible;_Researchscan/t12ca;__http://researchscan.comsys.rwth-aachen.de) 20190527224655
Mozilla/5.0 20190514131940
panscient.com 20190524234323
END_UNKNOWNREFERER

# Unknown referer Browser - Last visit date
BEGIN_UNKNOWNREFERERBROWSER 15
Go-http-client/2.0 20190530115914
python-requests/2.6.0_CPython/2.7.6_Linux/3.13.0-74-generic 20190527160045
8LEGS 20190529110321
python-requests/2.22.0 20190530153556
panscient.com 20190524234323
Grammarly/1.0_(http://www.grammarly.com) 20190528155117
python-requests/2.9.1 20190513053906
MixnodeCache/1.8(_https://cache.mixnode.com/) 20190521055610
python-requests/2.20.1 20190501203955
SEMrushBot 20190525142730
Python/3.6_aiohttp/3.5.4 20190523103231
Go-http-client/1.1 20190531125504
python-requests/2.21.0 20190531024821
python-requests/2.19.1 20190529162904
Ruby 20190510081136
END_UNKNOWNREFERERBROWSER

# Origin - Pages - Hits 
BEGIN_ORIGIN 6
From0 974 1224
From1 10 11
From2 141 141
From3 18 18
From4 530 1717
From5 0 0
END_ORIGIN

# Search engine referers ID - Pages - Hits
BEGIN_SEREFERRALS 9
www_google_ca 2 2
www_google_es 1 1
yandexru 1 1
www_google_ge 2 2
www_google_lk 8 8
au_search_yahoo_com 1 1
www_google_co_uk 1 1
www_google_co_in 1 1
www_google_com 124 124
END_SEREFERRALS

# External page referers - Pages - Hits
# The 25 first Pages must be first (order not required for others)
BEGIN_PAGEREFS 17
http://albuteroli.com 2 2
https://galeria-zdjec.com 1 1
https://www.glotels.com/LK/Colombo/496435530450359/Ellen's--Place 1 1
https://mgn.dantk.ru/rannee-bronirovanie/rannee-bronirovanie-turov-po-rossii/ 1 1
https://sisi-go.ru 1 1
https://sexpornotales.com 1 1
https://mobile-appster.ru 1 1
https://pizdeishn.com 1 1
https://oookazanskii.ru 1 1
https://torg.pro 1 1
http://l.facebook.com/l.php 1 1
http://services.freshy.com 1 1
https://steamoff.net 1 1
https://gay-site.store 1 1
https://fotoxxxru.com 1 1
http://apartmentadvice.com.au/LmbbZ/vpp 1 1
https://king.host 1 1
END_PAGEREFS

# Search keyphrases - Number of search
# The 10 first number of search must be first (order not required for others)
BEGIN_SEARCHWORDS 0
END_SEARCHWORDS

# Search keywords - Number of search
# The 25 first number of search must be first (order not required for others)
BEGIN_KEYWORDS 0
END_KEYWORDS

# Errors - Hits - Bandwidth
BEGIN_ERRORS 2
500 2 0
302 4329 92345622
END_ERRORS

# URL with 404 errors - Hits - Last URL referrer
BEGIN_SIDER_404 0
END_SIDER_404

# Host - Pages - Hits - Bandwidth - Last visit date - [Start date of last visit] - [Last page of last visit]
# [Start date of last visit] and [Last page of last visit] are saved only if session is not finished
# The 25 first Hits must be first (order not required for others)
BEGIN_VISITOR 680
35.195.210.176 105 136 4819391 20190523103231
174.127.135.130 59 59 1600831 20190518094039
159.203.15.65 42 42 1318044 20190528160128
54.193.33.52 35 35 984674 20190507052747
179.43.144.140 27 27 847340 20190529162904
31.184.194.114 24 24 753192 20190510081136
159.89.35.143 19 37 1358031 20190523225708
165.227.184.35 19 37 1358031 20190508101637
159.203.85.194 19 37 1358031 20190513150548
165.227.98.144 19 37 1358031 20190528191139
165.227.222.39 19 37 1358031 20190518073059
159.65.44.18 19 37 1358031 20190503161006
112.134.105.246 19 33 1456313 20190514201648
51.83.76.186 17 17 533834 20190530153556
162.158.65.101 15 28 1135512 20190503081742
162.158.67.14 15 42 1664650 20190517200030
134.209.146.134 15 15 470730 20190514074555
162.158.66.9 15 38 1282533 20190510100147
162.158.68.133 15 55 2297749 20190525232746
112.134.65.132 14 60 3153841 20190513141052
112.135.210.237 12 15 612599 20190515134623
112.134.17.87 12 25 1053400 20190525161712
167.99.91.253 12 12 376584 20190523070709
113.59.217.58 11 22 410488 20190507121023
43.250.242.214 10 35 2032753 20190522092542
175.157.197.119 1 8 492890 20190507023905
112.134.100.189 1 1 31386 20190518113228
129.204.163.51 1 1 31382 20190530061329
52.34.18.185 1 1 31384 20190525110925
27.209.98.199 2 2 62764 20190521152929
36.47.162.238 1 1 31388 20190508151653
34.222.79.167 1 1 31384 20190502150823
54.190.4.226 1 1 31382 20190502161659
112.134.84.153 8 8 232655 20190514180026
34.220.95.247 1 1 31384 20190530000205
125.209.235.173 0 1 19252 
177.10.84.192 1 2 38651 20190514212825
185.130.184.204 2 2 79110 20190510103123
5.164.148.68 3 3 110206 20190526203919
185.104.184.126 2 2 79747 20190523125815
185.189.113.44 2 2 79110 20190521043605
47.88.2.245 1 1 31386 20190517151548
112.199.103.26 0 1 26540 
54.214.116.23 1 1 31384 20190508160538
124.43.115.206 1 1 31386 20190508103820
167.114.172.224 3 3 64735 20190519091403
2402:4000:1181:6086:7405:49f:cb29:b5ed 1 2 38651 20190516105426
138.197.111.197 1 1 31382 20190523062128
2400:cb00:36:1009::a29e:410a 0 2 82651 
91.189.84.83 1 1 31382 20190514023335
162.158.66.141 0 1 7269 
123.231.108.132 3 3 84227 20190514160916
87.101.94.74 3 3 111301 20190518070643
138.197.73.210 1 13 725218 20190510054741
34.217.88.46 1 1 31384 20190513150316
173.244.36.2 4 7 311243 20190505073602
2400:cb00:36:1034::a29e:44db 0 20 858645 
2402:4000:1380:24df:30b8:38b:d6c4:d224 1 1 31382 20190520223106
185.130.184.214 2 2 79114 20190507130850
34.219.232.166 1 1 31382 20190507144122
124.43.13.113 1 1 31386 20190508160152
184.94.240.92 4 4 111446 20190529084825
178.162.216.51 3 3 112654 20190506044014
107.6.169.250 1 1 31382 20190524014312
103.103.66.22 1 1 31386 20190525121211
54.221.137.189 1 1 31388 20190529152759
80.65.220.1 3 3 94152 20190521234320
35.161.244.24 1 1 31384 20190519122658
113.59.214.253 1 17 1604753 20190501222319
64.233.172.188 1 1 31382 20190515144646
66.102.6.124 1 1 31382 20190517142221
66.102.6.55 1 1 31386 20190514104229
112.134.7.5 1 1 31386 20190529145407
14.152.59.226 1 1 31386 20190504061157
191.96.46.7 1 1 31382 20190523095057
60.215.24.137 3 3 94146 20190521124210
2402:4000:2181:fc36:19b2:6656:1393:9777 0 2 7807 
124.43.17.1 4 4 118509 20190524142543
3.90.108.41 1 1 31384 20190529051243
203.133.168.243 3 15 794459 20190506200344
184.174.62.115 1 1 31384 20190523055104
220.247.245.181 1 1 39410 20190514161529
188.243.184.130 1 1 31382 20190507203209
175.157.43.70 1 1 31386 20190525010505
35.226.183.127 1 1 31382 20190509054854
113.63.126.43 2 2 62768 20190508111844
34.212.35.2 1 1 31386 20190504220448
137.226.113.34 3 78 3194754 20190529000635
116.203.22.185 2 2 62768 20190525085449
185.191.204.2 4 4 117973 20190525174505
46.101.80.192 6 6 173296 20190514033033
50.112.24.129 1 1 31382 20190518145440
52.3.225.213 0 1 7269 
74.207.246.191 4 13 707075 20190505230855
65.154.226.126 3 7 335212 20190517052601
34.216.158.120 1 1 31382 20190527144841
54.190.158.187 1 1 31384 20190521160143
193.106.30.100 2 2 62766 20190526024358
142.93.188.82 1 1 31388 20190504132516
106.38.241.178 0 3 64656 
69.12.87.91 1 1 31384 20190511075659
112.134.18.158 1 1 31386 20190511021439
112.135.199.149 1 1 31386 20190507141155
38.127.197.68 1 1 31388 20190507214622
52.24.9.104 1 1 31384 20190529160228
34.221.133.118 1 1 31382 20190515184729
222.165.187.90 6 19 1194777 20190524112554
66.249.93.44 0 8 1037112 
35.239.239.152 1 1 31382 20190508232433
162.158.65.36 0 1 7269 
123.231.127.13 10 15 588023 20190510124804
159.203.95.205 1 1 31384 20190507010439
34.218.236.123 1 1 31384 20190522103359
34.212.66.177 1 1 31382 20190508151622
77.243.183.21 3 3 111369 20190506165229
51.77.129.165 1 2 38657 20190526092936
178.136.123.202 1 1 31384 20190508200120
175.157.248.237 2 14 986781 20190510062649
180.163.220.4 0 1 14977 
2a02:ab04:273f:2800:9c21:f2b1:a285:2b71 1 14 458449 20190504154942
2400:cb00:36:1004::a29e:4068 1 1 31382 20190514043108
61.245.171.193 1 21 1767139 20190504001312
181.129.146.106 2 2 67438 20190513030325
34.222.147.77 1 1 31382 20190511135231
77.222.100.77 1 1 31384 20190519125727
112.245.244.159 2 2 62768 20190520121736
112.134.143.82 1 1 31386 20190530174121
54.36.99.218 8 8 251216 20190529185857
112.135.186.7 1 1 31386 20190524123029
178.137.94.8 2 2 62772 20190523014600
34.207.112.49 1 1 31402 20190509230404
2400:cb00:36:1049::a29e:408e 0 1 20219 
191.101.73.147 4 4 125536 20190514133607
212.180.208.122 1 1 31384 20190525162746
2400:cb00:36:1002::a29e:4032 1 1 31386 20190514043101
54.245.62.0 2 2 62768 20190514233849
2402:d000:a000:1007:b47a:39fe:46e:594e 1 3 281124 20190526210622
66.102.6.61 1 1 31386 20190518120228
35.222.136.174 1 1 31382 20190531024821
172.193.13.24 1 1 31386 20190527094819
34.221.21.40 1 1 31382 20190506170323
124.43.17.127 3 5 119546 20190516173429
2400:cb00:36:1031::a29e:441c 0 1 20219 
62.109.27.232 1 1 31386 20190529155423
2400:cb00:36:1040::a29e:4755 2 3 86702 20190529224029
82.80.249.227 0 1 16060 
193.106.30.98 2 2 62766 20190531160024
66.249.83.74 0 1 213689 
46.229.161.131 2 2 62772 20190525142730
162.158.65.10 0 1 7269 
191.101.91.173 1 1 31384 20190502084940
51.68.88.149 4 4 125528 20190528033423
54.190.193.224 1 1 31384 20190504135227
60.215.25.41 3 3 94152 20190521100534
38.145.91.142 1 1 31382 20190502125032
112.134.50.40 1 1 31386 20190528140459
46.105.99.212 2 2 62804 20190507090109
66.102.6.237 0 4 233474 
178.128.235.96 2 2 62768 20190512020214
46.118.155.222 5 5 156910 20190527213320
93.120.136.9 2 2 80464 20190509123146
125.76.61.45 1 1 31384 20190507025015
180.163.220.68 1 1 31386 20190530034620
116.252.0.30 1 1 31384 20190502023009
82.208.100.139 2 2 79146 20190510183740
2400:cb00:36:1002::a29e:4035 0 1 29113 
2400:cb00:36:1009::a29e:4105 1 1 31384 20190508033356
43.250.243.23 1 1 31386 20190508140623
91.132.36.219 1 1 31384 20190509144915
107.77.202.64 2 21 1807472 20190522162928
212.112.93.121 1 1 31382 20190528054238
31.13.190.254 3 3 112423 20190509175035
222.165.146.178 2 2 70796 20190507154028
193.70.34.209 1 1 31402 20190511070457
174.129.49.131 5 5 161748 20190510052952
159.69.90.6 6 6 188292 20190528150117
209.97.145.224 1 1 31388 20190507012306
27.4.108.97 2 13 1485885 20190508125453
185.130.184.199 2 2 79114 20190502134312
61.245.161.164 5 20 1060386 20190523230731
104.223.70.48 1 1 39410 20190525103501
112.134.17.49 6 6 170026 20190525162404
171.12.10.245 1 1 31386 20190510094503
52.41.124.45 1 1 31384 20190509161452
66.249.93.37 0 3 71942 
35.164.24.85 1 1 31384 20190522135041
64.233.173.147 1 2 38655 20190512194140
34.221.189.33 1 1 31382 20190512152336
184.154.74.66 1 1 31386 20190529101133
159.203.88.197 1 1 31402 20190507013524
64.233.172.244 1 1 31386 20190515114423
123.231.39.17 1 1 31386 20190508160028
14.1.54.152 1 4 53928 20190511045052
112.135.9.185 8 9 238378 20190528121442
66.102.6.16 1 1 31382 20190521102206
157.185.188.193 1 1 31386 20190509235126
112.134.6.171 1 1 31386 20190506223550
123.231.64.130 2 4 120972 20190508160636
125.84.179.143 1 1 31386 20190501103500
69.58.178.56 6 6 157106 20190522043356
62.210.157.10 3 3 90430 20190527092331
142.93.68.67 1 1 31402 20190507023138
2402:4000:2082:4b40:5111:713a:e5f9:8c70 4 7 412158 20190528155508
18.237.143.45 1 1 31382 20190527141359
112.134.133.167 1 1 31386 20190529091613
182.200.0.110 1 1 31402 20190503172634
159.69.157.248 4 4 125528 20190512212249
52.23.156.70 5 5 161748 20190515174520
209.97.156.16 0 1 14977 
112.134.103.166 3 5 340507 20190530124125
5.188.210.3 2 2 62804 20190513000419
111.223.132.7 1 9 915637 20190510120524
2002:6894:401c::6894:401c 3 3 94154 20190505130934
122.97.182.98 1 1 31382 20190510025431
153.201.69.218 4 11 868712 20190510084332
62.44.134.129 1 18 1688274 20190512011640
51.15.191.250 1 1 39410 20190520064108
66.102.6.133 1 1 31402 20190523125408
64.233.173.134 1 1 31386 20190523192538
182.69.238.228 3 3 110168 20190513132952
185.130.184.215 2 2 79114 20190507080441
176.14.89.50 1 1 31382 20190509180407
178.137.91.20 2 2 62772 20190523155609
162.158.67.22 0 1 7269 
81.149.190.77 1 21 988847 20190523131043
66.102.6.232 0 1 167928 
66.102.6.228 0 3 123702 
66.249.83.213 0 1 7269 
222.154.231.80 1 1 36049 20190516081614
66.102.6.235 2 4 85063 20190508150654
124.43.111.86 2 2 70796 20190509200642
64.233.172.9 1 1 31402 20190517093755
2402:4000:10c3:9b70:55c:8a3f:b8f0:2dc6 1 1 31386 20190530144914
51.254.15.86 2 2 58992 20190506073027
2402:4000:2081:a5b6:904b:163f:9141:c39f 0 1 14977 
52.70.146.155 2 2 62766 20190501223316
51.39.126.100 1 1 31386 20190514162431
95.137.130.183 2 2 62772 20190522133912
2402:4000:11c1:fae7:882e:4afe:6514:59ee 1 1 31402 20190520020545
54.188.243.195 1 1 31384 20190526143043
54.149.100.202 1 1 31384 20190531125504
112.134.211.37 1 1 31386 20190529180026
173.193.191.200 1 1 31384 20190531085242
61.245.161.221 4 11 314693 20190523180356
2402:4000:10c6:97eb:ddc6:d131:fe89:50b3 3 3 73766 20190529102530
2001:1c05:1e0c:1d00:a947:918e:9399:a993 3 4 114851 20190531143252
119.9.91.34 2 5 65343 20190515194051
185.202.115.101 4 4 125536 20190511064251
185.17.149.161 2 2 79531 20190507091853
112.134.157.66 1 1 31386 20190530155203
2402:4000:2082:a375:1df7:b85b:356a:b603 1 2 47424 20190529172955
18.237.201.149 1 1 31384 20190518122346
60.13.7.86 1 1 31386 20190501103507
123.231.105.35 1 1 31386 20190508143750
2402:4000:2082:141b:40e9:66eb:71eb:dc56 1 4 27718 20190523192602
185.191.204.12 1 1 24127 20190524222425
88.150.138.102 1 1 31386 20190528115214
34.253.199.222 1 1 31384 20190530033448
123.126.113.124 0 8 702659 
135.84.167.51 1 1 31386 20190530005426
34.213.100.214 1 1 31382 20190523170142
163.172.119.161 1 1 31384 20190522232104
175.157.85.143 4 7 370100 20190503200348
54.91.236.122 1 1 31382 20190528044225
125.209.235.180 1 1 31386 20190503062813
173.249.2.244 1 1 31384 20190505010821
123.163.114.65 1 1 31384 20190509215817
35.233.193.173 2 2 62804 20190517001842
2a03:2880:30ff:8::face:b00c 1 2 38653 20190519211410
54.149.42.161 1 1 31382 20190504142834
52.53.247.72 1 1 31388 20190518032700
137.226.113.27 4 4 125552 20190527084938
162.158.65.5 0 1 7269 
124.43.27.59 1 1 39410 20190528201816
5.228.195.219 1 1 31382 20190509145855
34.222.221.86 1 1 31384 20190523143215
62.210.83.78 7 7 219682 20190531202223
64.246.165.180 1 1 31388 20190518112151
37.204.14.26 1 1 31384 20190522015114
42.236.10.75 1 1 31402 20190507130607
112.134.68.127 1 1 31386 20190529045410
162.158.64.75 0 1 7269 
52.34.8.88 1 1 31382 20190520161606
107.6.183.162 1 1 31384 20190513121405
2001:8003:5d8c:500:4033:d0ad:1286:7e7c 2 2 62772 20190524090552
104.192.74.231 2 7 79165 20190513034330
2002:6894:401a::6894:401a 6 6 188308 20190506230522
46.0.157.116 1 1 39410 20190525145200
66.102.6.230 0 6 608719 
123.231.32.250 5 5 140442 20190529105329
52.25.164.135 1 1 31382 20190529192222
220.247.240.149 2 12 727721 20190528101413
159.203.65.250 1 1 31386 20190507014555
163.172.71.139 1 1 24662 20190524070146
64.233.172.172 1 1 31382 20190508035808
43.250.242.128 1 1 31386 20190528182136
2a03:2880:10ff:5::face:b00c 1 2 38651 20190526125213
119.185.24.81 6 6 188304 20190522172359
14.186.139.164 1 1 31382 20190507223734
220.247.214.147 2 2 56349 20190521135338
34.208.87.234 1 1 31382 20190531154321
18.237.244.111 1 1 31382 20190514151717
124.43.13.15 1 1 31386 20190528162759
35.247.110.126 1 1 31402 20190521032752
185.191.204.11 1 1 39410 20190516225937
2804:10:4051::161:191 1 1 31386 20190501175648
69.58.178.57 10 10 260818 20190523064450
185.104.184.119 4 4 161646 20190518054632
34.222.169.1 1 1 31382 20190520182709
162.158.69.5 0 1 7269 
176.8.91.216 5 5 156910 20190527171330
13.57.217.7 1 1 31402 20190527160045
2402:4000:2082:8bcd:f174:4e29:3760:55d5 2 3 71619 20190515200020
103.255.254.231 1 1 31388 20190520045731
123.231.93.186 1 1 31386 20190514095951
35.167.195.184 1 1 31382 20190513191705
45.55.195.141 1 13 725218 20190513205233
1.127.105.228 8 14 358100 20190506171645
61.245.170.237 3 3 79827 20190531182030
123.231.104.63 1 6 100059 20190502134729
222.82.49.127 1 1 31382 20190506180556
52.11.137.230 1 1 31384 20190520160943
2001:8a0:fbe6:4400:d013:f903:4e7:7383 1 1 31386 20190508033810
35.239.137.185 1 1 31382 20190509015743
91.193.155.78 1 1 31386 20190526170427
2600:1f14:b62:9e02:8bed:888d:71c:c7d0 1 1 31382 20190529151212
112.134.148.92 1 11 606368 20190530115447
35.224.208.214 9 9 282438 20190525154643
60.215.25.240 3 3 94152 20190521181909
167.99.211.55 3 3 103171 20190528175855
188.165.243.151 1 1 39394 20190531105641
112.135.101.204 3 5 550306 20190502210435
2400:cb00:36:1043::a29e:430b 1 13 999874 20190515045049
165.227.215.206 1 1 31382 20190501235628
51.38.34.80 2 2 62804 20190513082712
2a03:2880:30ff:9::face:b00c 0 2 28939 
2400:cb00:36:1032::a29e:4448 1 1 31384 20190522122234
34.219.140.8 1 1 31384 20190520131707
54.147.123.229 1 5 203055 20190504114842
82.80.249.143 0 1 7269 
2400:cb00:36:1003::a29e:4055 0 14 700203 
185.130.184.208 2 2 79110 20190506114039
52.71.64.37 1 1 31382 20190507072452
162.158.71.85 0 1 7269 
175.157.110.80 3 4 88559 20190503090452
66.249.83.77 0 5 55064 
195.154.104.82 2 2 49324 20190517061302
112.135.124.236 2 2 55513 20190517121539
178.137.93.124 2 2 62764 20190530041059
67.205.130.177 1 1 31402 20190522054931
2400:cb00:36:1033::a29e:4487 0 3 7987 
124.43.13.184 2 4 316172 20190509170802
178.137.82.147 3 3 94146 20190527215054
61.245.161.131 1 1 31386 20190530044904
112.134.210.218 2 2 67435 20190515221439
13.56.16.181 1 1 31382 20190527160045
66.249.88.61 1 1 31402 20190503102656
54.91.91.215 1 1 31382 20190504173451
66.249.93.46 0 3 209358 
72.14.199.204 1 1 31402 20190513225044
124.43.107.223 1 1 31386 20190523110908
52.4.104.152 2 2 58577 20190528155117
35.205.229.5 1 1 31382 20190516161103
194.61.24.29 2 2 62764 20190527205847
182.101.60.196 1 1 31386 20190506225147
54.214.74.42 1 1 31384 20190527111102
138.197.13.231 0 11 228761 
112.134.67.60 2 2 64077 20190516144823
125.209.235.169 0 1 29113 
2400:cb00:36:1038::a29e:4618 0 5 540190 
221.205.136.91 1 1 31384 20190503191131
159.203.89.112 1 1 31382 20190507023906
220.200.166.241 1 1 31384 20190502070710
75.126.32.186 1 1 31384 20190528154853
207.189.0.86 2 2 79146 20190511002714
112.135.119.188 5 16 732903 20190504142716
78.185.35.25 1 1 31386 20190525113248
187.172.101.14 1 1 31382 20190502204157
54.183.213.239 3 3 94150 20190522221203
123.231.105.255 2 2 67435 20190527113357
2400:cb00:36:1018::a29e:4209 1 1 31402 20190510100104
2402:4000:1080:3e12:7ccf:bbf5:b0d:56c3 2 2 58823 20190501121316
5.35.18.56 2 2 78820 20190505185817
180.95.231.127 1 1 31384 20190503191148
157.255.17.17 1 1 31382 20190510034554
123.231.91.94 4 16 820181 20190515151818
2400:cb00:36:1043::a29e:430e 1 1 31402 20190517195958
112.135.207.74 3 4 98969 20190509172447
112.135.213.48 3 3 95775 20190510093122
125.209.235.168 0 1 3352 
104.238.116.254 1 1 31382 20190506221504
162.158.66.201 0 1 7269 
207.102.138.158 2 4 73121 20190509193931
185.94.189.147 3 3 112692 20190528004048
62.210.111.29 3 3 118172 20190521153127
220.247.200.246 2 3 70041 20190513092107
172.93.50.236 1 1 31382 20190514131940
35.185.243.131 1 1 31402 20190510001744
64.202.160.250 9 9 240145 20190506091138
3.81.96.220 8 8 251144 20190521055610
2400:cb00:36:1013::a29e:4792 1 2 127319 20190529015309
34.222.235.91 1 1 31384 20190503144153
54.202.227.86 1 1 31384 20190530145749
204.13.201.138 0 5 117801 
178.137.84.233 2 2 62764 20190527032606
2a01:7c8:aaca:4df:2c72:c7d:8f76:6f53 2 2 62764 20190509120934
139.59.19.175 1 1 31382 20190504234650
50.97.77.188 1 1 31384 20190526065632
2400:cb00:36:1003::a29e:404b 1 1 31382 20190521114129
202.46.52.60 1 1 31382 20190506201001
112.134.151.215 6 9 453391 20190507092017
200.240.243.227 2 2 62786 20190509010040
66.102.6.219 1 1 31386 20190521102203
18.236.65.162 1 1 31384 20190517122211
64.233.173.146 2 2 62772 20190527032815
118.127.15.83 1 1 31384 20190524042310
2402:4000:2081:b7f7:8571:7eae:d905:5fe4 2 3 70041 20190531150802
66.102.6.51 1 1 31386 20190517093755
34.219.193.24 1 1 31384 20190510150844
119.235.0.197 2 2 62772 20190515101022
157.230.241.225 2 4 163906 20190516105410
35.225.109.196 1 1 31382 20190509094901
2400:cb00:36:1049::a29e:4096 0 3 11299 
2402:4000:10c0:df3b:545b:1fa6:614:dc92 5 12 547128 20190526114106
5.188.62.5 1 1 31384 20190528214030
117.89.213.100 1 1 31386 20190518222038
112.134.84.242 1 1 31386 20190523104407
34.221.247.160 1 1 31384 20190516143114
2402:4000:1181:2173:cc18:daff:fef6:26d1 1 2 31924 20190502110039
2402:4000:10c5:c68:64b8:3f1f:b914:3f8f 2 2 63761 20190513152251
121.13.159.123 2 2 62804 20190530141202
198.55.103.215 5 7 187154 20190513152119
2400:cb00:36:1001::a29e:4505 1 2 45346 20190515045053
52.91.226.27 1 1 31402 20190515134632
31.204.181.238 4 4 159016 20190521121627
115.89.74.126 1 14 740195 20190510031016
125.209.235.183 0 1 3007 
54.184.27.68 1 1 31384 20190523111251
122.49.28.44 3 3 80706 20190530181918
51.15.124.33 2 2 62766 20190506211135
185.152.66.235 3 3 111756 20190527191319
91.149.157.185 1 1 31382 20190504221100
185.130.184.228 2 2 79110 20190502125933
185.89.101.102 1 1 31402 20190522121657
2400:cb00:36:1008::a29e:40fa 1 5 457038 20190507031847
93.80.167.236 1 1 31382 20190515054002
178.128.229.48 1 1 31388 20190518064523
163.172.255.50 0 1 20219 
54.212.18.141 1 1 31384 20190512160234
35.222.246.241 1 1 31382 20190509022819
34.219.188.132 1 1 31382 20190501193800
89.208.29.59 2 2 62764 20190529224839
65.154.226.101 4 22 946024 20190510145509
2a06:dd00:1:2:2c2b:1067:388:65f5 1 1 31384 20190514053531
61.151.207.186 0 13 708813 
3.90.160.198 1 1 31386 20190524003450
2402:4000:1080:9aba:2565:96c9:22ba:61a 4 25 1446778 20190501115412
130.211.114.43 1 1 31382 20190509032508
13.52.79.12 1 1 31382 20190507052723
64.233.173.145 1 1 31386 20190523223335
178.137.162.212 4 4 125544 20190524142233
100.35.75.170 1 1 31388 20190524234323
34.83.9.11 2 2 62784 20190527175517
34.221.188.108 1 1 31384 20190514130416
185.189.113.38 2 2 79114 20190509021234
120.28.231.165 1 1 31386 20190528212355
109.184.246.141 4 4 160065 20190517030034
2001:41d0:8:be19::1 2 2 62766 20190510014109
112.135.7.12 3 4 96645 20190503110134
150.107.241.167 1 2 46379 20190522180252
162.158.64.113 0 1 7269 
112.134.65.145 1 1 31386 20190514131446
93.120.161.234 2 2 79146 20190516123941
2402:d000:a000:546:7c6e:53e2:d1c2:9aea 3 3 81162 20190521083640
2402:4000:1180:ef5a:74e6:1c71:c92d:18d6 1 25 2202423 20190507104408
112.134.156.74 4 4 131512 20190531172306
2402:4000:1180:f932:2:1:23fa:38d0 1 10 1044370 20190512194200
104.199.114.206 2 2 62764 20190528110431
18.236.98.165 1 1 31384 20190524142921
34.217.71.78 1 1 31382 20190530154143
207.164.125.146 1 1 31402 20190528213026
34.222.158.130 1 1 31384 20190519151348
89.249.65.68 2 2 62766 20190525092643
150.255.7.67 1 1 31382 20190510034918
52.42.162.36 1 1 31382 20190503171547
1.202.70.119 1 1 31386 20190501120540
54.241.95.41 1 1 31386 20190510003003
119.39.46.178 1 1 31388 20190508151705
103.217.104.62 1 1 31386 20190505111318
66.249.83.76 0 1 8878 
66.102.6.53 1 1 31386 20190519132645
112.135.200.143 8 25 1751959 20190516172326
2400:cb00:36:1046::a29e:428d 0 1 7629 
137.226.113.26 1 1 31388 20190520130325
13.78.148.23 1 1 31402 20190529060055
112.135.5.5 8 8 269740 20190520112928
2402:4000:2380:af0a:2d0a:818e:1c53:1c18 2 2 70796 20190527154546
2400:cb00:36:1048::a29e:4124 1 1 31386 20190521114216
161.129.69.74 3 3 112769 20190529042813
34.221.218.252 1 1 31384 20190515150256
36.47.163.7 1 1 31384 20190502070714
184.154.189.90 2 2 62768 20190519193759
178.128.229.161 1 1 31386 20190530063610
34.66.143.139 2 2 62786 20190525075746
54.218.18.195 1 1 31384 20190505144918
3.84.240.44 1 1 31386 20190515134121
125.209.235.170 0 1 1743 
18.237.209.60 1 1 31384 20190525140405
159.203.172.7 1 1 31388 20190503015947
61.151.179.84 0 11 611033 
54.213.170.11 1 1 31382 20190502174731
66.249.93.41 0 3 37378 
137.226.113.28 4 4 125552 20190527224655
3.16.76.243 2 2 62768 20190529135217
103.227.244.159 0 12 612880 
66.249.93.39 0 3 49144 
159.69.107.47 4 4 130193 20190513053906
112.135.4.6 2 22 1284490 20190512142745
175.157.43.118 2 2 62772 20190528110331
167.99.132.120 2 2 62764 20190507161430
113.102.214.28 2 2 62804 20190529233412
66.249.88.66 1 1 31386 20190503102656
64.233.173.140 1 1 31386 20190526210605
52.34.98.218 1 1 31382 20190516140919
178.128.24.102 1 1 31402 20190516130604
222.94.163.204 2 2 62804 20190508212458
2400:cb00:36:1047::a29e:42d4 0 1 20219 
35.175.184.174 1 1 31386 20190511195816
112.134.83.245 2 2 62772 20190521165247
94.142.200.164 9 9 238009 20190528203939
77.77.217.63 1 1 31386 20190509041226
3.113.4.119 6 6 188292 20190525085702
159.69.67.232 1 1 31384 20190503130713
123.231.104.198 1 1 31386 20190513143942
212.112.93.39 1 1 31382 20190521140454
195.110.34.69 2 2 62766 20190503221013
207.189.0.74 4 4 158732 20190521172806
162.158.71.146 0 1 7269 
66.249.89.134 1 1 31402 20190524024323
64.233.172.230 1 1 31386 20190509132928
129.204.129.143 1 1 31382 20190510023451
219.77.104.132 6 21 1585340 20190508150723
104.192.74.198 0 15 726110 
149.202.62.72 4 4 125608 20190526060441
175.157.36.79 3 3 71872 20190527120242
45.55.61.22 1 1 31384 20190507025753
66.249.93.42 0 3 348422 
101.2.190.135 1 2 25864 20190519110341
185.132.125.173 3 3 94158 20190516055840
64.233.173.141 1 1 31386 20190519065348
35.203.171.88 1 1 31402 20190517214102
34.214.104.32 1 1 31382 20190521152249
183.83.85.38 1 1 31386 20190508142426
52.90.23.145 1 1 31384 20190523234058
125.209.235.174 0 1 31900 
178.137.95.147 2 2 62772 20190523204523
2400:cb00:36:1043::a29e:4316 1 2 51607 20190522122153
37.115.184.19 1 1 31382 20190527035424
123.231.67.242 1 1 31386 20190527125836
54.203.190.110 1 1 31382 20190530115914
175.157.89.54 1 1 31386 20190531203123
178.137.82.32 1 1 31386 20190515073155
18.237.179.21 1 1 31384 20190531165119
138.197.96.249 1 1 31382 20190518044536
51.68.144.25 2 2 62784 20190520125946
117.109.84.127 3 7 469126 20190506075208
112.134.87.215 1 1 31386 20190521201603
61.245.169.245 0 4 50582 
2804:d41:241d:3700:689c:88f3:4961:7e32 2 2 62786 20190503080314
34.218.245.169 2 2 62766 20190527122843
212.9.28.158 4 4 112548 20190529172949
51.83.107.36 1 1 31402 20190520052214
2402:4000:2380:d4d5:9152:de66:a8b7:a154 1 1 24351 20190519004804
61.245.171.224 1 1 31386 20190517134427
185.234.219.246 1 1 31382 20190510094613
185.156.173.189 2 2 79146 20190514063048
106.215.122.252 2 2 78784 20190513155128
66.249.83.78 0 1 1743 
203.192.245.125 3 19 1157705 20190504230729
106.45.0.251 1 1 31382 20190506180608
178.171.75.177 1 1 31384 20190516072915
76.119.165.238 1 1 31386 20190529004421
204.101.161.159 2 3 70033 20190529171626
18.236.216.73 1 1 31382 20190505172851
124.43.94.14 1 3 52217 20190501121848
185.81.157.249 1 1 31382 20190525003951
2402:4000:2380:3357:d9ba:983e:9b2:e0bc 0 8 321087 
185.130.184.213 2 2 79146 20190515145330
112.134.87.182 1 13 725222 20190522214144
182.161.3.246 2 3 103290 20190516130122
111.223.163.97 2 3 67575 20190523210346
66.102.6.233 1 1 31402 20190515114426
2400:cb00:36:1004::a29e:406e 0 1 167928 
2400:cb00:36:1003::a29e:404c 1 1 31388 20190529224013
176.104.130.40 1 1 31386 20190506144408
66.198.240.48 1 1 31382 20190504191238
51.68.152.26 2 2 62766 20190507081226
125.84.180.251 1 1 31386 20190509235210
66.249.83.75 0 6 412668 
52.42.112.242 1 1 31388 20190504233929
175.157.114.230 1 1 31386 20190531131431
2001:4ca0:108:42::5 6 6 188298 20190524184046
138.246.253.5 2 2 62766 20190508171906
87.248.128.210 1 1 31382 20190531170852
175.157.78.133 1 14 909559 20190505073116
2402:4000:10c5:6e8d:217f:bfa2:21b:ae59 1 2 47424 20190524224218
60.191.38.77 6 6 188310 20190523054822
207.189.0.80 3 3 118866 20190507094112
162.158.64.41 0 1 7269 
54.212.221.228 1 1 31384 20190530154112
2402:4000:2381:9a59:613a:4e6b:9dc2:7bee 3 3 103484 20190530200451
207.189.0.88 2 2 79110 20190504130612
113.59.213.28 1 10 586214 20190520045323
88.6.103.64 2 37 2630243 20190511003810
66.102.6.120 1 1 31382 20190519132645
3.88.229.131 1 1 31384 20190524075321
34.222.73.214 1 1 31384 20190524125750
109.234.160.21 1 1 31382 20190503140015
2400:cb00:36:1001::a29e:4504 1 1 31386 20190507031847
178.62.82.141 6 6 173296 20190512031718
2402:4000:2380:812e:699c:e60f:9907:436f 1 3 63484 20190523145527
18.212.246.175 1 1 31384 20190527220322
2402:4000:2380:cd2f:d74:bb9a:d00c:9d00 1 20 1795305 20190523085907
5.62.63.235 2 2 62764 20190526132416
46.246.34.202 1 1 31382 20190518182745
61.245.171.69 2 29 2355156 20190523183017
2400:cb00:36:1033::a29e:4485 1 1 31402 20190525232713
77.87.224.99 1 4 150858 20190531090601
124.43.70.193 2 2 67435 20190507162952
203.175.73.93 2 11 262142 20190508020642
66.102.6.149 1 1 31402 20190514104227
54.200.215.101 1 1 31382 20190522134829
54.201.191.80 1 1 31384 20190518141020
159.69.8.79 2 2 62764 20190503001254
112.134.37.193 6 10 450635 20190519060438
167.114.226.133 2 2 62774 20190517220125
123.231.109.176 1 1 31386 20190514090233
2402:4000:2380:d097:a0b8:794:13a9:eb60 1 1 24351 20190512034214
35.163.172.81 2 3 70045 20190517064920
68.183.35.182 2 2 62768 20190513062520
123.231.62.173 1 1 31386 20190528122959
162.158.68.72 0 1 7269 
51.79.27.185 6 6 188292 20190531173926
175.157.22.182 2 12 744558 20190527221243
159.65.249.136 1 1 31382 20190527084202
52.12.111.91 1 1 31382 20190519164244
207.189.0.94 1 1 39718 20190506115823
90.28.45.230 0 26 1040799 
203.81.96.4 1 1 31386 20190510164932
2400:cb00:36:1008::a29e:40e9 1 2 40266 20190508033315
162.158.64.73 0 1 7269 
34.219.234.244 1 1 31384 20190501132334
124.43.75.42 1 6 165976 20190515082032
188.166.114.112 4 4 134501 20190518063838
172.99.114.116 2 2 33345 20190503172816
180.110.104.236 1 8 253526 20190507130445
112.135.244.158 5 7 404780 20190512232629
82.80.230.228 0 2 2341 
35.227.162.135 2 2 62784 20190507105412
54.69.156.155 1 1 31384 20190506142202
2402:4000:1180:a6bc:41d4:d06b:45e0:18dd 2 5 346543 20190503061436
112.134.66.201 1 1 31386 20190515182357
138.201.249.86 1 1 31384 20190515190426
34.219.255.195 1 1 31382 20190522162713
35.224.192.133 1 1 31382 20190509083337
188.217.142.224 1 1 31382 20190523213349
173.44.55.155 4 4 125532 20190501203955
54.245.207.180 1 1 31382 20190513212818
124.43.13.55 1 1 39410 20190508140847
188.166.22.77 4 4 134493 20190529114410
51.77.119.165 3 3 94192 20190529110321
66.249.83.72 0 3 32732 
2a03:2880:30ff:2::face:b00c 0 2 125046 
27.4.110.50 2 17 870992 20190509112934
54.191.198.137 1 1 31384 20190517142203
2402:4000:11c0:3eee:75ce:d358:c87d:8cd0 2 2 62772 20190515091652
35.165.98.214 1 1 31384 20190516130306
185.136.116.91 1 18 872815 20190507232219
116.12.90.130 1 4 207679 20190509074728
166.137.240.18 1 2 38655 20190522154005
END_VISITOR

# Date - Pages - Hits - Bandwidth - Visits
BEGIN_DAY 31
20190501 25 84 4554758 18
20190502 30 53 2257203 19
20190503 75 121 4384777 27
20190504 24 106 5483656 17
20190505 17 55 2465070 9
20190506 53 91 4262131 27
20190507 99 188 8497165 42
20190508 57 126 5292734 30
20190509 50 103 4720805 33
20190510 78 177 8400998 32
20190511 17 59 3284363 12
20190512 27 91 5697129 14
20190513 70 154 6458601 25
20190514 79 158 6847939 29
20190515 49 93 3678080 25
20190516 34 60 3246360 21
20190517 40 84 3230006 22
20190518 102 120 3774334 20
20190519 21 43 1387442 14
20190520 23 32 1303396 15
20190521 41 69 2393121 25
20190522 39 99 5402683 22
20190523 202 350 14875496 36
20190524 49 64 2546016 25
20190525 69 122 4660472 25
20190526 28 39 1549322 18
20190527 49 59 2227801 33
20190528 96 128 4703025 27
20190529 69 103 3349456 36
20190530 32 45 1836602 24
20190531 29 35 1072208 19
END_DAY

# Session range - Number of visits
BEGIN_SESSION 7
30mn-1h 11
30s-2mn 45
1h+ 1
2mn-5mn 17
15mn-30mn 6
0s-30s 639
5mn-15mn 22
END_SESSION

# URL - Pages - Bandwidth - Entry - Exit
# The 25 first Pages must be first (order not required for others)
BEGIN_SIDER 52
/ 772 24230846 635 538
/index.php 107 3358052 10 13
/contact-us 96 3804626 17 40
/gallery 74 2667402 8 30
/contact-us.php 61 2412669 23 25
/accommodation/super-deluxe-rooms 42 1041828 3 4
/accommodation/standard-rooms 42 1048168 3 9
/about-us 41 998067 6 14
/location 37 844997 4 4
/promotions 37 912748 1 7
/accommodation 30 840558 4 0
/accommodation/deluxe-rooms 30 752292 0 3
/facilities/restaurant 29 699405 2 5
/promotions.php 29 715306 7 5
/facilities/swimming-pool 25 593901 0 3
/privacy-policy 22 632574 1 6
/terms-and-conditions 22 655578 2 4
/facilities 21 557870 0 1
//index.php 21 659022 0 2
/suites.php 19 521115 2 5
/swimming-pool.php 13 332677 2 2
/contact-us/ 13 517051 7 7
/facilities/privacy-policy 5 140948 0 1
/facilities/terms-and-conditions 5 146498 0 0
/index.php/api/Uploadify/preview 5 156918 0 5
/facilities/location 4 91312 0 1
/sitemap.xml 2 3918 0 1
/accommodation/accommodation 3 79103 0 0
/facilities/facilities 3 74777 0 0
/gallery/ 1 36035 1 0
/home 2 55234 0 2
/facilities.php 2 53116 0 0
/location.php 2 47218 0 0
/accommodation/promotions 3 66494 0 0
/restaurant.php 2 52000 0 0
/facilities/promotions 3 66494 0 0
/standard_rooms.php 2 55390 0 0
/accommodation/facilities 3 74777 0 0
/accommodation.php 3 84048 1 0
/accommodation/about-us 5 116388 0 0
/deluxe_rooms.php 2 55048 0 0
/accommodation/terms-and-conditions 5 146498 0 0
/accommodation/location 3 68483 0 0
/facilities/about-us 5 116388 0 0
/index.php/video/login 2 62804 0 2
// 1 31384 1 1
/terms-and-conditions.php 1 29811 1 1
/accommodation/privacy-policy 5 140948 0 0
/facilities/accommodation 3 79103 0 0
/index.php/component/users/ 3 94150 0 0
/about-us.php 2 48666 0 0
/gallery.php 3 108095 0 0
END_SIDER
