AWSTATS DATA FILE 7.7 (build 20180105)
# If you remove this file, all statistics for date 201907 will be lost/reset.
# Last config file used to build this data file was /home2/fyfxamvcmvss/tmp/awstats/awstats.ellensplace.freudenbergleisure.lk.conf.

# Position (offset in bytes) in this file for beginning of each section for
# direct I/O access. If you made changes somewhere in this file, you should
# also remove completely the MAP section (AWStats will rewrite it at next
# update).
BEGIN_MAP 28
POS_GENERAL 2035                
POS_TIME 2699                
POS_VISITOR 6571                
POS_DAY 7027                
POS_DOMAIN 3267                
POS_LOGIN 3519                
POS_ROBOT 3674                
POS_WORMS 4114                
POS_EMAILSENDER 4245                
POS_EMAILRECEIVER 4388                
POS_SESSION 7210                
POS_SIDER 7366                
POS_FILETYPES 4523                
POS_DOWNLOADS 4657                
POS_OS 4705                
POS_BROWSER 4810                
POS_SCREENSIZE 4969                
POS_UNKNOWNREFERER 5043                
POS_UNKNOWNREFERERBROWSER 5455                
POS_ORIGIN 5537                
POS_SEREFERRALS 5669                
POS_PAGEREFS 5813                
POS_SEARCHWORDS 5961                
POS_KEYWORDS 6113                
POS_MISC 2363                
POS_ERRORS 6172                
POS_CLUSTER 3375                
POS_SIDER_404 6262                
END_MAP

# LastLine    = Date of last record processed - Last record line number in last log - Last record offset in last log - Last record signature value
# FirstTime   = Date of first visit for history file
# LastTime    = Date of last visit for history file
# LastUpdate  = Date of last update - Nb of parsed records - Nb of parsed old records - Nb of parsed new records - Nb of parsed corrupted - Nb of parsed dropped
# TotalVisits = Number of visits
# TotalUnique = Number of unique visitors
# MonthHostsKnown   = Number of hosts known
# MonthHostsUnKnown = Number of hosts unknown
BEGIN_GENERAL 8
LastLine 20190715034742 12 1694 9185435380963
FirstTime 0
LastTime 20190711203628
LastUpdate 20190715174814 12 0 12 0 0
TotalVisits 9                   
TotalUnique 9                   
MonthHostsKnown 0                   
MonthHostsUnknown 10                  
END_GENERAL

# Misc ID - Pages - Hits - Bandwidth
BEGIN_MISC 10
AddToFavourites 0 2 0
RealPlayerSupport 0 0 0
QuickTimeSupport 0 0 0
JavaEnabled 0 0 0
DirectorSupport 0 0 0
FlashSupport 0 0 0
TotalMisc 0 0 0
PDFSupport 0 0 0
WindowsMediaPlayerSupport 0 0 0
JavascriptDisabled 0 0 0
END_MISC

# Hour - Pages - Hits - Bandwidth - Not viewed Pages - Not viewed Hits - Not viewed Bandwidth
BEGIN_TIME 24
0 2 3 38671 0 1 21285
1 0 0 0 1 5 116546
2 0 0 0 2 9 211806
3 0 0 0 1 2 52688
4 0 0 0 0 0 0
5 0 0 0 2 3 84090
6 0 0 0 0 0 0
7 0 0 0 1 3 73974
8 0 0 0 1 2 52686
9 0 0 0 0 0 0
10 3 3 94206 1 2 42572
11 0 0 0 1 3 73974
12 0 0 0 0 0 0
13 0 0 0 0 0 0
14 0 0 0 0 0 0
15 0 0 0 0 0 0
16 0 0 0 2 7 169231
17 0 0 0 0 1 21286
18 0 0 0 0 0 0
19 0 0 0 1 7 159118
20 6 6 197372 2 6 147948
21 0 0 0 1 1 31402
22 1 1 31401 2 5 116545
23 1 1 31401 2 2 62804
END_TIME

# Domain - Pages - Hits - Bandwidth
# The 25 first Pages must be first (order not required for others)
BEGIN_DOMAIN 3
us 8 9 227080
nl 4 4 134569
cn 1 1 31402
END_DOMAIN

# Cluster ID - Pages - Hits - Bandwidth
BEGIN_CLUSTER 0
END_CLUSTER

# Login - Pages - Hits - Bandwidth - Last visit
# The 10 first Pages must be first (order not required for others)
BEGIN_LOGIN 0
END_LOGIN

# Robot ID - Hits - Bandwidth - Last visit - Hits on robots.txt
# The 25 first Hits must be first (order not required for others)
BEGIN_ROBOT 8
Googlebot/ 5 157009 20190713112834 0
bot[\s_+:,\.\;\/\\-] 4 125608 20190712213217 0
YandexBot/ 4 125608 20190714195730 0
Mail\.RU_Bot/ 1 31402 20190708161328 0
no_user_agent 1 31402 20190711203607 0
SemrushBot/ 1 31402 20190706161941 0
bingbot/ 1 31402 20190715034742 0
Baiduspider/ 1 31402 20190711202333 0
END_ROBOT

# Worm ID - Hits - Bandwidth - Last visit
# The 5 first Hits must be first (order not required for others)
BEGIN_WORMS 0
END_WORMS

# EMail - Hits - Bandwidth - Last visit
# The 20 first Hits must be first (order not required for others)
BEGIN_EMAILSENDER 0
END_EMAILSENDER

# EMail - Hits - Bandwidth - Last visit
# The 20 first hits must be first (order not required for others)
BEGIN_EMAILRECEIVER 0
END_EMAILRECEIVER

# Files type - Hits - Bandwidth - Bandwidth without compression - Bandwidth after compression
BEGIN_FILETYPES 4
png 1 7269 0 0
html 10 282614 0 0
php 1 39409 0 0
Unknown 2 63759 0 0
END_FILETYPES

# Downloads - Hits - Bandwidth
BEGIN_DOWNLOADS 0
END_DOWNLOADS

# OS ID - Hits
BEGIN_OS ID - Hits - Pages 4
win8 4 4
win10 1 1
Unknown 6 5
win7 3 3
END_OS

# Browser ID - Hits - Pages
BEGIN_BROWSER 6
chrome71.0.3578.80 4 4
chrome45.0.2454.101 1 1
msie8.0 2 2
chrome55.0.2883.87 1 1
mozilla 3 3
cloudflare 3 2
END_BROWSER

# Screen size - Hits
BEGIN_SCREENSIZE 0
END_SCREENSIZE

# Unknown referer OS - Last visit date
BEGIN_UNKNOWNREFERER 3
Mozilla/5.0_(compatible;_CloudFlare-AlwaysOnline/1.0;_http://www.cloudflare.com/always-online) 20190710003446
Mozilla/5.0_(compatible;_NetcraftSurveyAgent/1.0;__info@netcraft.com) 20190704200107
Mozilla/5.0_(compatible;_CloudFlare-AlwaysOnline/1.0;__http://www.cloudflare.com/always-online)_AppleWebKit/534.34 20190710003450
END_UNKNOWNREFERER

# Unknown referer Browser - Last visit date
BEGIN_UNKNOWNREFERERBROWSER 0
END_UNKNOWNREFERERBROWSER

# Origin - Pages - Hits 
BEGIN_ORIGIN 6
From0 13 13
From1 0 0
From2 0 0
From3 0 0
From4 0 1
From5 0 0
END_ORIGIN

# Search engine referers ID - Pages - Hits
BEGIN_SEREFERRALS 0
END_SEREFERRALS

# External page referers - Pages - Hits
# The 25 first Pages must be first (order not required for others)
BEGIN_PAGEREFS 0
END_PAGEREFS

# Search keyphrases - Number of search
# The 10 first number of search must be first (order not required for others)
BEGIN_SEARCHWORDS 0
END_SEARCHWORDS

# Search keywords - Number of search
# The 25 first number of search must be first (order not required for others)
BEGIN_KEYWORDS 0
END_KEYWORDS

# Errors - Hits - Bandwidth
BEGIN_ERRORS 1
302 39 830148
END_ERRORS

# URL with 404 errors - Hits - Last URL referrer
BEGIN_SIDER_404 0
END_SIDER_404

# Host - Pages - Hits - Bandwidth - Last visit date - [Start date of last visit] - [Last page of last visit]
# [Start date of last visit] and [Last page of last visit] are saved only if session is not finished
# The 25 first Hits must be first (order not required for others)
BEGIN_VISITOR 10
188.166.116.151 4 4 134569 20190701204458
162.158.166.214 2 2 62804 20190707103854
172.69.134.50 1 1 31402 20190707103913
172.69.134.182 1 1 0 20190710003446
222.82.53.242 1 1 31402 20190711203628
165.227.223.61 1 1 31401 20190703225322
165.227.71.178 1 1 31401 20190703232615
167.71.186.201 1 1 31401 20190704200107
172.69.134.230 1 1 31402 20190710003447
162.158.165.213 0 1 7269 
END_VISITOR

# Date - Pages - Hits - Bandwidth - Visits
BEGIN_DAY 6
20190701 4 4 134569 1
20190703 2 2 62802 2
20190704 1 1 31401 1
20190707 3 3 94206 2
20190710 2 3 38671 2
20190711 1 1 31402 1
END_DAY

# Session range - Number of visits
BEGIN_SESSION 2
0s-30s 7
30s-2mn 2
END_SESSION

# URL - Pages - Bandwidth - Entry - Exit
# The 25 first Pages must be first (order not required for others)
BEGIN_SIDER 4
/ 10 282614 9 8
/about-us 1 24350 0 1
/contact-us 1 39409 0 0
/contact-us.php 1 39409 0 0
END_SIDER
