AWSTATS DATA FILE 7.7 (build 20180105)
# If you remove this file, all statistics for date 201907 will be lost/reset.
# Last config file used to build this data file was /home2/fyfxamvcmvss/tmp/awstats/awstats.randholeeresort.freudenbergleisure.lk.conf.

# Position (offset in bytes) in this file for beginning of each section for
# direct I/O access. If you made changes somewhere in this file, you should
# also remove completely the MAP section (AWStats will rewrite it at next
# update).
BEGIN_MAP 28
POS_GENERAL 2039                
POS_TIME 2699                
POS_VISITOR 6419                
POS_DAY 6869                
POS_DOMAIN 3284                
POS_LOGIN 3548                
POS_ROBOT 3703                
POS_WORMS 4029                
POS_EMAILSENDER 4160                
POS_EMAILRECEIVER 4303                
POS_SESSION 7052                
POS_SIDER 7208                
POS_FILETYPES 4438                
POS_DOWNLOADS 4538                
POS_OS 4586                
POS_BROWSER 4682                
POS_SCREENSIZE 4819                
POS_UNKNOWNREFERER 4893                
POS_UNKNOWNREFERERBROWSER 5305                
POS_ORIGIN 5387                
POS_SEREFERRALS 5517                
POS_PAGEREFS 5661                
POS_SEARCHWORDS 5809                
POS_KEYWORDS 5961                
POS_MISC 2363                
POS_ERRORS 6020                
POS_CLUSTER 3404                
POS_SIDER_404 6110                
END_MAP

# LastLine    = Date of last record processed - Last record line number in last log - Last record offset in last log - Last record signature value
# FirstTime   = Date of first visit for history file
# LastTime    = Date of last visit for history file
# LastUpdate  = Date of last update - Nb of parsed records - Nb of parsed old records - Nb of parsed new records - Nb of parsed corrupted - Nb of parsed dropped
# TotalVisits = Number of visits
# TotalUnique = Number of unique visitors
# MonthHostsKnown   = Number of hosts known
# MonthHostsUnKnown = Number of hosts unknown
BEGIN_GENERAL 8
LastLine 20190715134509 3 308 8354307941357
FirstTime 0
LastTime 20190712094458
LastUpdate 20190715174824 3 0 3 0 0
TotalVisits 9                   
TotalUnique 9                   
MonthHostsKnown 0                   
MonthHostsUnknown 10                  
END_GENERAL

# Misc ID - Pages - Hits - Bandwidth
BEGIN_MISC 10
WindowsMediaPlayerSupport 0 0 0
PDFSupport 0 0 0
JavaEnabled 0 0 0
FlashSupport 0 0 0
AddToFavourites 0 1 0
RealPlayerSupport 0 0 0
QuickTimeSupport 0 0 0
DirectorSupport 0 0 0
JavascriptDisabled 0 0 0
TotalMisc 0 0 0
END_MISC

# Hour - Pages - Hits - Bandwidth - Not viewed Pages - Not viewed Hits - Not viewed Bandwidth
BEGIN_TIME 24
0 2 3 170015 0 0 0
1 0 0 0 0 2 45404
2 0 0 0 1 1 32478
3 0 0 0 1 2 55182
4 0 0 0 4 8 230122
5 0 0 0 0 1 22703
6 0 0 0 0 0 0
7 0 0 0 0 0 0
8 0 0 0 2 4 110364
9 1 1 32479 0 1 14977
10 3 4 97437 1 2 55182
11 0 0 0 0 0 0
12 0 0 0 1 3 77883
13 0 0 0 2 6 155768
14 0 0 0 0 0 0
15 0 0 0 1 1 32479
16 0 0 0 1 6 201438
17 0 0 0 0 0 0
18 1 1 32478 3 11 262590
19 1 1 32478 1 3 77885
20 1 1 32479 3 4 100587
21 0 0 0 1 2 55181
22 1 1 32478 1 3 77885
23 0 0 0 1 1 32479
END_TIME

# Domain - Pages - Hits - Bandwidth
# The 25 first Pages must be first (order not required for others)
BEGIN_DOMAIN 4
us 7 9 332408
cn 1 1 32479
ca 1 1 32478
lk 1 1 32479
END_DOMAIN

# Cluster ID - Pages - Hits - Bandwidth
BEGIN_CLUSTER 0
END_CLUSTER

# Login - Pages - Hits - Bandwidth - Last visit
# The 10 first Pages must be first (order not required for others)
BEGIN_LOGIN 0
END_LOGIN

# Robot ID - Hits - Bandwidth - Last visit - Hits on robots.txt
# The 25 first Hits must be first (order not required for others)
BEGIN_ROBOT 5
Googlebot/ 18 566609 20190713034613 0
bot[\s_+:,\.\;\/\\-] 6 194873 20190712181302 0
no_user_agent 2 64958 20190711203553 0
bingbot/ 1 32479 20190705180850 0
YandexBot/ 1 32479 20190715134509 0
END_ROBOT

# Worm ID - Hits - Bandwidth - Last visit
# The 5 first Hits must be first (order not required for others)
BEGIN_WORMS 0
END_WORMS

# EMail - Hits - Bandwidth - Last visit
# The 20 first Hits must be first (order not required for others)
BEGIN_EMAILSENDER 0
END_EMAILSENDER

# EMail - Hits - Bandwidth - Last visit
# The 20 first hits must be first (order not required for others)
BEGIN_EMAILRECEIVER 0
END_EMAILRECEIVER

# Files type - Hits - Bandwidth - Bandwidth without compression - Bandwidth after compression
BEGIN_FILETYPES 2
html 10 292308 0 0
png 2 137536 0 0
END_FILETYPES

# Downloads - Hits - Bandwidth
BEGIN_DOWNLOADS 0
END_DOWNLOADS

# OS ID - Hits
BEGIN_OS ID - Hits - Pages 3
Unknown 6 5
win10 3 2
win7 3 3
END_OS

# Browser ID - Hits - Pages
BEGIN_BROWSER 5
chrome75.0.3770.100 3 2
chrome50.0.2661.102 1 1
cloudflare 3 2
mozilla 3 3
msie8.0 2 2
END_BROWSER

# Screen size - Hits
BEGIN_SCREENSIZE 0
END_SCREENSIZE

# Unknown referer OS - Last visit date
BEGIN_UNKNOWNREFERER 3
Mozilla/5.0_(compatible;_NetcraftSurveyAgent/1.0;__info@netcraft.com) 20190704192705
Mozilla/5.0_(compatible;_CloudFlare-AlwaysOnline/1.0;_http://www.cloudflare.com/always-online) 20190710003446
Mozilla/5.0_(compatible;_CloudFlare-AlwaysOnline/1.0;__http://www.cloudflare.com/always-online)_AppleWebKit/534.34 20190710003450
END_UNKNOWNREFERER

# Unknown referer Browser - Last visit date
BEGIN_UNKNOWNREFERERBROWSER 0
END_UNKNOWNREFERERBROWSER

# Origin - Pages - Hits 
BEGIN_ORIGIN 6
From0 9 9
From1 0 0
From2 0 0
From3 0 0
From4 1 3
From5 0 0
END_ORIGIN

# Search engine referers ID - Pages - Hits
BEGIN_SEREFERRALS 0
END_SEREFERRALS

# External page referers - Pages - Hits
# The 25 first Pages must be first (order not required for others)
BEGIN_PAGEREFS 0
END_PAGEREFS

# Search keyphrases - Number of search
# The 10 first number of search must be first (order not required for others)
BEGIN_SEARCHWORDS 0
END_SEARCHWORDS

# Search keywords - Number of search
# The 25 first number of search must be first (order not required for others)
BEGIN_KEYWORDS 0
END_KEYWORDS

# Errors - Hits - Bandwidth
BEGIN_ERRORS 1
302 32 726486
END_ERRORS

# URL with 404 errors - Hits - Last URL referrer
BEGIN_SIDER_404 0
END_SIDER_404

# Host - Pages - Hits - Bandwidth - Last visit date - [Start date of last visit] - [Last page of last visit]
# [Start date of last visit] and [Last page of last visit] are saved only if session is not finished
# The 25 first Hits must be first (order not required for others)
BEGIN_VISITOR 10
172.69.134.38 2 2 64958 20190707103850
167.71.188.2 1 1 32478 20190704192705
162.158.167.239 1 1 32479 20190710003448
219.143.174.133 1 1 32479 20190711203704
124.43.17.1 1 1 32479 20190712094458
167.71.184.152 1 1 32478 20190703225928
159.89.39.222 1 1 32478 20190704180607
172.68.144.96 1 1 32479 20190711101928
172.68.142.34 1 1 0 20190710003446
162.158.166.114 0 2 137536 
END_VISITOR

# Date - Pages - Hits - Bandwidth - Visits
BEGIN_DAY 6
20190703 1 1 32478 1
20190704 2 2 64956 2
20190707 2 2 64958 1
20190710 2 3 170015 2
20190711 2 3 64958 2
20190712 1 1 32479 1
END_DAY

# Session range - Number of visits
BEGIN_SESSION 2
0s-30s 8
30s-2mn 1
END_SESSION

# URL - Pages - Bandwidth - Entry - Exit
# The 25 first Pages must be first (order not required for others)
BEGIN_SIDER 1
/ 10 292308 9 9
END_SIDER
