AWSTATS DATA FILE 7.7 (build 20180105)
# If you remove this file, all statistics for date 201811 will be lost/reset.
# Last config file used to build this data file was /home2/fyfxamvcmvss/tmp/awstats/awstats.ellensplace.freudenbergleisure.com.conf.

# Position (offset in bytes) in this file for beginning of each section for
# direct I/O access. If you made changes somewhere in this file, you should
# also remove completely the MAP section (AWStats will rewrite it at next
# update).
BEGIN_MAP 28
POS_GENERAL 2036                
POS_TIME 2716                
POS_VISITOR 15141               
POS_DAY 32712               
POS_DOMAIN 3599                
POS_LOGIN 3869                
POS_ROBOT 4024                
POS_WORMS 5589                
POS_EMAILSENDER 5720                
POS_EMAILRECEIVER 5863                
POS_SESSION 33539               
POS_SIDER 33750               
POS_FILETYPES 5998                
POS_DOWNLOADS 6242                
POS_OS 6290                
POS_BROWSER 6726                
POS_SCREENSIZE 10444               
POS_UNKNOWNREFERER 10518               
POS_UNKNOWNREFERERBROWSER 11926               
POS_ORIGIN 12392               
POS_SEREFERRALS 12537               
POS_PAGEREFS 13021               
POS_SEARCHWORDS 14527               
POS_KEYWORDS 14679               
POS_MISC 2378                
POS_ERRORS 14738               
POS_CLUSTER 3725                
POS_SIDER_404 14832               
END_MAP

# LastLine    = Date of last record processed - Last record line number in last log - Last record offset in last log - Last record signature value
# FirstTime   = Date of first visit for history file
# LastTime    = Date of last visit for history file
# LastUpdate  = Date of last update - Nb of parsed records - Nb of parsed old records - Nb of parsed new records - Nb of parsed corrupted - Nb of parsed dropped
# TotalVisits = Number of visits
# TotalUnique = Number of unique visitors
# MonthHostsKnown   = Number of hosts known
# MonthHostsUnKnown = Number of hosts unknown
BEGIN_GENERAL 8
LastLine 20181201010904 36 6953 10759579285868
FirstTime 20181101004546
LastTime 20181130231933
LastUpdate 20181201174508 36 0 35 0 0
TotalVisits 584                 
TotalUnique 249                 
MonthHostsKnown 0                   
MonthHostsUnknown 555                 
END_GENERAL

# Misc ID - Pages - Hits - Bandwidth
BEGIN_MISC 10
WindowsMediaPlayerSupport 0 0 0
QuickTimeSupport 0 0 0
RealPlayerSupport 0 0 0
JavaEnabled 0 0 0
FlashSupport 0 0 0
DirectorSupport 0 0 0
AddToFavourites 0 119 0
PDFSupport 0 0 0
TotalMisc 0 0 0
JavascriptDisabled 0 0 0
END_MISC

# Hour - Pages - Hits - Bandwidth - Not viewed Pages - Not viewed Hits - Not viewed Bandwidth
BEGIN_TIME 24
0 34 64 3267443 53 85 2290504
1 41 123 5000438 56 89 2039893
2 44 85 2000575 47 95 2439806
3 29 85 4572654 55 92 2205397
4 25 79 3752839 59 103 2496155
5 25 37 1317874 42 80 1861360
6 33 96 3832841 36 87 2579511
7 28 43 967787 29 61 1375814
8 19 29 1216875 61 97 2382471
9 47 76 3453389 65 107 2552436
10 91 184 4549765 63 148 3282445
11 59 102 4816624 51 115 3314738
12 103 248 9458470 57 100 2510820
13 79 173 7210503 76 167 4376931
14 49 74 2195835 54 100 2827282
15 57 119 5423122 50 113 3326048
16 73 138 5338197 66 139 3881563
17 59 93 2856835 40 97 2434781
18 34 95 3524294 55 108 2552803
19 34 52 1782802 51 104 2965942
20 78 184 7798063 56 116 2627988
21 23 91 4959593 32 78 2397548
22 57 71 2688984 76 126 3120938
23 33 41 1367818 63 122 2924069
END_TIME

# Domain - Pages - Hits - Bandwidth
# The 25 first Pages must be first (order not required for others)
BEGIN_DOMAIN 3
zz 578 1130 50169979
us 527 1154 39701649
eu 49 98 3481992
END_DOMAIN

# Cluster ID - Pages - Hits - Bandwidth
BEGIN_CLUSTER 0
END_CLUSTER

# Login - Pages - Hits - Bandwidth - Last visit
# The 10 first Pages must be first (order not required for others)
BEGIN_LOGIN 0
END_LOGIN

# Robot ID - Hits - Bandwidth - Last visit - Hits on robots.txt
# The 25 first Hits must be first (order not required for others)
BEGIN_ROBOT 35
Googlebot/ 266 7969669 20181130232802 0
bingbot/ 203 6576274 20181130191137 0
YandexBot/ 106 3311566 20181130194815 0
Baiduspider/ 75 2204861 20181130234141 0
no_user_agent 42 1208602 20181130220638 0
crawl 39 1433780 20181129110901 0
SeznamBot/ 31 1685560 20181129235358 0
bingpreview 28 915866 20181126054838 0
SemrushBot/ 23 631532 20181130043602 0
aiHitBot/ 22 887798 20181115060827 0
AhrefsBot/ 21 597819 20181129080116 0
CCBot/ 19 491479 20181115124616 0
Exabot/ 17 499928 20181130192225 0
Sogou[\x20]web[\x20]spider/ 17 533665 20181130094214 0
Google[\x20]Web[\x20]Preview 14 822265 20181105152242 0
AdsBot\-Google[\x20]\( 14 758928 20181104191637 0
BLEXBot/ 11 278779 20181104152024 0
Jigsaw/ 10 62164 20181101104700 0
YandexImages/ 9 391934 20181128213653 0
facebookexternalhit/ 9 381334 20181130021127 0
Uptimebot/ 8 31384 20181114025204 0
bot[\s_+:,\.\;\/\\-] 8 237719 20181126084258 0
Applebot/ 6 188312 20181128135455 0
Deepnet[\x20]Explorer 6 188316 20181103125212 0
YisouSpider 5 113960 20181123093440 0
Babya[\x20]Discoverer 3 94158 20181105082704 0
Googlebot\-Image/ 1 26540 20181126111912 0
Wget/ 3 78589 20181130123627 0
MojeekBot/ 1 31386 20181106002529 0
[\s_+:,\.\;\/\\-]bot 1 31382 20181113075220 0
Konqueror/ 3 102217 20181126031003 0
SafeDNSBot 1 31384 20181118211413 0
archive\.org_bot 3 45922 20181123205541 0
(firefox/)([0-9]\.|[0-1][0]\.) 1 31386 20181108225521 0
Mail\.RU_Bot/ 2 62764 20181113004515 0
END_ROBOT

# Worm ID - Hits - Bandwidth - Last visit
# The 5 first Hits must be first (order not required for others)
BEGIN_WORMS 0
END_WORMS

# EMail - Hits - Bandwidth - Last visit
# The 20 first Hits must be first (order not required for others)
BEGIN_EMAILSENDER 0
END_EMAILSENDER

# EMail - Hits - Bandwidth - Last visit
# The 20 first hits must be first (order not required for others)
BEGIN_EMAILRECEIVER 0
END_EMAILRECEIVER

# Files type - Hits - Bandwidth - Bandwidth without compression - Bandwidth after compression
BEGIN_FILETYPES 9
jpg 256 31091682 0 0
xml 1 1959 0 0
php 112 3776805 0 0
Unknown 358 10015053 0 0
js 541 19245779 0 0
css 181 3314757 0 0
png 237 4946051 0 0
html 683 20942427 0 0
gif 13 19107 0 0
END_FILETYPES

# Downloads - Hits - Bandwidth
BEGIN_DOWNLOADS 0
END_DOWNLOADS

# OS ID - Hits
BEGIN_OS ID - Hits - Pages 28
winlong 12 11
win2003 8 8
win10 567 307
winnt 17 17
win95 3 3
win8.1 103 50
macosx 166 34
macosx7 1 0
Unknown 327 126
win8 6 4
winphone 5 2
win98 1 1
winme 2 2
unix 4 3
linux 208 94
win7 310 190
macosx6 4 2
win2000 7 7
winxp 52 50
macosx11 47 32
ios_ipad 89 11
macosx10 26 15
ios_iphone 135 55
macosx12 31 31
linuxubuntu 1 0
linuxandroid 206 93
macosx8 3 1
macosx9 41 5
END_OS

# Browser ID - Hits - Pages
BEGIN_BROWSER 175
firefox40.1 5 5
chrome69.0.3497.120 2 1
Unknown 37 37
chrome60.0.6808.496 1 1
chrome67.0.3396.99 5 5
chrome65.0.3325.230 2 1
chrome62.0.3202.94 3 3
chrome70.0.3538.80 57 40
chrome56.0.1253.239 1 1
safari12.0 194 32
chrome67.0.3396.79 2 2
chrome56.0.1419.329 1 1
firefox18.0 2 2
chrome41.0.2272.118 1 1
opera9.0 7 7
chrome40.0.7046.948 15 0
chrome66.0.3359.117 6 6
chrome52.0.2743.116 29 5
chrome56.0.4517.954 1 1
chrome70.0.3538.102 250 107
chrome45.0.7341.804 1 1
chrome45.0.6072.238 1 1
chrome46.0.6958.411 1 1
chrome40.0.2214.85 14 14
chrome52.0.7762.785 1 1
netscape 2 2
safari11.1 17 9
chrome46.0.2490.76 6 0
chrome54.0.1181.884 13 1
chrome67.0.3396.87 41 7
mozilla 27 26
chrome42.0.2311.90 9 9
chrome46.0.9849.453 1 1
chrome64.0.3282.137 1 1
firefox45.0 12 12
chrome69.0.3497.100 6 4
chrome43.0.5655.22 1 1
chrome32.0.1700.72 1 0
chrome49.0.5716.447 1 1
safari6.1 1 0
chrome60.0.3112.50 1 1
firefox59.0 2 2
msie11.0 32 17
opera55.0.2994.44 6 6
chrome58.0.3029.110 2 2
msie4.01 1 1
msie8.0 2 2
firefox36.0 1 0
chrome52.0.9288.292 1 1
opera54.0.2952.64 5 5
chrome56.0.1253.91 1 1
firefox53.0 4 4
msie5.5 9 9
chrome57.0.2987.133 9 5
safari10.0 55 6
safari12.0.1 3 2
chrome55.0.2883.87 11 11
firefox33.0 2 2
chrome57.0.1794.307 1 1
firefox25.0 3 0
firefox52.0 1 1
chrome65.0.3325.181 93 39
opera49.0.2725.47 3 3
chrome50.0.1842.257 1 1
chrome33.0.1750.154 1 1
chrome44.0.9006.693 1 1
chrome45.0.2454.94 1 1
chrome34.0.1847.131 1 1
chrome40.0.1795.331 1 1
firefox41.0 1 1
chrome61.0.3163.100 29 29
chrome70.0.3538.77 266 117
chrome53.0.2785.143 4 4
chrome51.0.2704.106 3 3
chrome12.0.742.91 1 0
chrome31.0.1650.63 6 2
opera54.0.2952.54 6 6
chrome46.0.9470.437 1 1
chrome70.0.3538.67 1 1
cloudflare 272 72
chrome68.0.3440.91 1 0
chrome43.0.1141.61 1 1
netscape4.61 2 2
safari 4 4
chrome55.0.1411.639 1 1
chrome63.0.3239.132 17 17
chrome56.0.6099.992 1 1
chrome45.0.4877.667 1 1
chrome59.0.9893.280 1 1
firefox26.0 6 4
chrome56.0.7437.182 1 1
chrome54.0.4678.449 1 1
chrome58.0.4307.708 1 1
chrome42.0.2311.152 3 3
chrome50.0.8283.84 1 1
chrome51.0.9769.743 1 1
chrome48.0.4069.234 1 1
chrome12.0.742.112 1 1
chrome42.0.2496.456 1 1
firefox15.0 1 1
chrome67.0.3396.62 4 4
firefox32.1 3 3
chrome41.0.1842.844 1 1
firefox37.1 3 3
opera54.0.2952.71 3 3
chrome44.0.2489.898 1 1
opera9.00 2 2
chrome40.0.2214.93 1 1
chrome48.0.4916.400 1 1
chrome59.0.6315.282 1 1
firefox52.53.90 1 1
opera53.0.2907.68 2 2
chrome34.0.1847.76 1 1
opera54.0.2952.51 1 1
firefox27.3 2 2
chrome58.0.3565.101 1 1
safari6.1.1 1 0
safari11.0 49 20
chrome50.0.2661.102 37 37
chrome58.0.7009.241 10 1
chrome53.0.3366.652 1 1
opera8.01 2 2
chrome41.0.2228.0 2 2
chrome47.0.4012.2 1 1
safari11.1.2 2 2
chrome26.0.1410.63 2 2
safari4.0.5 1 1
chrome71.0.3542.0 5 5
msie5.0 4 4
opera36.0.2130.32 2 2
netscape4.79 2 2
chrome34.0.1847.116 8 8
safari5.1.9 1 0
firefox56.0 8 8
chrome41.0.5905.89 1 1
msie7.0 15 15
chrome64.0.3282.167 11 0
chrome63.0.3239.84 3 3
chrome31.0.1650.57 2 0
edge16 2 2
msie6.0 45 45
chrome68.0.3440.106 29 8
chrome57.0.2987.110 1 1
chrome45.0.9817.154 1 1
opera8.00 1 1
edge17 56 11
chrome38.0.1025.166 2 1
firefox50.0 83 5
chrome29.0.1547.62 1 1
firefox48.0 2 2
chrome50.0.5370.443 1 1
chrome45.0.2454.101 2 2
opera7.0 1 1
chrome66.0.3359.181 61 61
chrome28.0.1500.95 4 4
firefox31.0 1 1
safari9.0 5 5
chrome69.0.3497.92 15 2
chrome69.0.3497.81 2 1
firefox57.0 5 5
chrome70.0.3538.110 20 14
chrome40.0.2754.9 1 1
chrome5.0.375.99 1 1
chrome65.0.3325.109 20 3
chrome68.0.3440.84 1 1
chrome67.0.2526.73 3 3
chrome59.0.3071.125 26 7
msie9.0 12 12
chrome58.0.3029.83 13 2
safari7.0.1 1 1
chrome49.0.2623.75 21 21
firefox58.0 8 8
msie10.0 1 1
firefox63.0 66 15
chrome51.0.2161.91 1 1
END_BROWSER

# Screen size - Hits
BEGIN_SCREENSIZE 0
END_SCREENSIZE

# Unknown referer OS - Last visit date
BEGIN_UNKNOWNREFERER 21
Mozilla/5.0_(compatible;_NetcraftSurveyAgent/1.0;__info@netcraft.com) 20181108035618
Mozilla_5.0 20181105003712
Mozilla/5.0_(compatible;_CloudFlare-AlwaysOnline/1.0;__http://www.cloudflare.com/always-online)_AppleWebKit/534.34 20181129081807
Mozilla/5.0_zgrab/0.x_(compatible;_Researchscan/t12ca;__http://researchscan.comsys.rwth-aachen.de) 20181127014941
Mozilla/6.0_(compatible) 20181111130222
Mozilla/5.0_(compatible;_Qwantify/2.4w;__https://www.qwant.com/)/2.4w 20181117115802
Mozilla/5.0_(SIMON_SMITH_NT_10.0;_WOW64;_forensic@evestigator.com.au)_AppleWebKit/537.36_(KHTML,_like_Gecko)_Chrome/67.0.2526.73_Safari/537.36 20181124163401
python-requests/2.19.1 20181123101215
WhatsApp/2.18.327_A 20181106161656
python-requests/2.20.1 20181121200804
Mozilla/5.0_zgrab/0.x_(compatible;_Researchscan/t12sns;__http://researchscan.comsys.rwth-aachen.de) 20181112223504
Ver._5.8_x64 20181110084728
Ruby 20181121002105
Mozilla/5.0_(compatible;_ips-agent) 20181108163827
Mozilla/5.0_(compatible;_Dataprovider.com) 20181114122853
Mozilla/5.0_(compatible;_CloudFlare-AlwaysOnline/1.0;__http://www.cloudflare.com/always-online) 20181126034729
python-requests/2.18.4 20181130150059
Aplix_SEGASATURN_browser/1.x_(Japanese) 20181121101401
Go-http-client/1.1 20181118025424
Mozilla 20181120065234
python-requests/2.9.1 20181111063334
END_UNKNOWNREFERER

# Unknown referer Browser - Last visit date
BEGIN_UNKNOWNREFERERBROWSER 10
Surf/1.0_(Linux_4.4.0-138-generic;_go1.10.4) 20181121205200
Ver._5.8_x64 20181110084728
python-requests/2.19.1 20181123101215
WhatsApp/2.18.327_A 20181106161656
Go-http-client/1.1 20181118025424
Aplix_SEGASATURN_browser/1.x_(Japanese) 20181121101401
Ruby 20181121002105
python-requests/2.18.4 20181130150059
python-requests/2.9.1 20181111063334
python-requests/2.20.1 20181121200804
END_UNKNOWNREFERERBROWSER

# Origin - Pages - Hits 
BEGIN_ORIGIN 6
From0 565 682
From1 6 6
From2 143 143
From3 94 94
From4 346 1457
From5 0 0
END_ORIGIN

# Search engine referers ID - Pages - Hits
BEGIN_SEREFERRALS 18
www_google_fr 4 4
www_google_se 3 3
www_google_dk 1 1
www_google_co_kr 1 1
www_google_ch 1 1
www_google_lk 75 75
www_google_com 35 35
yahoo_catchall 2 2
www_google_co_uk 5 5
www_google_co_in 5 5
www_google_com_au 3 3
www_google_be 1 1
www_google_nl 1 1
www_google_de 1 1
ecosia 1 1
www_google_co_nz 2 2
www_google_ae 1 1
www_google_it 1 1
END_SEREFERRALS

# External page referers - Pages - Hits
# The 25 first Pages must be first (order not required for others)
BEGIN_PAGEREFS 44
http://komputers-best.ru 9 9
http://8xv8.com 6 6
http://buypillsonline24h.com 6 6
http://pornole.online 4 4
http://kinostar.online 4 4
http://zameskino.ru 4 4
https://cheappills24h.com 3 3
https://migronis.com 3 3
http://infra-e.ru 3 3
http://sta-grand.ru 3 3
http://pospektr.ru 3 3
https://nakozhe.com 3 3
https://bpro1.top 3 3
https://pills24h.com 2 2
http://r10htc2018.com/venue-and-travel/accommodation/ 2 2
https://xn----7sbbahaq9bb5afgiqfliv4m.xn--p1ai 2 2
https://uptime.com/ellens-place.com 2 2
https://spinanebolit.com 2 2
https://www.blogping.xyz/increase-traffic-to-your-website-with-seo/58674082/ 2 2
https://uptime.com/ellensplace.lk 2 2
http://ukrtvory.in.ua 2 2
http://artclipart.ru 2 2
https://www.facebook.com 1 1
https://sowhoz.ru 1 1
http://mnogabukaff.net 1 1
http://pornobest.su 1 1
https://s-forum.biz 1 1
http://smart-way.space 1 1
http://www.drugstoreforyou.com 1 1
http://weck.biz 1 1
http://discountegift.store 1 1
http://pornoslave.net 1 1
http://www.tsatu.edu.ua 1 1
https://live.ipms247.com/booking/bookingstatus.php 1 1
https://xn--80aaafbn2bc2ahdfrfkln6l.xn--p1ai 1 1
https://live.ipms247.com/booking/book-rooms-018704 1 1
https://med-dopomoga.com 1 1
https://elonm.ru 1 1
http://skinali.photo-clip.ru 1 1
http://phinist.net 1 1
https://videotop.biz 1 1
https://x-lime.com 1 1
http://5elementov.ru 1 1
http://kinoprinc.ru 1 1
END_PAGEREFS

# Search keyphrases - Number of search
# The 10 first number of search must be first (order not required for others)
BEGIN_SEARCHWORDS 0
END_SEARCHWORDS

# Search keywords - Number of search
# The 25 first number of search must be first (order not required for others)
BEGIN_KEYWORDS 0
END_KEYWORDS

# Errors - Hits - Bandwidth
BEGIN_ERRORS 1
302 1382 29449963
END_ERRORS

# URL with 404 errors - Hits - Last URL referrer
BEGIN_SIDER_404 0
END_SIDER_404

# Host - Pages - Hits - Bandwidth - Last visit date - [Start date of last visit] - [Last page of last visit]
# [Start date of last visit] and [Last page of last visit] are saved only if session is not finished
# The 25 first Hits must be first (order not required for others)
BEGIN_VISITOR 555
10.148.0.2 578 1130 50169979 20181130231933
172.68.202.39 19 23 912878 20181112124254
172.68.239.94 18 18 564948 20181112184556
172.68.202.9 15 35 825742 20181110125315
162.158.90.209 13 13 353282 20181112154144
172.68.202.15 12 19 846864 20181109124523
172.68.189.78 12 12 319102 20181110204841
172.68.144.126 11 11 310932 20181112100231
172.68.238.243 9 9 282474 20181112045814
172.69.130.21 8 8 235890 20181111123020
141.101.98.45 8 8 241312 20181103234510
172.68.202.33 8 22 521428 20181109175058
172.68.202.21 7 13 780750 20181110215015
162.158.106.95 7 7 188306 20181111124130
162.158.79.160 7 7 196224 20181111124230
162.158.106.71 7 7 188295 20181108104754
172.68.146.175 7 11 255871 20181112112856
141.101.69.134 7 7 200269 20181112153700
172.69.33.208 7 8 178194 20181112130058
172.68.202.27 7 13 543729 20181112153729
172.68.238.207 7 7 219702 20181112114911
162.158.165.51 6 6 188316 20181110111017
172.68.239.130 5 5 156930 20181103184858
172.69.134.176 5 5 156930 20181112100824
172.69.226.58 5 5 127496 20181104065651
172.68.65.47 1 1 39411 20181107120338
172.68.65.83 0 3 287799 
172.69.134.116 0 1 14977 
172.69.226.4 2 2 62766 20181108130840
172.69.22.205 1 1 31403 20181112130119
172.68.142.160 0 3 0 
172.68.65.203 0 1 4168 
172.69.134.44 0 4 29113 
172.68.206.69 1 1 31403 20181112161824
141.101.99.88 0 1 160781 
198.41.238.69 1 4 205126 20181107134006
108.162.237.231 0 1 5267 
141.101.69.92 0 1 3088 
162.158.74.98 3 3 94209 20181110103221
172.68.143.143 2 2 0 20181110204810
162.158.38.57 1 1 24677 20181102021012
162.158.89.90 0 2 33643 
162.158.39.4 0 2 0 
162.158.89.174 0 1 12409 
162.158.38.207 0 2 58226 
162.158.167.137 3 3 94158 20181112175827
198.41.238.21 0 4 185516 
108.162.215.159 0 1 13962 
108.162.229.123 2 2 78822 20181104055642
172.68.144.18 0 1 58574 
108.162.216.57 4 4 125544 20181111140403
162.158.92.21 0 2 87642 
162.158.38.249 0 2 0 
141.101.88.249 0 1 16060 
108.162.246.34 0 2 29113 
141.101.88.81 0 1 0 
108.162.246.10 0 1 1547 
162.158.39.22 0 2 35957 
162.158.88.187 1 2 36651 20181101201546
162.158.90.167 0 2 23420 
162.158.167.233 0 1 89490 
172.68.133.185 2 2 0 20181110204749
141.101.104.82 0 2 3094 
198.41.238.57 0 4 398234 
172.68.141.159 1 2 31388 20181103085636
172.69.62.9 0 3 10056 
162.158.78.51 1 1 31384 20181111115844
172.69.54.26 1 1 39411 20181106112505
162.158.154.198 0 1 4168 
162.158.59.63 1 1 31386 20181108103325
108.162.215.45 2 2 54424 20181108134813
172.68.254.149 0 1 1547 
141.101.69.164 2 2 62764 20181110010053
172.69.62.207 0 5 22345 
141.101.88.171 1 1 36050 20181108125435
172.68.144.6 0 2 32120 
172.69.134.254 0 1 71028 
162.158.93.224 1 1 0 20181101225737
162.158.78.33 1 1 31382 20181111210621
172.68.146.253 0 1 84511 
172.69.33.184 1 1 31386 20181108021950
172.69.134.104 1 1 31403 20181109111454
141.101.77.145 1 1 39392 20181101004546
162.158.78.63 0 3 26634 
141.101.88.9 2 2 62766 20181109065101
172.69.130.45 0 3 511341 
162.158.91.142 0 1 16038 
162.158.88.115 0 1 167928 
162.158.165.39 0 4 71914 
162.158.88.193 1 1 0 20181110003949
108.162.245.225 0 2 307170 
162.158.88.121 0 1 538 
172.69.226.28 0 2 1648 
172.68.132.142 2 2 62777 20181103060059
162.158.91.226 0 2 24214 
172.68.144.150 3 3 94158 20181108095558
162.158.19.16 1 1 31403 20181104004855
172.68.146.181 0 1 73812 
173.245.48.194 1 1 39394 20181101174842
108.162.246.52 1 3 32479 20181108075631
162.158.90.47 1 1 39394 20181102184538
108.162.246.208 1 1 0 20181103062340
162.158.92.81 0 1 7629 
172.68.47.77 1 1 26577 20181108134728
172.69.226.112 0 2 3474 
141.101.69.20 3 3 94149 20181109065101
108.162.245.249 3 3 94150 20181110005346
198.41.238.93 0 3 105667 
162.158.93.218 1 1 36050 20181108145021
162.158.166.202 0 4 0 
172.68.239.208 2 2 62764 20181101104654
172.69.130.87 0 2 138245 
162.158.93.98 2 2 31384 20181110093625
172.68.144.30 0 1 7269 
172.69.55.45 0 1 7629 
172.68.110.27 2 2 79440 20181112164514
172.69.62.69 0 2 3094 
141.101.105.47 0 2 38504 
141.101.76.153 0 1 55742 
162.158.106.107 0 2 35957 
162.158.155.247 0 1 7269 
162.158.89.252 0 1 29113 
162.158.88.169 0 1 16060 
162.158.93.212 0 1 213689 
108.162.245.117 0 1 3088 
162.158.93.206 0 1 856 
162.158.78.93 0 3 14538 
198.41.238.81 0 3 934531 
172.69.130.93 0 1 71028 
141.101.88.57 0 1 0 
162.158.186.5 0 1 1847 
162.158.91.136 0 1 278 
162.158.179.213 0 1 856 
162.158.93.188 0 1 2430 
172.68.146.73 0 1 2471 
162.158.134.81 0 1 7269 
141.101.88.105 2 2 55531 20181108131031
172.69.130.99 0 2 227427 
162.158.39.10 0 2 0 
108.162.215.249 2 2 62772 20181111031706
172.69.22.7 3 3 94194 20181112193605
108.162.246.16 1 1 31384 20181104042504
162.158.78.27 1 1 24964 20181107120318
162.158.78.105 0 4 29076 
162.158.155.55 0 1 17682 
141.101.76.165 0 2 6014 
162.158.38.231 0 2 23936 
198.41.238.39 0 2 257471 
162.158.114.111 0 1 7269 
162.158.165.189 0 3 20219 
162.158.114.51 1 1 31386 20181112030403
172.69.62.141 0 3 107871 
141.101.88.189 0 3 18070 
172.69.55.183 1 1 28010 20181104102915
172.69.54.230 0 1 0 
172.68.65.29 3 5 99123 20181108035618
172.68.65.197 1 3 33115 20181107120255
162.158.255.33 1 1 0 20181110204744
162.158.38.9 1 1 31386 20181104182514
172.69.134.194 1 1 31403 20181105145424
162.158.78.99 0 3 556 
172.69.135.111 4 4 122187 20181112194226
172.68.133.203 1 1 0 20181110204752
162.158.106.179 2 2 62765 20181106232703
162.158.106.125 2 2 62768 20181112125455
162.158.58.74 4 4 108342 20181112130108
162.158.119.28 1 1 31403 20181107053159
198.41.238.99 0 5 67728 
172.69.68.38 1 1 31382 20181105002144
162.158.178.68 1 1 31403 20181105060310
162.158.90.149 1 1 31386 20181105222244
172.69.55.177 1 1 25069 20181104102920
172.68.189.216 1 1 31389 20181109014827
141.101.77.121 0 2 14538 
172.68.65.143 0 1 20219 
172.68.146.79 0 1 19252 
162.158.93.68 0 1 7322 
172.69.62.57 1 4 72549 20181107120308
162.158.89.18 0 1 14977 
162.158.78.201 1 1 23766 20181107120310
162.158.89.102 0 1 91334 
172.69.22.157 0 2 465075 
172.68.47.65 2 2 56347 20181112130058
162.158.38.135 0 1 8878 
162.158.38.201 0 2 29954 
173.245.48.158 1 1 31386 20181108102519
162.158.78.153 0 1 116 
108.162.245.147 0 2 23936 
162.158.38.51 0 1 2471 
141.101.88.195 2 2 62772 20181108121745
162.158.39.40 0 1 26909 
172.68.144.36 0 4 0 
162.158.89.150 0 1 134776 
173.245.48.92 1 2 33833 20181102174631
108.162.237.27 0 1 7269 
162.158.79.70 1 1 23021 20181107120341
141.101.88.135 0 1 0 
173.245.54.30 0 3 87339 
172.69.22.67 1 1 31403 20181111112629
162.158.79.52 0 1 87940 
172.68.65.167 0 3 451966 
162.158.106.161 1 1 0 20181104043223
141.101.88.225 1 1 31386 20181108231536
172.68.133.71 4 4 94158 20181111112559
172.68.141.165 1 1 31386 20181102190054
172.69.134.200 1 4 335503 20181108120535
172.69.69.111 1 1 31386 20181102100221
108.162.245.45 0 1 26540 
162.158.79.226 1 1 31384 20181104142742
141.101.105.167 0 1 91334 
172.68.46.112 0 1 7269 
198.41.242.63 1 1 39720 20181110071658
162.158.89.240 3 3 88207 20181112153915
162.158.111.114 0 1 26909 
141.101.88.63 0 1 0 
172.69.62.87 0 1 16060 
172.69.134.68 4 4 112893 20181101205633
162.158.78.213 1 1 27392 20181107120331
162.158.58.98 2 2 59347 20181112130103
162.158.106.215 0 5 556 
172.69.62.21 0 3 53818 
162.158.106.137 3 3 94147 20181112155920
172.69.226.124 1 1 31384 20181108130937
172.68.142.118 2 2 62806 20181109020502
162.158.90.173 1 1 39394 20181111173647
172.69.130.33 2 4 206839 20181111122933
162.158.78.69 0 1 824 
172.68.211.9 0 1 1737 
172.69.130.39 0 2 58213 
172.69.134.56 1 2 245075 20181106095937
172.68.143.173 3 3 84186 20181110204802
172.68.144.234 0 1 105067 
108.162.215.135 0 1 3352 
172.69.55.159 0 2 10534 
172.68.142.214 2 2 62778 20181112065240
108.162.229.15 0 1 32494 
162.158.79.148 0 1 16038 
172.69.70.10 0 1 7269 
162.158.59.129 0 1 856 
141.101.105.17 0 1 4168 
172.68.46.142 0 1 95933 
172.69.23.68 0 4 2430 
198.41.238.33 0 1 7322 
162.158.89.162 0 1 12409 
172.68.46.250 1 1 39390 20181102000713
172.68.65.131 0 4 614340 
162.158.79.190 0 3 10534 
162.158.165.159 1 5 31386 20181105151441
141.101.107.215 0 1 14977 
162.158.154.18 1 1 31386 20181107182656
162.158.89.228 0 2 27541 
172.68.146.127 2 2 62772 20181108100718
108.162.245.69 0 12 256081 
172.69.55.141 0 1 26540 
162.158.107.6 4 4 125536 20181109073907
141.101.69.230 0 1 0 
173.245.54.42 0 2 914094 
172.68.143.131 1 1 0 20181110204816
172.69.226.70 0 1 160781 
172.69.22.49 0 3 0 
172.68.110.45 1 1 39394 20181108094440
162.158.94.43 0 1 110755 
162.158.88.61 0 1 26540 
108.162.215.177 3 3 94209 20181111223246
162.158.243.64 1 1 31403 20181107052908
162.158.179.105 0 1 31900 
141.101.105.173 0 1 2471 
172.69.62.81 1 5 254354 20181109033118
162.158.92.15 0 1 1737 
162.158.90.197 1 4 259802 20181106053306
172.68.142.64 0 1 91334 
108.162.229.69 0 2 12409 
172.68.202.45 0 21 224522 
162.158.38.63 0 2 12409 
162.158.90.89 1 1 31386 20181112104246
172.68.47.131 0 1 278 
108.162.246.58 2 2 62768 20181108100909
141.101.77.55 0 1 95933 
108.162.229.177 1 1 31382 20181109065050
162.158.23.22 2 2 62772 20181101234937
162.158.111.18 1 1 31403 20181102083815
172.69.134.74 2 2 62772 20181108093549
141.101.97.81 1 1 31384 20181103154708
108.162.246.124 1 1 31385 20181109165736
198.41.242.75 2 2 79440 20181110220315
172.68.132.94 0 2 0 
198.41.238.27 0 3 162053 
162.158.92.243 1 1 0 20181110002713
198.41.238.51 3 5 103259 20181107125842
172.68.65.41 1 1 22846 20181107120301
162.158.78.171 1 1 31385 20181111124130
172.69.22.37 1 1 31403 20181103220016
162.158.187.18 0 1 213689 
162.158.89.36 0 1 1847 
172.68.146.91 1 1 31386 20181103112156
162.158.255.9 1 1 31403 20181110185430
172.68.141.141 0 3 856 
172.68.239.4 4 4 125544 20181111001801
172.69.33.190 4 4 102994 20181112130106
162.158.106.65 0 2 15258 
108.162.249.165 1 1 31386 20181110074119
162.158.90.191 1 3 122414 20181102055239
162.158.93.86 0 1 35957 
162.158.38.141 0 1 538 
141.101.104.160 0 2 14644 
162.158.89.12 0 1 8878 
172.68.65.11 0 3 95700 
141.101.77.229 1 2 68524 20181106112505
108.162.246.178 1 1 0 20181111124229
141.101.76.75 0 1 856 
162.158.92.141 0 1 465075 
108.162.238.16 0 1 225571 
162.158.18.99 1 1 39737 20181104004859
108.162.229.159 1 1 31382 20181108045911
172.69.226.106 1 1 31386 20181109185731
162.158.89.108 0 1 2430 
172.68.65.161 0 3 27924 
172.69.130.51 2 6 167468 20181111123207
108.162.245.129 1 1 31382 20181111163321
172.68.238.237 4 4 125544 20181111193938
141.101.88.147 1 1 31386 20181108203810
162.158.179.147 0 1 1743 
162.158.90.119 1 1 31382 20181102195925
162.158.38.117 0 1 167928 
172.68.47.227 0 1 194 
141.101.99.190 1 1 31386 20181103234133
162.158.75.129 3 3 94146 20181107161524
162.158.78.207 0 2 6014 
162.158.93.182 0 1 856 
162.158.93.242 1 1 39394 20181110220313
162.158.93.20 0 1 457047 
172.69.62.27 0 3 3694 
108.162.246.190 1 1 31386 20181110211320
162.158.166.76 0 9 53470 
172.69.62.111 0 4 539104 
172.69.130.27 0 1 134776 
172.68.132.22 0 1 0 
162.158.165.231 0 1 26540 
108.162.245.123 0 1 7269 
172.68.143.83 2 2 62773 20181102115214
172.68.141.231 1 1 31387 20181108071427
162.158.58.212 0 1 824 
172.68.144.162 0 1 856 
162.158.154.222 0 1 32494 
108.162.246.112 1 1 0 20181107120254
172.68.144.42 0 4 0 
172.69.62.237 0 2 3088 
162.158.93.116 0 1 194 
108.162.245.165 0 2 0 
162.158.165.21 0 1 457047 
172.69.135.159 0 1 66064 
162.158.111.203 0 1 3088 
141.101.105.161 0 2 3694 
172.68.132.226 0 2 0 
172.68.146.115 0 1 110755 
108.162.215.195 0 1 29113 
172.68.65.173 4 4 118159 20181108163827
162.158.106.59 1 1 0 20181110172140
108.162.246.130 1 1 31383 20181104121456
162.158.78.225 1 1 26577 20181107120314
162.158.93.62 0 1 29113 
141.101.77.181 0 1 1743 
198.41.238.9 0 3 59226 
108.162.241.63 2 2 31389 20181110084728
172.69.62.45 1 1 31386 20181106211925
162.158.92.165 0 2 98963 
172.68.65.215 1 1 25088 20181107120321
198.41.242.81 3 3 118508 20181109143416
141.101.69.218 1 1 31384 20181103125651
108.162.246.160 1 3 45348 20181109032939
172.69.226.130 1 1 31403 20181108231538
172.68.133.227 4 4 100677 20181110204815
141.101.69.146 0 1 0 
162.158.111.24 2 2 70795 20181106112443
172.69.226.46 3 4 101427 20181110130442
172.68.253.52 0 1 7322 
141.101.76.141 1 1 31384 20181102174705
172.68.211.165 0 1 0 
162.158.89.60 0 1 95933 
162.158.122.179 1 1 31386 20181101222310
172.68.65.5 0 1 160781 
172.69.226.64 0 1 0 
162.158.88.91 0 1 13962 
162.158.75.159 1 1 31382 20181101023715
108.162.237.183 1 1 28029 20181105222102
108.162.238.64 0 1 457047 
141.101.76.159 0 1 134776 
172.68.239.160 4 4 125544 20181108050606
172.69.62.51 0 2 182668 
162.158.126.51 1 1 31384 20181111063334
162.158.18.159 1 1 39411 20181104004857
162.158.89.72 0 1 23936 
172.69.62.129 0 4 671712 
162.158.186.65 2 2 62764 20181104103122
172.69.62.225 0 3 2430 
172.68.141.249 1 1 31386 20181105013155
172.69.22.19 2 2 54394 20181101084122
162.158.58.164 0 1 0 
108.162.229.57 0 1 0 
162.158.88.145 3 4 45351 20181110011511
172.68.46.82 4 4 121601 20181112193603
141.101.88.237 0 1 0 
162.158.186.125 2 2 62764 20181104103115
162.158.90.215 0 1 134776 
162.158.111.132 2 2 45692 20181102121948
162.158.38.69 0 2 556 
172.69.22.55 3 3 62765 20181110204754
172.68.110.21 2 2 78788 20181112164513
162.158.186.119 1 2 33853 20181105003712
162.158.89.246 0 1 2471 
172.69.135.129 0 4 556 
141.101.107.239 0 1 87940 
162.158.78.249 1 1 24964 20181101204402
141.101.77.79 0 1 31900 
141.101.96.74 2 2 62764 20181106174655
108.162.249.237 1 1 31386 20181110074129
162.158.106.119 1 1 31384 20181101152113
172.68.46.148 0 1 0 
162.158.38.15 0 4 12896 
162.158.39.34 0 1 19252 
172.69.22.139 1 1 31403 20181108134825
141.101.76.93 0 1 538 
172.68.65.71 0 2 427378 
198.41.238.45 1 3 36287 20181107125727
162.158.186.71 0 1 35957 
172.69.55.171 0 2 4860 
162.158.222.87 1 1 31403 20181102153802
162.158.88.79 0 1 465075 
172.68.253.112 0 1 19252 
172.68.144.216 0 4 95933 
172.68.211.189 1 1 31384 20181109142451
141.101.77.133 0 1 87940 
162.158.167.35 0 1 194 
172.69.134.50 1 1 31386 20181103102203
172.69.54.152 0 2 6704 
172.68.143.125 1 1 31387 20181105093117
141.101.88.153 0 3 29954 
172.68.133.29 0 2 20219 
172.69.135.39 2 4 284282 20181111135630
198.41.238.15 0 2 14898 
108.162.246.196 4 4 125530 20181112155919
172.68.143.191 1 1 0 20181110204758
108.162.245.81 2 2 62769 20181108235053
162.158.89.138 0 1 1547 
108.162.245.159 0 1 7269 
172.68.254.65 1 2 34755 20181105060302
172.68.58.202 1 1 31382 20181101032326
172.68.144.90 1 2 39689 20181111135644
141.101.69.254 3 3 84520 20181109185812
172.68.110.99 3 3 119594 20181111173648
162.158.166.226 0 1 153585 
162.158.38.243 0 2 0 
162.158.91.190 0 1 26540 
162.158.78.141 0 4 59908 
173.245.48.74 2 2 62764 20181107015938
108.162.215.183 0 1 0 
108.162.216.105 0 1 14977 
162.158.166.52 3 4 155631 20181108223645
172.69.62.183 5 5 156917 20181110172140
108.162.245.15 0 2 2430 
162.158.93.248 0 1 7269 
162.158.90.185 0 1 225571 
162.158.106.239 1 1 31403 20181111020918
141.101.76.21 0 2 930150 
162.158.78.21 0 2 38504 
162.158.89.126 1 1 31389 20181105160441
172.69.130.81 0 2 132631 
162.158.106.53 1 1 31403 20181101075421
108.162.229.99 0 1 0 
162.158.90.11 0 1 1743 
141.101.69.62 0 1 16038 
172.68.146.19 0 4 0 
162.158.222.33 2 2 79493 20181102153805
141.101.76.123 0 1 13962 
162.158.91.88 0 3 183539 
162.158.255.45 1 1 31403 20181107052204
162.158.22.201 0 1 7269 
172.68.143.161 0 1 134776 
172.68.143.179 1 1 23006 20181101060601
108.162.245.111 0 2 95933 
162.158.111.66 0 1 194 
172.69.134.26 0 4 0 
108.162.229.249 2 2 62768 20181108131006
141.101.88.93 0 1 0 
198.41.238.87 0 4 114579 
162.158.224.105 2 2 62764 20181106192310
141.101.76.201 0 1 35957 
172.68.142.124 0 2 0 
172.68.189.12 1 1 31403 20181107004221
172.68.62.21 1 1 31386 20181111092656
162.158.88.13 1 2 66303 20181101185504
141.101.77.175 3 3 102160 20181110082051
172.69.62.75 0 3 53080 
172.68.144.246 3 3 94158 20181109065354
162.158.79.46 0 2 3486 
108.162.215.225 0 3 44931 
141.101.88.207 3 3 87753 20181102135921
172.69.62.177 0 1 32494 
162.158.187.12 0 1 14977 
172.69.22.253 1 1 31388 20181110044222
172.69.54.116 1 1 36050 20181109011426
162.158.154.30 0 1 116 
172.69.130.105 0 1 3007 
141.101.88.219 1 1 31386 20181110130443
172.69.226.94 0 1 91334 
108.162.215.87 1 2 30284 20181108134726
162.158.88.127 0 1 3352 
162.158.90.65 0 1 5267 
162.158.38.219 0 2 3088 
141.101.105.41 0 1 23936 
172.68.146.229 0 1 77890 
162.158.167.89 0 1 1737 
141.101.88.123 1 1 31384 20181108130942
172.68.143.71 1 1 31403 20181112175148
162.158.167.65 0 3 166507 
162.158.93.74 0 1 7269 
162.158.79.22 0 2 7269 
108.162.238.244 0 1 194 
162.158.106.191 0 3 40438 
162.158.165.243 0 2 32076 
162.158.79.166 2 2 59840 20181107120335
172.68.144.96 1 1 31386 20181101205526
162.158.106.47 0 2 10534 
162.158.88.133 0 1 824 
172.69.23.38 0 1 0 
162.158.93.44 0 1 19252 
162.158.79.238 0 3 24818 
162.158.106.23 0 2 0 
162.158.78.111 1 4 47015 20181107120312
162.158.78.189 0 4 332265 
162.158.134.177 1 1 31386 20181106013425
162.158.38.129 0 1 110755 
172.69.55.15 0 1 160781 
162.158.38.33 0 2 220958 
162.158.79.10 0 2 14644 
173.245.54.6 0 1 17682 
162.158.39.16 0 2 0 
172.68.133.95 0 2 0 
162.158.92.195 0 2 37804 
172.69.62.195 0 4 7851 
162.158.167.179 1 1 25088 20181108223725
162.158.111.84 0 2 556 
162.158.88.109 0 1 3007 
162.158.78.159 0 3 930150 
172.69.55.63 0 1 0 
172.69.33.160 0 1 0 
162.158.90.5 0 1 3352 
172.69.62.15 1 1 24814 20181107120323
172.68.58.166 1 1 31386 20181107092034
172.68.150.111 1 1 31382 20181106093831
141.101.96.50 1 1 31384 20181103154706
162.158.78.57 1 4 33240 20181107120326
162.158.165.129 0 1 134776 
162.158.79.124 1 1 36050 20181107120303
162.158.92.3 0 2 4554 
END_VISITOR

# Date - Pages - Hits - Bandwidth - Visits
BEGIN_DAY 30
20181101 56 137 4907231 43
20181102 37 80 2268621 33
20181103 45 76 2603118 30
20181104 32 74 1696473 25
20181105 41 93 4036431 29
20181106 38 126 5726425 30
20181107 59 154 6899048 53
20181108 75 96 2359514 58
20181109 32 100 2594590 29
20181110 67 102 1796048 45
20181111 39 109 3796664 30
20181112 56 106 4530867 36
20181113 31 74 4339402 9
20181114 66 150 6677306 8
20181115 32 44 1672082 9
20181116 38 54 2487211 11
20181117 18 28 730380 9
20181118 30 49 2015872 9
20181119 21 60 3357354 6
20181120 16 30 1228364 10
20181121 50 78 3121998 7
20181122 44 90 3854566 7
20181123 32 65 3243405 7
20181124 49 74 2808008 8
20181125 14 35 1705229 7
20181126 45 89 4137185 6
20181127 19 48 1650224 7
20181128 19 62 3133783 9
20181129 36 73 3379729 8
20181130 17 26 596492 6
END_DAY

# Session range - Number of visits
BEGIN_SESSION 7
5mn-15mn 9
15mn-30mn 15
2mn-5mn 8
0s-30s 477
30s-2mn 22
1h+ 28
30mn-1h 25
END_SESSION

# URL - Pages - Bandwidth - Entry - Exit
# The 25 first Pages must be first (order not required for others)
BEGIN_SIDER 38
/ 675 20653523 438 419
/contact-us 60 2333407 20 27
/contact-us.php 54 2095732 28 30
/gallery 33 1189587 9 11
/location 30 685295 6 10
/accommodation/deluxe-rooms 29 702362 7 8
/index.php 29 910306 10 16
/accommodation/standard-rooms 28 698951 7 8
/accommodation 28 756643 9 6
/accommodation/super-deluxe-rooms 23 570660 6 6
/promotions 21 518175 3 5
/facilities/restaurant 18 410135 4 6
/about-us 18 414250 7 6
/facilities 15 398593 4 2
/suites.php 13 356673 2 5
/privacy-policy 12 301254 5 4
/facilities/swimming-pool 11 261384 3 2
/terms-and-conditions 11 284308 3 1
/swimming-pool.php 8 204785 0 2
/contact-us/ 4 163372 1 1
/accommodation/privacy-policy 4 84607 1 2
/promotions.php 4 98687 0 0
/index.php/component/users/ 4 125532 2 0
/accommodation.php 3 84045 2 1
/facilities/about-us 2 23277 1 1
/accommodation/about-us 2 46574 0 1
/accommodation/promotions 1 22183 0 0
/accommodation/facilities 1 24944 0 0
/facilities/terms-and-conditions 1 29299 0 0
/accommodation/location 1 22846 0 0
/facilities.php 1 26577 1 0
/facilities/privacy-policy 2 56398 1 1
/accommodation/terms-and-conditions 2 58618 0 0
/facilities/facilities 2 49888 1 1
/facilities/location 1 22846 1 1
/sitemap.xml 1 1959 0 0
/facilities/accommodation 1 26386 1 1
/facilities/promotions 1 22183 1 0
END_SIDER
