AWSTATS DATA FILE 7.6 (build 20161204)
# If you remove this file, all statistics for date 201807 will be lost/reset.
# Last config file used to build this data file was /home2/fyfxamvcmvss/tmp/awstats/awstats.cms.freudenbergleisure.com.conf.

# Position (offset in bytes) in this file for beginning of each section for
# direct I/O access. If you made changes somewhere in this file, you should
# also remove completely the MAP section (AWStats will rewrite it at next
# update).
BEGIN_MAP 28
POS_GENERAL 2028                
POS_TIME 2700                
POS_VISITOR 6062                
POS_DAY 6664                
POS_DOMAIN 3206                
POS_LOGIN 3434                
POS_ROBOT 3589                
POS_WORMS 3721                
POS_EMAILSENDER 3852                
POS_EMAILRECEIVER 3995                
POS_SESSION 6851                
POS_SIDER 6998                
POS_FILETYPES 4130                
POS_DOWNLOADS 4266                
POS_OS 4314                
POS_BROWSER 4393                
POS_SCREENSIZE 4472                
POS_UNKNOWNREFERER 4546                
POS_UNKNOWNREFERERBROWSER 4959                
POS_ORIGIN 5041                
POS_SEREFERRALS 5174                
POS_PAGEREFS 5318                
POS_SEARCHWORDS 5466                
POS_KEYWORDS 5618                
POS_MISC 2364                
POS_ERRORS 5677                
POS_CLUSTER 3290                
POS_SIDER_404 5753                
END_MAP

# LastLine    = Date of last record processed - Last record line number in last log - Last record offset in last log - Last record signature value
# FirstTime   = Date of first visit for history file
# LastTime    = Date of last visit for history file
# LastUpdate  = Date of last update - Nb of parsed records - Nb of parsed old records - Nb of parsed new records - Nb of parsed corrupted - Nb of parsed dropped
# TotalVisits = Number of visits
# TotalUnique = Number of unique visitors
# MonthHostsKnown   = Number of hosts known
# MonthHostsUnKnown = Number of hosts unknown
BEGIN_GENERAL 8
LastLine 20180805125222 1 0 10536230568513
FirstTime 20180704124621
LastTime 20180729160021
LastUpdate 20180805173603 1 0 0 0 0
TotalVisits 16                  
TotalUnique 10                  
MonthHostsKnown 0                   
MonthHostsUnknown 16                  
END_GENERAL

# Misc ID - Pages - Hits - Bandwidth
BEGIN_MISC 10
TotalMisc 0 0 0
WindowsMediaPlayerSupport 0 0 0
JavaEnabled 0 0 0
QuickTimeSupport 0 0 0
FlashSupport 0 0 0
PDFSupport 0 0 0
DirectorSupport 0 0 0
RealPlayerSupport 0 0 0
AddToFavourites 0 0 0
JavascriptDisabled 0 0 0
END_MISC

# Hour - Pages - Hits - Bandwidth - Not viewed Pages - Not viewed Hits - Not viewed Bandwidth
BEGIN_TIME 24
0 0 0 0 0 0 0
1 0 0 0 0 0 0
2 0 0 0 0 0 0
3 0 0 0 0 0 0
4 0 0 0 0 0 0
5 4 10 368529 0 0 0
6 6 18 737058 0 0 0
7 0 0 0 0 0 0
8 0 0 0 0 0 0
9 0 0 0 0 0 0
10 5 17 737058 0 0 0
11 0 0 0 0 0 0
12 1 1 3747 0 0 0
13 0 0 0 0 0 0
14 0 0 0 0 0 0
15 1 1 3747 0 0 0
16 3 9 368529 0 0 0
17 0 0 0 0 0 0
18 0 0 0 0 0 0
19 0 0 0 0 0 0
20 0 0 0 0 0 0
21 0 0 0 0 0 0
22 0 0 0 0 0 0
23 0 0 0 0 0 0
END_TIME

# Domain - Pages - Hits - Bandwidth
# The 25 first Pages must be first (order not required for others)
BEGIN_DOMAIN 1
us 20 56 2218668
END_DOMAIN

# Cluster ID - Pages - Hits - Bandwidth
BEGIN_CLUSTER 0
END_CLUSTER

# Login - Pages - Hits - Bandwidth - Last visit
# The 10 first Pages must be first (order not required for others)
BEGIN_LOGIN 0
END_LOGIN

# Robot ID - Hits - Bandwidth - Last visit - Hits on robots.txt
# The 25 first Hits must be first (order not required for others)
BEGIN_ROBOT 0
END_ROBOT

# Worm ID - Hits - Bandwidth - Last visit
# The 5 first Hits must be first (order not required for others)
BEGIN_WORMS 0
END_WORMS

# EMail - Hits - Bandwidth - Last visit
# The 20 first Hits must be first (order not required for others)
BEGIN_EMAILSENDER 0
END_EMAILSENDER

# EMail - Hits - Bandwidth - Last visit
# The 20 first hits must be first (order not required for others)
BEGIN_EMAILRECEIVER 0
END_EMAILRECEIVER

# Files type - Hits - Bandwidth - Bandwidth without compression - Bandwidth after compression
BEGIN_FILETYPES 4
html 14 29976 0 0
woff 6 140544 0 0
js 18 768942 0 0
css 18 1279206 0 0
END_FILETYPES

# Downloads - Hits - Bandwidth
BEGIN_DOWNLOADS 0
END_DOWNLOADS

# OS ID - Hits
BEGIN_OS ID - Hits - Pages 1
Unknown 56 20
END_OS

# Browser ID - Hits - Pages
BEGIN_BROWSER 2
mozilla 2 2
cloudflare 54 18
END_BROWSER

# Screen size - Hits
BEGIN_SCREENSIZE 0
END_SCREENSIZE

# Unknown referer OS - Last visit date
BEGIN_UNKNOWNREFERER 3
Mozilla/5.0_(compatible;_CloudFlare-AlwaysOnline/1.0;__http://www.cloudflare.com/always-online) 20180729160018
Mozilla/5.0_(compatible;_CloudFlare-AlwaysOnline/1.0;__http://www.cloudflare.com/always-online)_AppleWebKit/534.34 20180729160021
Mozilla/5.0_(compatible;_NetcraftSurveyAgent/1.0;__info@netcraft.com) 20180709150814
END_UNKNOWNREFERER

# Unknown referer Browser - Last visit date
BEGIN_UNKNOWNREFERERBROWSER 0
END_UNKNOWNREFERERBROWSER

# Origin - Pages - Hits 
BEGIN_ORIGIN 6
From0 14 14
From1 0 0
From2 0 0
From3 0 0
From4 6 42
From5 0 0
END_ORIGIN

# Search engine referers ID - Pages - Hits
BEGIN_SEREFERRALS 0
END_SEREFERRALS

# External page referers - Pages - Hits
# The 25 first Pages must be first (order not required for others)
BEGIN_PAGEREFS 0
END_PAGEREFS

# Search keyphrases - Number of search
# The 10 first number of search must be first (order not required for others)
BEGIN_SEARCHWORDS 0
END_SEARCHWORDS

# Search keywords - Number of search
# The 25 first number of search must be first (order not required for others)
BEGIN_KEYWORDS 0
END_KEYWORDS

# Errors - Hits - Bandwidth
BEGIN_ERRORS 0
END_ERRORS

# URL with 404 errors - Hits - Last URL referrer
BEGIN_SIDER_404 0
END_SIDER_404

# Host - Pages - Hits - Bandwidth - Last visit date - [Start date of last visit] - [Last page of last visit]
# [Start date of last visit] and [Last page of last visit] are saved only if session is not finished
# The 25 first Hits must be first (order not required for others)
BEGIN_VISITOR 16
162.158.79.154 6 6 22482 20180729160019
172.68.65.41 6 6 140544 20180729160021
162.158.63.141 1 1 3747 20180709150814
162.158.63.159 1 1 3747 20180704124621
108.162.245.45 1 1 0 20180722104720
172.68.132.58 1 1 0 20180708050631
162.158.255.117 1 1 0 20180715065404
162.158.107.18 1 1 0 20180708050631
108.162.246.64 1 1 0 20180729160018
172.68.132.208 1 1 0 20180715065404
162.158.78.129 0 6 542340 
162.158.79.166 0 6 9666 
162.158.78.237 0 6 519576 
162.158.79.190 0 6 222270 
172.68.65.173 0 6 727200 
172.69.62.75 0 6 27096 
END_VISITOR

# Date - Pages - Hits - Bandwidth - Visits
BEGIN_DAY 6
20180704 1 1 3747 1
20180708 4 10 368529 4
20180709 1 1 3747 1
20180715 6 18 737058 4
20180722 5 17 737058 3
20180729 3 9 368529 3
END_DAY

# Session range - Number of visits
BEGIN_SESSION 1
0s-30s 16
END_SESSION

# URL - Pages - Bandwidth - Entry - Exit
# The 25 first Pages must be first (order not required for others)
BEGIN_SIDER 2
/ 14 29976 12 12
/assets/bootstrap-3.3.7-dist/fonts/glyphicons-halflings-regular.woff 6 140544 4 4
END_SIDER
