AWSTATS DATA FILE 7.6 (build 20161204)
# If you remove this file, all statistics for date 201807 will be lost/reset.
# Last config file used to build this data file was /home2/fyfxamvcmvss/tmp/awstats/awstats.randholeeresort.freudenbergleisure.lk.conf.

# Position (offset in bytes) in this file for beginning of each section for
# direct I/O access. If you made changes somewhere in this file, you should
# also remove completely the MAP section (AWStats will rewrite it at next
# update).
BEGIN_MAP 28
POS_GENERAL 2039                
POS_TIME 2711                
POS_VISITOR 6762                
POS_DAY 7708                
POS_DOMAIN 3332                
POS_LOGIN 3586                
POS_ROBOT 3741                
POS_WORMS 4135                
POS_EMAILSENDER 4266                
POS_EMAILRECEIVER 4409                
POS_SESSION 8019                
POS_SIDER 8186                
POS_FILETYPES 4544                
POS_DOWNLOADS 4660                
POS_OS 4708                
POS_BROWSER 4851                
POS_SCREENSIZE 5157                
POS_UNKNOWNREFERER 5231                
POS_UNKNOWNREFERERBROWSER 5644                
POS_ORIGIN 5726                
POS_SEREFERRALS 5860                
POS_PAGEREFS 6004                
POS_SEARCHWORDS 6152                
POS_KEYWORDS 6304                
POS_MISC 2374                
POS_ERRORS 6363                
POS_CLUSTER 3442                
POS_SIDER_404 6453                
END_MAP

# LastLine    = Date of last record processed - Last record line number in last log - Last record offset in last log - Last record signature value
# FirstTime   = Date of first visit for history file
# LastTime    = Date of last visit for history file
# LastUpdate  = Date of last update - Nb of parsed records - Nb of parsed old records - Nb of parsed new records - Nb of parsed corrupted - Nb of parsed dropped
# TotalVisits = Number of visits
# TotalUnique = Number of unique visitors
# MonthHostsKnown   = Number of hosts known
# MonthHostsUnKnown = Number of hosts unknown
BEGIN_GENERAL 8
LastLine 20180802235040 1 0 8827944751713
FirstTime 20180701075906
LastTime 20180731071151
LastUpdate 20180803174831 1 0 0 0 0
TotalVisits 23                  
TotalUnique 21                  
MonthHostsKnown 0                   
MonthHostsUnknown 23                  
END_GENERAL

# Misc ID - Pages - Hits - Bandwidth
BEGIN_MISC 10
JavaEnabled 0 0 0
JavascriptDisabled 0 0 0
WindowsMediaPlayerSupport 0 0 0
PDFSupport 0 0 0
DirectorSupport 0 0 0
AddToFavourites 0 11 0
RealPlayerSupport 0 0 0
QuickTimeSupport 0 0 0
TotalMisc 0 0 0
FlashSupport 0 0 0
END_MISC

# Hour - Pages - Hits - Bandwidth - Not viewed Pages - Not viewed Hits - Not viewed Bandwidth
BEGIN_TIME 24
0 0 0 0 0 0 0
1 1 1 0 1 1 32479
2 0 0 0 20 23 571494
3 0 0 0 0 3 139980
4 1 1 0 1 2 55182
5 0 0 0 2 2 57503
6 3 3 96345 3 13 365046
7 4 5 234609 3 10 497742
8 0 0 0 1 8 149895
9 5 7 437425 1 3 68109
10 0 0 0 0 2 45406
11 1 1 31719 4 6 165532
12 0 0 0 2 4 110364
13 2 3 201766 5 6 156789
14 2 2 64580 0 0 0
15 0 0 0 0 0 0
16 1 2 169651 1 2 55154
17 0 0 0 0 0 0
18 3 3 96345 17 24 612264
19 0 0 0 1 8 669462
20 0 0 0 2 5 133067
21 0 0 0 0 2 37680
22 4 4 129902 27 33 870040
23 0 0 0 13 17 450061
END_TIME

# Domain - Pages - Hits - Bandwidth
# The 25 first Pages must be first (order not required for others)
BEGIN_DOMAIN 3
us 25 30 1397384
eu 1 1 32479
sc 1 1 32479
END_DOMAIN

# Cluster ID - Pages - Hits - Bandwidth
BEGIN_CLUSTER 0
END_CLUSTER

# Login - Pages - Hits - Bandwidth - Last visit
# The 10 first Pages must be first (order not required for others)
BEGIN_LOGIN 0
END_LOGIN

# Robot ID - Hits - Bandwidth - Last visit - Hits on robots.txt
# The 25 first Hits must be first (order not required for others)
BEGIN_ROBOT 7
no_user_agent 69 1880740 20180711230552 0
Googlebot/ 29 1466192 20180728232643 0
YandexBot/ 11 356891 20180731224723 0
Baiduspider/ 4 129902 20180730015737 0
bingbot/ 3 97437 20180727110656 0
BLEXBot/ 2 36207 20180729070711 0
AhrefsBot/ 1 32479 20180728120242 0
END_ROBOT

# Worm ID - Hits - Bandwidth - Last visit
# The 5 first Hits must be first (order not required for others)
BEGIN_WORMS 0
END_WORMS

# EMail - Hits - Bandwidth - Last visit
# The 20 first Hits must be first (order not required for others)
BEGIN_EMAILSENDER 0
END_EMAILSENDER

# EMail - Hits - Bandwidth - Last visit
# The 20 first hits must be first (order not required for others)
BEGIN_EMAILRECEIVER 0
END_EMAILRECEIVER

# Files type - Hits - Bandwidth - Bandwidth without compression - Bandwidth after compression
BEGIN_FILETYPES 3
png 5 687680 0 0
php 1 31719 0 0
html 26 742943 0 0
END_FILETYPES

# Downloads - Hits - Bandwidth
BEGIN_DOWNLOADS 0
END_DOWNLOADS

# OS ID - Hits
BEGIN_OS ID - Hits - Pages 7
win2000 1 1
Unknown 8 6
winnt 1 1
ios_iphone 2 2
win7 9 8
linux 2 2
win10 9 7
END_OS

# Browser ID - Hits - Pages
BEGIN_BROWSER 14
iphone 1 1
chrome60.0.3112.101 1 1
chrome50.0.2661.102 1 1
firefox33.1 1 1
safari 1 1
chrome55.0.2883.87 3 3
cloudflare 7 5
chrome26.0.1410.63 1 1
firefox44.0 1 1
chrome45.0.2454.101 1 1
chrome67.0.3396.99 10 7
firefox40.1 1 1
firefox45.0 2 2
mozilla 1 1
END_BROWSER

# Screen size - Hits
BEGIN_SCREENSIZE 0
END_SCREENSIZE

# Unknown referer OS - Last visit date
BEGIN_UNKNOWNREFERER 3
Mozilla/5.0_(compatible;_CloudFlare-AlwaysOnline/1.0;__http://www.cloudflare.com/always-online) 20180731071150
Mozilla/5.0_(compatible;_NetcraftSurveyAgent/1.0;__info@netcraft.com) 20180709144258
Mozilla/5.0_(compatible;_CloudFlare-AlwaysOnline/1.0;__http://www.cloudflare.com/always-online)_AppleWebKit/534.34 20180731071157
END_UNKNOWNREFERER

# Unknown referer Browser - Last visit date
BEGIN_UNKNOWNREFERERBROWSER 0
END_UNKNOWNREFERERBROWSER

# Origin - Pages - Hits 
BEGIN_ORIGIN 6
From0 15 15
From1 0 0
From2 0 0
From3 0 0
From4 12 17
From5 0 0
END_ORIGIN

# Search engine referers ID - Pages - Hits
BEGIN_SEREFERRALS 0
END_SEREFERRALS

# External page referers - Pages - Hits
# The 25 first Pages must be first (order not required for others)
BEGIN_PAGEREFS 0
END_PAGEREFS

# Search keyphrases - Number of search
# The 10 first number of search must be first (order not required for others)
BEGIN_SEARCHWORDS 0
END_SEARCHWORDS

# Search keywords - Number of search
# The 25 first number of search must be first (order not required for others)
BEGIN_KEYWORDS 0
END_KEYWORDS

# Errors - Hits - Bandwidth
BEGIN_ERRORS 1
302 44 996622
END_ERRORS

# URL with 404 errors - Hits - Last URL referrer
BEGIN_SIDER_404 0
END_SIDER_404

# Host - Pages - Hits - Bandwidth - Last visit date - [Start date of last visit] - [Last page of last visit]
# [Start date of last visit] and [Last page of last visit] are saved only if session is not finished
# The 25 first Hits must be first (order not required for others)
BEGIN_VISITOR 23
172.68.202.9 5 5 161989 20180725093036
172.68.211.15 2 2 64230 20180707060154
172.68.202.45 2 2 64230 20180705131742
172.68.245.84 1 1 31719 20180707113229
162.158.63.201 1 1 32465 20180709144258
162.158.79.100 1 1 32115 20180702163125
108.162.245.195 1 1 32479 20180730072728
172.68.211.93 1 1 32115 20180703183959
197.234.242.87 1 1 32479 20180717220851
172.68.239.70 1 1 32115 20180701075906
173.245.48.86 1 1 32115 20180703183944
162.158.59.111 1 1 32115 20180703184040
108.162.245.45 1 1 0 20180717015427
162.158.155.253 1 1 32479 20180717220850
162.158.78.207 1 1 32479 20180731071151
172.68.133.239 1 1 0 20180724043236
172.68.211.51 1 1 32115 20180707060341
172.68.189.162 1 1 0 20180731071150
172.69.54.146 1 1 32479 20180717220850
141.101.105.197 1 1 32479 20180727093336
172.68.211.39 1 1 32465 20180707221612
172.68.202.39 0 3 412608 
162.158.79.46 0 2 275072 
END_VISITOR

# Date - Pages - Hits - Bandwidth - Visits
BEGIN_DAY 12
20180701 1 1 32115 1
20180702 1 2 169651 1
20180703 3 3 96345 3
20180705 3 4 233881 2
20180707 5 5 160529 4
20180709 4 5 267396 2
20180717 4 4 97437 4
20180724 1 1 0 1
20180725 1 2 170015 1
20180727 1 1 32479 1
20180730 1 1 32479 1
20180731 2 3 170015 2
END_DAY

# Session range - Number of visits
BEGIN_SESSION 3
30s-2mn 1
2mn-5mn 1
0s-30s 21
END_SESSION

# URL - Pages - Bandwidth - Entry - Exit
# The 25 first Pages must be first (order not required for others)
BEGIN_SIDER 2
/ 26 742943 22 22
/terms-and-conditions.php 1 31719 1 1
END_SIDER
